{"failedCount":0,"prefixedPath":"src\/test\/java\/Features\/GETapiquery.feature","packageQualifiedName":"src.test.java.Features.GETapiquery","loopIndex":-1,"relativePath":"src\/test\/java\/Features\/GETapiquery.feature","scenarioResults":[{"sectionIndex":0,"stepResults":[{"result":{"nanos":80422800,"millis":80.4228,"status":"passed"},"step":{"line":4,"prefix":"*","index":0,"text":"def query = {status:'active'}"}},{"result":{"nanos":150331400,"millis":150.3314,"status":"passed"},"step":{"line":5,"prefix":"Given","index":1,"text":"url 'https:\/\/gorest.co.in\/public\/v1\/users'"}},{"result":{"nanos":58084000,"millis":58.084,"status":"passed"},"step":{"line":6,"prefix":"And","index":2,"text":"params query"}},{"result":{"nanos":2111264100,"millis":2111.2641,"status":"passed"},"step":{"line":7,"prefix":"When","index":3,"text":"method GET"},"stepLog":"12:07:07.280 request:\n1 > GET https:\/\/gorest.co.in\/public\/v1\/users?status=active\n1 > Host: gorest.co.in\n1 > Connection: Keep-Alive\n1 > User-Agent: Apache-HttpClient\/4.5.12 (Java\/17.0.4.1)\n1 > Accept-Encoding: gzip,deflate\n\n\n12:07:08.768 response time in milliseconds: 1482\n1 < 200\n1 < Date: Sat, 08 Oct 2022 16:07:08 GMT\n1 < Content-Type: application\/json; charset=utf-8\n1 < Transfer-Encoding: chunked\n1 < Connection: keep-alive\n1 < Cache-Control: max-age=0, private, must-revalidate\n1 < etag: W\/\"cd9fe4f4bdadc4e3cf4652fe765e4f31\"\n1 < referrer-policy: strict-origin-when-cross-origin\n1 < vary: Origin\n1 < x-content-type-options: nosniff\n1 < x-download-options: noopen\n1 < x-frame-options: SAMEORIGIN\n1 < x-permitted-cross-domain-policies: none\n1 < x-request-id: 4408556f-1211-486e-83a7-e72fd51e6770\n1 < x-runtime: 0.033091\n1 < x-xss-protection: 0\n1 < CF-Cache-Status: DYNAMIC\n1 < Report-To: {\"endpoints\":[{\"url\":\"https:\\\/\\\/a.nel.cloudflare.com\\\/report\\\/v3?s=rK%2Bsv6jHpbzsIycriBRuR4yFdj%2BtXMOq608HlmFeHJbfoDZNB%2FFv47ZIte%2BWfs16hrNDnintWRZsv276CQl4zuYfvvfl112NO%2Fl4saHTGqQvb2EqtbTlkpZ4O2ZCwSM%3D\"}],\"group\":\"cf-nel\",\"max_age\":604800}\n1 < NEL: {\"success_fraction\":0,\"report_to\":\"cf-nel\",\"max_age\":604800}\n1 < Server: cloudflare\n1 < CF-RAY: 757020b17e40b11b-ATL\n1 < alt-svc: h3=\":443\"; ma=86400, h3-29=\":443\"; ma=86400\n{\"meta\":{\"pagination\":{\"total\":1667,\"pages\":167,\"page\":1,\"limit\":10,\"links\":{\"previous\":null,\"current\":\"https:\/\/gorest.co.in\/public\/v1\/users?page=1\",\"next\":\"https:\/\/gorest.co.in\/public\/v1\/users?page=2\"}}},\"data\":[{\"id\":3397,\"name\":\"Charumati Patil\",\"email\":\"patil_charumati@herzog-altenwerth.com\",\"gender\":\"male\",\"status\":\"active\"},{\"id\":3392,\"name\":\"Shanti Kocchar\",\"email\":\"kocchar_shanti@wilderman.name\",\"gender\":\"male\",\"status\":\"active\"},{\"id\":3391,\"name\":\"Aadi Agarwal\",\"email\":\"agarwal_aadi@daniel.com\",\"gender\":\"male\",\"status\":\"active\"},{\"id\":3390,\"name\":\"Anurag Asan\",\"email\":\"anurag_asan@walter.co\",\"gender\":\"female\",\"status\":\"active\"},{\"id\":3389,\"name\":\"Gorakhanatha Shukla MD\",\"email\":\"gorakhanatha_shukla_md@tillman.name\",\"gender\":\"female\",\"status\":\"active\"},{\"id\":3386,\"name\":\"Vedang Shah\",\"email\":\"vedang_shah@jakubowski.com\",\"gender\":\"female\",\"status\":\"active\"},{\"id\":3385,\"name\":\"Baalaaditya Pilla\",\"email\":\"baalaaditya_pilla@romaguera.biz\",\"gender\":\"female\",\"status\":\"active\"},{\"id\":3384,\"name\":\"Hari Pillai\",\"email\":\"pillai_hari@johnston.org\",\"gender\":\"female\",\"status\":\"active\"},{\"id\":3383,\"name\":\"Niranjan Adiga\",\"email\":\"adiga_niranjan@halvorson.co\",\"gender\":\"female\",\"status\":\"active\"},{\"id\":3380,\"name\":\"Siddhi Banerjee\",\"email\":\"siddhi_banerjee@wolff.com\",\"gender\":\"male\",\"status\":\"active\"}]}\n\n"},{"result":{"nanos":48200,"millis":0.0482,"status":"passed"},"step":{"line":8,"prefix":"Then","index":4,"text":"status 200"}},{"result":{"nanos":153226000,"millis":153.226,"status":"passed"},"step":{"line":9,"prefix":"*","index":5,"text":"print response"},"stepLog":"12:07:08.930 [print] {\n  \"meta\": {\n    \"pagination\": {\n      \"total\": 1667,\n      \"pages\": 167,\n      \"page\": 1,\n      \"limit\": 10,\n      \"links\": {\n        \"previous\": null,\n        \"current\": \"https:\/\/gorest.co.in\/public\/v1\/users?page=1\",\n        \"next\": \"https:\/\/gorest.co.in\/public\/v1\/users?page=2\"\n      }\n    }\n  },\n  \"data\": [\n    {\n      \"id\": 3397,\n      \"name\": \"Charumati Patil\",\n      \"email\": \"patil_charumati@herzog-altenwerth.com\",\n      \"gender\": \"male\",\n      \"status\": \"active\"\n    },\n    {\n      \"id\": 3392,\n      \"name\": \"Shanti Kocchar\",\n      \"email\": \"kocchar_shanti@wilderman.name\",\n      \"gender\": \"male\",\n      \"status\": \"active\"\n    },\n    {\n      \"id\": 3391,\n      \"name\": \"Aadi Agarwal\",\n      \"email\": \"agarwal_aadi@daniel.com\",\n      \"gender\": \"male\",\n      \"status\": \"active\"\n    },\n    {\n      \"id\": 3390,\n      \"name\": \"Anurag Asan\",\n      \"email\": \"anurag_asan@walter.co\",\n      \"gender\": \"female\",\n      \"status\": \"active\"\n    },\n    {\n      \"id\": 3389,\n      \"name\": \"Gorakhanatha Shukla MD\",\n      \"email\": \"gorakhanatha_shukla_md@tillman.name\",\n      \"gender\": \"female\",\n      \"status\": \"active\"\n    },\n    {\n      \"id\": 3386,\n      \"name\": \"Vedang Shah\",\n      \"email\": \"vedang_shah@jakubowski.com\",\n      \"gender\": \"female\",\n      \"status\": \"active\"\n    },\n    {\n      \"id\": 3385,\n      \"name\": \"Baalaaditya Pilla\",\n      \"email\": \"baalaaditya_pilla@romaguera.biz\",\n      \"gender\": \"female\",\n      \"status\": \"active\"\n    },\n    {\n      \"id\": 3384,\n      \"name\": \"Hari Pillai\",\n      \"email\": \"pillai_hari@johnston.org\",\n      \"gender\": \"female\",\n      \"status\": \"active\"\n    },\n    {\n      \"id\": 3383,\n      \"name\": \"Niranjan Adiga\",\n      \"email\": \"adiga_niranjan@halvorson.co\",\n      \"gender\": \"female\",\n      \"status\": \"active\"\n    },\n    {\n      \"id\": 3380,\n      \"name\": \"Siddhi Banerjee\",\n      \"email\": \"siddhi_banerjee@wolff.com\",\n      \"gender\": \"male\",\n      \"status\": \"active\"\n    }\n  ]\n}\n \n"}],"executorName":"main","line":3,"name":"GET api active user details","description":"","durationMillis":2553.3765,"startTime":1665245226356,"failed":false,"refId":"[1:3]","endTime":1665245228933,"exampleIndex":-1},{"sectionIndex":1,"stepResults":[{"result":{"nanos":3847800,"millis":3.8478,"status":"passed"},"step":{"line":14,"prefix":"*","index":0,"text":"def query = {status:'active'}"}},{"result":{"nanos":1294100,"millis":1.2941,"status":"passed"},"step":{"line":15,"prefix":"Given","index":1,"text":"url 'https:\/\/gorest.co.in\/public\/v1\/users'"}},{"result":{"nanos":347800,"millis":0.3478,"status":"passed"},"step":{"line":16,"prefix":"And","index":2,"text":"params query"}},{"result":{"nanos":1035997200,"millis":1035.9972,"status":"passed"},"step":{"line":17,"prefix":"When","index":3,"text":"method GET"},"stepLog":"12:07:08.978 request:\n1 > GET https:\/\/gorest.co.in\/public\/v1\/users?status=active\n1 > Host: gorest.co.in\n1 > Connection: Keep-Alive\n1 > User-Agent: Apache-HttpClient\/4.5.12 (Java\/17.0.4.1)\n1 > Accept-Encoding: gzip,deflate\n\n\n12:07:09.995 response time in milliseconds: 1014\n1 < 200\n1 < Date: Sat, 08 Oct 2022 16:07:09 GMT\n1 < Content-Type: application\/json; charset=utf-8\n1 < Transfer-Encoding: chunked\n1 < Connection: keep-alive\n1 < Cache-Control: max-age=0, private, must-revalidate\n1 < etag: W\/\"cd9fe4f4bdadc4e3cf4652fe765e4f31\"\n1 < referrer-policy: strict-origin-when-cross-origin\n1 < vary: Origin\n1 < x-content-type-options: nosniff\n1 < x-download-options: noopen\n1 < x-frame-options: SAMEORIGIN\n1 < x-permitted-cross-domain-policies: none\n1 < x-request-id: ec25b0ee-0cdb-4afc-a623-b1c44248a908\n1 < x-runtime: 0.038041\n1 < x-xss-protection: 0\n1 < CF-Cache-Status: DYNAMIC\n1 < Report-To: {\"endpoints\":[{\"url\":\"https:\\\/\\\/a.nel.cloudflare.com\\\/report\\\/v3?s=uIefh5hRPYve8TVKx%2Bd37DWlVasL0NMYFdpI3hV6qpDRAcMs3xNyDUAs44HFzMXOH%2FE4w6AcGcIPif%2FevRJ%2FGoWyHZyyAtjp1CJcARkspoxoNCbHePLr7orNiUmf%2Bfg%3D\"}],\"group\":\"cf-nel\",\"max_age\":604800}\n1 < NEL: {\"success_fraction\":0,\"report_to\":\"cf-nel\",\"max_age\":604800}\n1 < Server: cloudflare\n1 < CF-RAY: 757020b97830b153-ATL\n1 < alt-svc: h3=\":443\"; ma=86400, h3-29=\":443\"; ma=86400\n{\"meta\":{\"pagination\":{\"total\":1667,\"pages\":167,\"page\":1,\"limit\":10,\"links\":{\"previous\":null,\"current\":\"https:\/\/gorest.co.in\/public\/v1\/users?page=1\",\"next\":\"https:\/\/gorest.co.in\/public\/v1\/users?page=2\"}}},\"data\":[{\"id\":3397,\"name\":\"Charumati Patil\",\"email\":\"patil_charumati@herzog-altenwerth.com\",\"gender\":\"male\",\"status\":\"active\"},{\"id\":3392,\"name\":\"Shanti Kocchar\",\"email\":\"kocchar_shanti@wilderman.name\",\"gender\":\"male\",\"status\":\"active\"},{\"id\":3391,\"name\":\"Aadi Agarwal\",\"email\":\"agarwal_aadi@daniel.com\",\"gender\":\"male\",\"status\":\"active\"},{\"id\":3390,\"name\":\"Anurag Asan\",\"email\":\"anurag_asan@walter.co\",\"gender\":\"female\",\"status\":\"active\"},{\"id\":3389,\"name\":\"Gorakhanatha Shukla MD\",\"email\":\"gorakhanatha_shukla_md@tillman.name\",\"gender\":\"female\",\"status\":\"active\"},{\"id\":3386,\"name\":\"Vedang Shah\",\"email\":\"vedang_shah@jakubowski.com\",\"gender\":\"female\",\"status\":\"active\"},{\"id\":3385,\"name\":\"Baalaaditya Pilla\",\"email\":\"baalaaditya_pilla@romaguera.biz\",\"gender\":\"female\",\"status\":\"active\"},{\"id\":3384,\"name\":\"Hari Pillai\",\"email\":\"pillai_hari@johnston.org\",\"gender\":\"female\",\"status\":\"active\"},{\"id\":3383,\"name\":\"Niranjan Adiga\",\"email\":\"adiga_niranjan@halvorson.co\",\"gender\":\"female\",\"status\":\"active\"},{\"id\":3380,\"name\":\"Siddhi Banerjee\",\"email\":\"siddhi_banerjee@wolff.com\",\"gender\":\"male\",\"status\":\"active\"}]}\n\n"},{"result":{"nanos":43900,"millis":0.0439,"status":"passed"},"step":{"line":18,"prefix":"Then","index":4,"text":"status 200"}},{"result":{"nanos":10787400,"millis":10.7874,"status":"passed"},"step":{"line":19,"prefix":"*","index":5,"text":"print response"},"stepLog":"12:07:10.011 [print] {\n  \"meta\": {\n    \"pagination\": {\n      \"total\": 1667,\n      \"pages\": 167,\n      \"page\": 1,\n      \"limit\": 10,\n      \"links\": {\n        \"previous\": null,\n        \"current\": \"https:\/\/gorest.co.in\/public\/v1\/users?page=1\",\n        \"next\": \"https:\/\/gorest.co.in\/public\/v1\/users?page=2\"\n      }\n    }\n  },\n  \"data\": [\n    {\n      \"id\": 3397,\n      \"name\": \"Charumati Patil\",\n      \"email\": \"patil_charumati@herzog-altenwerth.com\",\n      \"gender\": \"male\",\n      \"status\": \"active\"\n    },\n    {\n      \"id\": 3392,\n      \"name\": \"Shanti Kocchar\",\n      \"email\": \"kocchar_shanti@wilderman.name\",\n      \"gender\": \"male\",\n      \"status\": \"active\"\n    },\n    {\n      \"id\": 3391,\n      \"name\": \"Aadi Agarwal\",\n      \"email\": \"agarwal_aadi@daniel.com\",\n      \"gender\": \"male\",\n      \"status\": \"active\"\n    },\n    {\n      \"id\": 3390,\n      \"name\": \"Anurag Asan\",\n      \"email\": \"anurag_asan@walter.co\",\n      \"gender\": \"female\",\n      \"status\": \"active\"\n    },\n    {\n      \"id\": 3389,\n      \"name\": \"Gorakhanatha Shukla MD\",\n      \"email\": \"gorakhanatha_shukla_md@tillman.name\",\n      \"gender\": \"female\",\n      \"status\": \"active\"\n    },\n    {\n      \"id\": 3386,\n      \"name\": \"Vedang Shah\",\n      \"email\": \"vedang_shah@jakubowski.com\",\n      \"gender\": \"female\",\n      \"status\": \"active\"\n    },\n    {\n      \"id\": 3385,\n      \"name\": \"Baalaaditya Pilla\",\n      \"email\": \"baalaaditya_pilla@romaguera.biz\",\n      \"gender\": \"female\",\n      \"status\": \"active\"\n    },\n    {\n      \"id\": 3384,\n      \"name\": \"Hari Pillai\",\n      \"email\": \"pillai_hari@johnston.org\",\n      \"gender\": \"female\",\n      \"status\": \"active\"\n    },\n    {\n      \"id\": 3383,\n      \"name\": \"Niranjan Adiga\",\n      \"email\": \"adiga_niranjan@halvorson.co\",\n      \"gender\": \"female\",\n      \"status\": \"active\"\n    },\n    {\n      \"id\": 3380,\n      \"name\": \"Siddhi Banerjee\",\n      \"email\": \"siddhi_banerjee@wolff.com\",\n      \"gender\": \"male\",\n      \"status\": \"active\"\n    }\n  ]\n}\n \n"},{"result":{"nanos":1832500,"millis":1.8325,"status":"passed"},"step":{"line":20,"prefix":"*","index":6,"text":"def jsonResponse = response"}},{"result":{"nanos":9502300,"millis":9.5023,"status":"passed"},"step":{"line":21,"prefix":"*","index":7,"text":"print jsonResponse"},"stepLog":"12:07:10.023 [print] {\n  \"meta\": {\n    \"pagination\": {\n      \"total\": 1667,\n      \"pages\": 167,\n      \"page\": 1,\n      \"limit\": 10,\n      \"links\": {\n        \"previous\": null,\n        \"current\": \"https:\/\/gorest.co.in\/public\/v1\/users?page=1\",\n        \"next\": \"https:\/\/gorest.co.in\/public\/v1\/users?page=2\"\n      }\n    }\n  },\n  \"data\": [\n    {\n      \"id\": 3397,\n      \"name\": \"Charumati Patil\",\n      \"email\": \"patil_charumati@herzog-altenwerth.com\",\n      \"gender\": \"male\",\n      \"status\": \"active\"\n    },\n    {\n      \"id\": 3392,\n      \"name\": \"Shanti Kocchar\",\n      \"email\": \"kocchar_shanti@wilderman.name\",\n      \"gender\": \"male\",\n      \"status\": \"active\"\n    },\n    {\n      \"id\": 3391,\n      \"name\": \"Aadi Agarwal\",\n      \"email\": \"agarwal_aadi@daniel.com\",\n      \"gender\": \"male\",\n      \"status\": \"active\"\n    },\n    {\n      \"id\": 3390,\n      \"name\": \"Anurag Asan\",\n      \"email\": \"anurag_asan@walter.co\",\n      \"gender\": \"female\",\n      \"status\": \"active\"\n    },\n    {\n      \"id\": 3389,\n      \"name\": \"Gorakhanatha Shukla MD\",\n      \"email\": \"gorakhanatha_shukla_md@tillman.name\",\n      \"gender\": \"female\",\n      \"status\": \"active\"\n    },\n    {\n      \"id\": 3386,\n      \"name\": \"Vedang Shah\",\n      \"email\": \"vedang_shah@jakubowski.com\",\n      \"gender\": \"female\",\n      \"status\": \"active\"\n    },\n    {\n      \"id\": 3385,\n      \"name\": \"Baalaaditya Pilla\",\n      \"email\": \"baalaaditya_pilla@romaguera.biz\",\n      \"gender\": \"female\",\n      \"status\": \"active\"\n    },\n    {\n      \"id\": 3384,\n      \"name\": \"Hari Pillai\",\n      \"email\": \"pillai_hari@johnston.org\",\n      \"gender\": \"female\",\n      \"status\": \"active\"\n    },\n    {\n      \"id\": 3383,\n      \"name\": \"Niranjan Adiga\",\n      \"email\": \"adiga_niranjan@halvorson.co\",\n      \"gender\": \"female\",\n      \"status\": \"active\"\n    },\n    {\n      \"id\": 3380,\n      \"name\": \"Siddhi Banerjee\",\n      \"email\": \"siddhi_banerjee@wolff.com\",\n      \"gender\": \"male\",\n      \"status\": \"active\"\n    }\n  ]\n}\n \n"},{"result":{"nanos":5849600,"millis":5.8496,"status":"passed"},"step":{"line":22,"prefix":"*","index":8,"text":"def userCount = jsonResponse.data.length"}},{"result":{"nanos":2911600,"millis":2.9116,"status":"passed"},"step":{"line":23,"prefix":"*","index":9,"text":"print userCount"},"stepLog":"12:07:10.032 [print] 10 \n"}],"executorName":"main","line":13,"name":"GET api active userCount","description":"","durationMillis":1072.4142,"startTime":1665245228958,"failed":false,"refId":"[2:13]","endTime":1665245230033,"exampleIndex":-1}],"callDepth":0,"name":"GET api active user query paramaters","description":"","resultDate":"2022-10-08 12:07:10 pm","durationMillis":3625.7907,"passedCount":2}