{"failedCount":0,"prefixedPath":"src\/test\/java\/Features\/GETapiquery.feature","packageQualifiedName":"src.test.java.Features.GETapiquery","loopIndex":-1,"relativePath":"src\/test\/java\/Features\/GETapiquery.feature","scenarioResults":[{"sectionIndex":0,"stepResults":[{"result":{"nanos":106138000,"millis":106.138,"status":"passed"},"step":{"line":4,"prefix":"*","index":0,"text":"def query = {status:'active', gender:'male'}"}},{"result":{"nanos":202308900,"millis":202.3089,"status":"passed"},"step":{"line":6,"prefix":"Given","index":1,"text":"url 'https:\/\/gorest.co.in\/public\/v1\/users'"}},{"result":{"nanos":47062600,"millis":47.0626,"status":"passed"},"step":{"line":7,"prefix":"And","index":2,"text":"params query"}},{"result":{"nanos":2038296300,"millis":2038.2963,"status":"passed"},"step":{"line":8,"prefix":"When","index":3,"text":"method GET"},"stepLog":"09:08:56.937 request:\n1 > GET https:\/\/gorest.co.in\/public\/v1\/users?gender=male&status=active\n1 > Host: gorest.co.in\n1 > Connection: Keep-Alive\n1 > User-Agent: Apache-HttpClient\/4.5.12 (Java\/17.0.4.1)\n1 > Accept-Encoding: gzip,deflate\n\n\n09:08:58.416 response time in milliseconds: 1471\n1 < 200\n1 < Date: Sun, 09 Oct 2022 13:08:57 GMT\n1 < Content-Type: application\/json; charset=utf-8\n1 < Transfer-Encoding: chunked\n1 < Connection: keep-alive\n1 < Cache-Control: max-age=0, private, must-revalidate\n1 < etag: W\/\"27b2f335238614a50a137caf13529b30\"\n1 < referrer-policy: strict-origin-when-cross-origin\n1 < vary: Origin\n1 < x-content-type-options: nosniff\n1 < x-download-options: noopen\n1 < x-frame-options: SAMEORIGIN\n1 < x-permitted-cross-domain-policies: none\n1 < x-request-id: a7e2ea5d-06e4-4cd4-8469-13c2b8497546\n1 < x-runtime: 0.041948\n1 < x-xss-protection: 0\n1 < CF-Cache-Status: DYNAMIC\n1 < Report-To: {\"endpoints\":[{\"url\":\"https:\\\/\\\/a.nel.cloudflare.com\\\/report\\\/v3?s=VU8A3fSNWwXkjNF4cWfheBqIDgwzfmx86xaK5ZpUZeqcfOOTXFwcfPTfNvuXpnKmpgFfwhpYnoMbvbbf4V3ro4LhMVJgvuuMV0RpCZCjyeCEapcDmaFPq5gxHdc7Q6A%3D\"}],\"group\":\"cf-nel\",\"max_age\":604800}\n1 < NEL: {\"success_fraction\":0,\"report_to\":\"cf-nel\",\"max_age\":604800}\n1 < Server: cloudflare\n1 < CF-RAY: 7577590daf1617f7-ATL\n1 < alt-svc: h3=\":443\"; ma=86400, h3-29=\":443\"; ma=86400\n{\"meta\":{\"pagination\":{\"total\":819,\"pages\":82,\"page\":1,\"limit\":10,\"links\":{\"previous\":null,\"current\":\"https:\/\/gorest.co.in\/public\/v1\/users?page=1\",\"next\":\"https:\/\/gorest.co.in\/public\/v1\/users?page=2\"}}},\"data\":[{\"id\":3159,\"name\":\"Chaitan Varrier\",\"email\":\"varrier_chaitan@rempel-jenkins.name\",\"gender\":\"male\",\"status\":\"active\"},{\"id\":3154,\"name\":\"Himani Somayaji\",\"email\":\"somayaji_himani@terry.org\",\"gender\":\"male\",\"status\":\"active\"},{\"id\":3150,\"name\":\"Agrata Verma\",\"email\":\"agrata_verma@ullrich.net\",\"gender\":\"male\",\"status\":\"active\"},{\"id\":3143,\"name\":\"Lai Khan\",\"email\":\"lai_khan@schinner-mayer.name\",\"gender\":\"male\",\"status\":\"active\"},{\"id\":3142,\"name\":\"Bhima Mahajan\",\"email\":\"bhima_mahajan@homenick.org\",\"gender\":\"male\",\"status\":\"active\"},{\"id\":3135,\"name\":\"Bhadrak Joshi\",\"email\":\"joshi_bhadrak@breitenberg.com\",\"gender\":\"male\",\"status\":\"active\"},{\"id\":3124,\"name\":\"Ms. Bishnu Chaturvedi\",\"email\":\"chaturvedi_ms_bishnu@weimann.name\",\"gender\":\"male\",\"status\":\"active\"},{\"id\":3121,\"name\":\"Anila Naik\",\"email\":\"anila_naik@franecki.biz\",\"gender\":\"male\",\"status\":\"active\"},{\"id\":3114,\"name\":\"Basanti Menon\",\"email\":\"basanti_menon@rempel.co\",\"gender\":\"male\",\"status\":\"active\"},{\"id\":3113,\"name\":\"Miss Udai Marar\",\"email\":\"marar_miss_udai@braun.co\",\"gender\":\"male\",\"status\":\"active\"}]}\n\n"},{"result":{"nanos":69300,"millis":0.0693,"status":"passed"},"step":{"line":9,"prefix":"Then","index":4,"text":"status 200"}},{"result":{"nanos":177297600,"millis":177.2976,"status":"passed"},"step":{"line":10,"prefix":"*","index":5,"text":"print response"},"stepLog":"09:08:58.606 [print] {\n  \"meta\": {\n    \"pagination\": {\n      \"total\": 819,\n      \"pages\": 82,\n      \"page\": 1,\n      \"limit\": 10,\n      \"links\": {\n        \"previous\": null,\n        \"current\": \"https:\/\/gorest.co.in\/public\/v1\/users?page=1\",\n        \"next\": \"https:\/\/gorest.co.in\/public\/v1\/users?page=2\"\n      }\n    }\n  },\n  \"data\": [\n    {\n      \"id\": 3159,\n      \"name\": \"Chaitan Varrier\",\n      \"email\": \"varrier_chaitan@rempel-jenkins.name\",\n      \"gender\": \"male\",\n      \"status\": \"active\"\n    },\n    {\n      \"id\": 3154,\n      \"name\": \"Himani Somayaji\",\n      \"email\": \"somayaji_himani@terry.org\",\n      \"gender\": \"male\",\n      \"status\": \"active\"\n    },\n    {\n      \"id\": 3150,\n      \"name\": \"Agrata Verma\",\n      \"email\": \"agrata_verma@ullrich.net\",\n      \"gender\": \"male\",\n      \"status\": \"active\"\n    },\n    {\n      \"id\": 3143,\n      \"name\": \"Lai Khan\",\n      \"email\": \"lai_khan@schinner-mayer.name\",\n      \"gender\": \"male\",\n      \"status\": \"active\"\n    },\n    {\n      \"id\": 3142,\n      \"name\": \"Bhima Mahajan\",\n      \"email\": \"bhima_mahajan@homenick.org\",\n      \"gender\": \"male\",\n      \"status\": \"active\"\n    },\n    {\n      \"id\": 3135,\n      \"name\": \"Bhadrak Joshi\",\n      \"email\": \"joshi_bhadrak@breitenberg.com\",\n      \"gender\": \"male\",\n      \"status\": \"active\"\n    },\n    {\n      \"id\": 3124,\n      \"name\": \"Ms. Bishnu Chaturvedi\",\n      \"email\": \"chaturvedi_ms_bishnu@weimann.name\",\n      \"gender\": \"male\",\n      \"status\": \"active\"\n    },\n    {\n      \"id\": 3121,\n      \"name\": \"Anila Naik\",\n      \"email\": \"anila_naik@franecki.biz\",\n      \"gender\": \"male\",\n      \"status\": \"active\"\n    },\n    {\n      \"id\": 3114,\n      \"name\": \"Basanti Menon\",\n      \"email\": \"basanti_menon@rempel.co\",\n      \"gender\": \"male\",\n      \"status\": \"active\"\n    },\n    {\n      \"id\": 3113,\n      \"name\": \"Miss Udai Marar\",\n      \"email\": \"marar_miss_udai@braun.co\",\n      \"gender\": \"male\",\n      \"status\": \"active\"\n    }\n  ]\n}\n \n"}],"executorName":"main","line":3,"name":"GET API user detail with query","description":"","durationMillis":2571.1727,"startTime":1665320936006,"failed":false,"refId":"[1:3]","endTime":1665320938609,"exampleIndex":-1}],"callDepth":0,"name":"GET API query with parameters","description":"","resultDate":"2022-10-09 09:08:58 am","durationMillis":2571.1727,"passedCount":1}