{"failedCount":0,"prefixedPath":"src\/test\/java\/Features\/GETapiquery.feature","packageQualifiedName":"src.test.java.Features.GETapiquery","loopIndex":-1,"relativePath":"src\/test\/java\/Features\/GETapiquery.feature","scenarioResults":[{"sectionIndex":0,"stepResults":[{"result":{"nanos":92114400,"millis":92.1144,"status":"passed"},"step":{"line":4,"prefix":"*","index":0,"text":"def query = {status: 'active', gender: 'male'}"}},{"result":{"nanos":172098500,"millis":172.0985,"status":"passed"},"step":{"line":5,"prefix":"Given","index":1,"text":"url 'https:\/\/gorest.co.in\/public\/v1\/users'"}},{"result":{"nanos":1923577800,"millis":1923.5778,"status":"passed"},"step":{"line":6,"prefix":"When","index":2,"text":"method GET"},"stepLog":"13:04:22.356 request:\n1 > GET https:\/\/gorest.co.in\/public\/v1\/users\n1 > Host: gorest.co.in\n1 > Connection: Keep-Alive\n1 > User-Agent: Apache-HttpClient\/4.5.12 (Java\/17.0.4.1)\n1 > Accept-Encoding: gzip,deflate\n\n\n13:04:23.797 response time in milliseconds: 1432\n1 < 200\n1 < Date: Tue, 11 Oct 2022 17:04:23 GMT\n1 < Content-Type: application\/json; charset=utf-8\n1 < Transfer-Encoding: chunked\n1 < Connection: keep-alive\n1 < Cache-Control: max-age=0, private, must-revalidate\n1 < etag: W\/\"7eaa53bea97b80303a671c431770060c\"\n1 < referrer-policy: strict-origin-when-cross-origin\n1 < vary: Origin\n1 < x-content-type-options: nosniff\n1 < x-download-options: noopen\n1 < x-frame-options: SAMEORIGIN\n1 < x-permitted-cross-domain-policies: none\n1 < x-request-id: 8890af0e-9ee1-4780-b264-4bc9ac9e03a3\n1 < x-runtime: 0.017774\n1 < x-xss-protection: 0\n1 < CF-Cache-Status: DYNAMIC\n1 < Report-To: {\"endpoints\":[{\"url\":\"https:\\\/\\\/a.nel.cloudflare.com\\\/report\\\/v3?s=T9xoN7ChKIGlzQHLEfhbhRW%2Fgj%2FnA3j6MG7pkDIw0Lk0q7wS%2F%2FiUssanAEOIiBcZn3mlQHTbNAvX6hZDYYadsUg47xoQ%2Fmv3k0iDH4dhxkNrVH2ejsVKNvUNcqQ94RU%3D\"}],\"group\":\"cf-nel\",\"max_age\":604800}\n1 < NEL: {\"success_fraction\":0,\"report_to\":\"cf-nel\",\"max_age\":604800}\n1 < Server: cloudflare\n1 < CF-RAY: 75892caee945adc3-ATL\n1 < alt-svc: h3=\":443\"; ma=86400, h3-29=\":443\"; ma=86400\n{\"meta\":{\"pagination\":{\"total\":2096,\"pages\":210,\"page\":1,\"limit\":10,\"links\":{\"previous\":null,\"current\":\"https:\/\/gorest.co.in\/public\/v1\/users?page=1\",\"next\":\"https:\/\/gorest.co.in\/public\/v1\/users?page=2\"}}},\"data\":[{\"id\":2164,\"name\":\"Nirbhay Bhattathiri DO\",\"email\":\"bhattathiri_nirbhay_do@ledner.io\",\"gender\":\"female\",\"status\":\"active\"},{\"id\":2163,\"name\":\"Uttam Mishra VM\",\"email\":\"vm_mishra_uttam@mayert-hartmann.com\",\"gender\":\"male\",\"status\":\"active\"},{\"id\":2161,\"name\":\"Chaaruchandra Kapoor PhD\",\"email\":\"chaaruchandra_kapoor_phd@borer.co\",\"gender\":\"male\",\"status\":\"active\"},{\"id\":2160,\"name\":\"Jaimini Tagore\",\"email\":\"jaimini_tagore@jacobson.net\",\"gender\":\"male\",\"status\":\"active\"},{\"id\":2159,\"name\":\"Darshan Namboothiri VM\",\"email\":\"darshan_vm_namboothiri@kilback-auer.net\",\"gender\":\"female\",\"status\":\"inactive\"},{\"id\":2158,\"name\":\"Aditya Sethi\",\"email\":\"aditya_sethi@mohr.org\",\"gender\":\"female\",\"status\":\"inactive\"},{\"id\":2157,\"name\":\"Swara Trivedi\",\"email\":\"swara_trivedi@wolf-orn.com\",\"gender\":\"female\",\"status\":\"active\"},{\"id\":2156,\"name\":\"Dhyanesh Mahajan\",\"email\":\"dhyanesh_mahajan@heller-stanton.biz\",\"gender\":\"female\",\"status\":\"active\"},{\"id\":2155,\"name\":\"Dipankar Shukla\",\"email\":\"shukla_dipankar@thompson.com\",\"gender\":\"male\",\"status\":\"active\"},{\"id\":2154,\"name\":\"Vidur Varman\",\"email\":\"vidur_varman@welch-schimmel.io\",\"gender\":\"female\",\"status\":\"active\"}]}\n\n"},{"result":{"nanos":43900,"millis":0.0439,"status":"passed"},"step":{"line":7,"prefix":"Then","index":3,"text":"status 200"}},{"result":{"nanos":118495000,"millis":118.495,"status":"passed"},"step":{"line":8,"prefix":"*","index":4,"text":"print response"},"stepLog":"13:04:23.924 [print] {\n  \"meta\": {\n    \"pagination\": {\n      \"total\": 2096,\n      \"pages\": 210,\n      \"page\": 1,\n      \"limit\": 10,\n      \"links\": {\n        \"previous\": null,\n        \"current\": \"https:\/\/gorest.co.in\/public\/v1\/users?page=1\",\n        \"next\": \"https:\/\/gorest.co.in\/public\/v1\/users?page=2\"\n      }\n    }\n  },\n  \"data\": [\n    {\n      \"id\": 2164,\n      \"name\": \"Nirbhay Bhattathiri DO\",\n      \"email\": \"bhattathiri_nirbhay_do@ledner.io\",\n      \"gender\": \"female\",\n      \"status\": \"active\"\n    },\n    {\n      \"id\": 2163,\n      \"name\": \"Uttam Mishra VM\",\n      \"email\": \"vm_mishra_uttam@mayert-hartmann.com\",\n      \"gender\": \"male\",\n      \"status\": \"active\"\n    },\n    {\n      \"id\": 2161,\n      \"name\": \"Chaaruchandra Kapoor PhD\",\n      \"email\": \"chaaruchandra_kapoor_phd@borer.co\",\n      \"gender\": \"male\",\n      \"status\": \"active\"\n    },\n    {\n      \"id\": 2160,\n      \"name\": \"Jaimini Tagore\",\n      \"email\": \"jaimini_tagore@jacobson.net\",\n      \"gender\": \"male\",\n      \"status\": \"active\"\n    },\n    {\n      \"id\": 2159,\n      \"name\": \"Darshan Namboothiri VM\",\n      \"email\": \"darshan_vm_namboothiri@kilback-auer.net\",\n      \"gender\": \"female\",\n      \"status\": \"inactive\"\n    },\n    {\n      \"id\": 2158,\n      \"name\": \"Aditya Sethi\",\n      \"email\": \"aditya_sethi@mohr.org\",\n      \"gender\": \"female\",\n      \"status\": \"inactive\"\n    },\n    {\n      \"id\": 2157,\n      \"name\": \"Swara Trivedi\",\n      \"email\": \"swara_trivedi@wolf-orn.com\",\n      \"gender\": \"female\",\n      \"status\": \"active\"\n    },\n    {\n      \"id\": 2156,\n      \"name\": \"Dhyanesh Mahajan\",\n      \"email\": \"dhyanesh_mahajan@heller-stanton.biz\",\n      \"gender\": \"female\",\n      \"status\": \"active\"\n    },\n    {\n      \"id\": 2155,\n      \"name\": \"Dipankar Shukla\",\n      \"email\": \"shukla_dipankar@thompson.com\",\n      \"gender\": \"male\",\n      \"status\": \"active\"\n    },\n    {\n      \"id\": 2154,\n      \"name\": \"Vidur Varman\",\n      \"email\": \"vidur_varman@welch-schimmel.io\",\n      \"gender\": \"female\",\n      \"status\": \"active\"\n    }\n  ]\n}\n \n"}],"executorName":"main","line":3,"name":"GET API user details with query paramerts","description":"","durationMillis":2306.3296,"startTime":1665507861592,"failed":false,"refId":"[1:3]","endTime":1665507863927,"exampleIndex":-1},{"sectionIndex":1,"stepResults":[{"result":{"nanos":3146900,"millis":3.1469,"status":"passed"},"step":{"line":11,"prefix":"*","index":0,"text":"def query = {gender:'male'}"}},{"result":{"nanos":586900,"millis":0.5869,"status":"passed"},"step":{"line":12,"prefix":"Given","index":1,"text":"url 'https:\/\/gorest.co.in\/public\/v1\/users'"}},{"result":{"nanos":1017428600,"millis":1017.4286,"status":"passed"},"step":{"line":13,"prefix":"When","index":2,"text":"method GET"},"stepLog":"13:04:23.949 request:\n1 > GET https:\/\/gorest.co.in\/public\/v1\/users\n1 > Host: gorest.co.in\n1 > Connection: Keep-Alive\n1 > User-Agent: Apache-HttpClient\/4.5.12 (Java\/17.0.4.1)\n1 > Accept-Encoding: gzip,deflate\n\n\n13:04:24.953 response time in milliseconds: 1001\n1 < 200\n1 < Date: Tue, 11 Oct 2022 17:04:24 GMT\n1 < Content-Type: application\/json; charset=utf-8\n1 < Transfer-Encoding: chunked\n1 < Connection: keep-alive\n1 < Cache-Control: max-age=0, private, must-revalidate\n1 < etag: W\/\"7eaa53bea97b80303a671c431770060c\"\n1 < referrer-policy: strict-origin-when-cross-origin\n1 < vary: Origin\n1 < x-content-type-options: nosniff\n1 < x-download-options: noopen\n1 < x-frame-options: SAMEORIGIN\n1 < x-permitted-cross-domain-policies: none\n1 < x-request-id: 6be4bde5-71d7-4a62-b515-e394c50d51b4\n1 < x-runtime: 0.017924\n1 < x-xss-protection: 0\n1 < CF-Cache-Status: DYNAMIC\n1 < Report-To: {\"endpoints\":[{\"url\":\"https:\\\/\\\/a.nel.cloudflare.com\\\/report\\\/v3?s=kHhLS%2BL%2B9Hn2xCNtjtmyTHdFWRaSMSXzmHeUX9S%2FRjbHPkOQphN4zHphSQKZxd%2BLIcJcSOTPk30vNf2c9JOu9X8HQrcIs9YsmhRoqO%2FvixFYWaZWG0lT%2F8%2B%2FYlNpIow%3D\"}],\"group\":\"cf-nel\",\"max_age\":604800}\n1 < NEL: {\"success_fraction\":0,\"report_to\":\"cf-nel\",\"max_age\":604800}\n1 < Server: cloudflare\n1 < CF-RAY: 75892cb63c67acd3-ATL\n1 < alt-svc: h3=\":443\"; ma=86400, h3-29=\":443\"; ma=86400\n{\"meta\":{\"pagination\":{\"total\":2096,\"pages\":210,\"page\":1,\"limit\":10,\"links\":{\"previous\":null,\"current\":\"https:\/\/gorest.co.in\/public\/v1\/users?page=1\",\"next\":\"https:\/\/gorest.co.in\/public\/v1\/users?page=2\"}}},\"data\":[{\"id\":2164,\"name\":\"Nirbhay Bhattathiri DO\",\"email\":\"bhattathiri_nirbhay_do@ledner.io\",\"gender\":\"female\",\"status\":\"active\"},{\"id\":2163,\"name\":\"Uttam Mishra VM\",\"email\":\"vm_mishra_uttam@mayert-hartmann.com\",\"gender\":\"male\",\"status\":\"active\"},{\"id\":2161,\"name\":\"Chaaruchandra Kapoor PhD\",\"email\":\"chaaruchandra_kapoor_phd@borer.co\",\"gender\":\"male\",\"status\":\"active\"},{\"id\":2160,\"name\":\"Jaimini Tagore\",\"email\":\"jaimini_tagore@jacobson.net\",\"gender\":\"male\",\"status\":\"active\"},{\"id\":2159,\"name\":\"Darshan Namboothiri VM\",\"email\":\"darshan_vm_namboothiri@kilback-auer.net\",\"gender\":\"female\",\"status\":\"inactive\"},{\"id\":2158,\"name\":\"Aditya Sethi\",\"email\":\"aditya_sethi@mohr.org\",\"gender\":\"female\",\"status\":\"inactive\"},{\"id\":2157,\"name\":\"Swara Trivedi\",\"email\":\"swara_trivedi@wolf-orn.com\",\"gender\":\"female\",\"status\":\"active\"},{\"id\":2156,\"name\":\"Dhyanesh Mahajan\",\"email\":\"dhyanesh_mahajan@heller-stanton.biz\",\"gender\":\"female\",\"status\":\"active\"},{\"id\":2155,\"name\":\"Dipankar Shukla\",\"email\":\"shukla_dipankar@thompson.com\",\"gender\":\"male\",\"status\":\"active\"},{\"id\":2154,\"name\":\"Vidur Varman\",\"email\":\"vidur_varman@welch-schimmel.io\",\"gender\":\"female\",\"status\":\"active\"}]}\n\n"},{"result":{"nanos":45500,"millis":0.0455,"status":"passed"},"step":{"line":14,"prefix":"Then","index":3,"text":"status 200"}},{"result":{"nanos":3196500,"millis":3.1965,"status":"passed"},"step":{"line":15,"prefix":"*","index":4,"text":"print response"},"stepLog":"13:04:24.967 [print] {\n  \"meta\": {\n    \"pagination\": {\n      \"total\": 2096,\n      \"pages\": 210,\n      \"page\": 1,\n      \"limit\": 10,\n      \"links\": {\n        \"previous\": null,\n        \"current\": \"https:\/\/gorest.co.in\/public\/v1\/users?page=1\",\n        \"next\": \"https:\/\/gorest.co.in\/public\/v1\/users?page=2\"\n      }\n    }\n  },\n  \"data\": [\n    {\n      \"id\": 2164,\n      \"name\": \"Nirbhay Bhattathiri DO\",\n      \"email\": \"bhattathiri_nirbhay_do@ledner.io\",\n      \"gender\": \"female\",\n      \"status\": \"active\"\n    },\n    {\n      \"id\": 2163,\n      \"name\": \"Uttam Mishra VM\",\n      \"email\": \"vm_mishra_uttam@mayert-hartmann.com\",\n      \"gender\": \"male\",\n      \"status\": \"active\"\n    },\n    {\n      \"id\": 2161,\n      \"name\": \"Chaaruchandra Kapoor PhD\",\n      \"email\": \"chaaruchandra_kapoor_phd@borer.co\",\n      \"gender\": \"male\",\n      \"status\": \"active\"\n    },\n    {\n      \"id\": 2160,\n      \"name\": \"Jaimini Tagore\",\n      \"email\": \"jaimini_tagore@jacobson.net\",\n      \"gender\": \"male\",\n      \"status\": \"active\"\n    },\n    {\n      \"id\": 2159,\n      \"name\": \"Darshan Namboothiri VM\",\n      \"email\": \"darshan_vm_namboothiri@kilback-auer.net\",\n      \"gender\": \"female\",\n      \"status\": \"inactive\"\n    },\n    {\n      \"id\": 2158,\n      \"name\": \"Aditya Sethi\",\n      \"email\": \"aditya_sethi@mohr.org\",\n      \"gender\": \"female\",\n      \"status\": \"inactive\"\n    },\n    {\n      \"id\": 2157,\n      \"name\": \"Swara Trivedi\",\n      \"email\": \"swara_trivedi@wolf-orn.com\",\n      \"gender\": \"female\",\n      \"status\": \"active\"\n    },\n    {\n      \"id\": 2156,\n      \"name\": \"Dhyanesh Mahajan\",\n      \"email\": \"dhyanesh_mahajan@heller-stanton.biz\",\n      \"gender\": \"female\",\n      \"status\": \"active\"\n    },\n    {\n      \"id\": 2155,\n      \"name\": \"Dipankar Shukla\",\n      \"email\": \"shukla_dipankar@thompson.com\",\n      \"gender\": \"male\",\n      \"status\": \"active\"\n    },\n    {\n      \"id\": 2154,\n      \"name\": \"Vidur Varman\",\n      \"email\": \"vidur_varman@welch-schimmel.io\",\n      \"gender\": \"female\",\n      \"status\": \"active\"\n    }\n  ]\n}\n \n"},{"result":{"nanos":18499500,"millis":18.4995,"status":"passed"},"step":{"line":16,"prefix":"*","index":5,"text":"def jsonResponse = response"}},{"result":{"nanos":2531100,"millis":2.5311,"status":"passed"},"step":{"line":17,"prefix":"*","index":6,"text":"print jsonResponse"},"stepLog":"13:04:24.989 [print] {\n  \"meta\": {\n    \"pagination\": {\n      \"total\": 2096,\n      \"pages\": 210,\n      \"page\": 1,\n      \"limit\": 10,\n      \"links\": {\n        \"previous\": null,\n        \"current\": \"https:\/\/gorest.co.in\/public\/v1\/users?page=1\",\n        \"next\": \"https:\/\/gorest.co.in\/public\/v1\/users?page=2\"\n      }\n    }\n  },\n  \"data\": [\n    {\n      \"id\": 2164,\n      \"name\": \"Nirbhay Bhattathiri DO\",\n      \"email\": \"bhattathiri_nirbhay_do@ledner.io\",\n      \"gender\": \"female\",\n      \"status\": \"active\"\n    },\n    {\n      \"id\": 2163,\n      \"name\": \"Uttam Mishra VM\",\n      \"email\": \"vm_mishra_uttam@mayert-hartmann.com\",\n      \"gender\": \"male\",\n      \"status\": \"active\"\n    },\n    {\n      \"id\": 2161,\n      \"name\": \"Chaaruchandra Kapoor PhD\",\n      \"email\": \"chaaruchandra_kapoor_phd@borer.co\",\n      \"gender\": \"male\",\n      \"status\": \"active\"\n    },\n    {\n      \"id\": 2160,\n      \"name\": \"Jaimini Tagore\",\n      \"email\": \"jaimini_tagore@jacobson.net\",\n      \"gender\": \"male\",\n      \"status\": \"active\"\n    },\n    {\n      \"id\": 2159,\n      \"name\": \"Darshan Namboothiri VM\",\n      \"email\": \"darshan_vm_namboothiri@kilback-auer.net\",\n      \"gender\": \"female\",\n      \"status\": \"inactive\"\n    },\n    {\n      \"id\": 2158,\n      \"name\": \"Aditya Sethi\",\n      \"email\": \"aditya_sethi@mohr.org\",\n      \"gender\": \"female\",\n      \"status\": \"inactive\"\n    },\n    {\n      \"id\": 2157,\n      \"name\": \"Swara Trivedi\",\n      \"email\": \"swara_trivedi@wolf-orn.com\",\n      \"gender\": \"female\",\n      \"status\": \"active\"\n    },\n    {\n      \"id\": 2156,\n      \"name\": \"Dhyanesh Mahajan\",\n      \"email\": \"dhyanesh_mahajan@heller-stanton.biz\",\n      \"gender\": \"female\",\n      \"status\": \"active\"\n    },\n    {\n      \"id\": 2155,\n      \"name\": \"Dipankar Shukla\",\n      \"email\": \"shukla_dipankar@thompson.com\",\n      \"gender\": \"male\",\n      \"status\": \"active\"\n    },\n    {\n      \"id\": 2154,\n      \"name\": \"Vidur Varman\",\n      \"email\": \"vidur_varman@welch-schimmel.io\",\n      \"gender\": \"female\",\n      \"status\": \"active\"\n    }\n  ]\n}\n \n"},{"result":{"nanos":9082100,"millis":9.0821,"status":"passed"},"step":{"line":18,"prefix":"*","index":7,"text":"def userCount = jsonResponse.data.userCount"}},{"result":{"nanos":2478200,"millis":2.4782,"status":"passed"},"step":{"line":19,"prefix":"*","index":8,"text":"print userCount"},"stepLog":"13:04:25.001 [print] null \n"}],"executorName":"main","line":10,"name":"GET API details with query","description":"","durationMillis":1056.9953,"startTime":1665507863939,"failed":false,"refId":"[2:10]","endTime":1665507865001,"exampleIndex":-1}],"callDepth":0,"name":"GET API with query","description":"","resultDate":"2022-10-11 01:04:25 pm","durationMillis":3363.3249,"passedCount":2}