{"failedCount":0,"prefixedPath":"src\/test\/java\/Features\/GETapiquery.feature","packageQualifiedName":"src.test.java.Features.GETapiquery","loopIndex":-1,"relativePath":"src\/test\/java\/Features\/GETapiquery.feature","scenarioResults":[{"sectionIndex":0,"stepResults":[{"result":{"nanos":79086300,"millis":79.0863,"status":"passed"},"step":{"line":4,"prefix":"*","index":0,"text":"def query = {status: 'active',gender: 'male'}"}},{"result":{"nanos":161958100,"millis":161.9581,"status":"passed"},"step":{"line":5,"prefix":"Given","index":1,"text":"url  'https:\/\/gorest.co.in\/public\/v1\/users'"}},{"result":{"nanos":35534500,"millis":35.5345,"status":"passed"},"step":{"line":6,"prefix":"And","index":2,"text":"params query"}},{"result":{"nanos":2044163800,"millis":2044.1638,"status":"passed"},"step":{"line":7,"prefix":"When","index":3,"text":"method GET"},"stepLog":"19:04:54.909 request:\n1 > GET https:\/\/gorest.co.in\/public\/v1\/users?gender=male&status=active\n1 > Host: gorest.co.in\n1 > Connection: Keep-Alive\n1 > User-Agent: Apache-HttpClient\/4.5.12 (Java\/17.0.4.1)\n1 > Accept-Encoding: gzip,deflate\n\n\n19:04:56.387 response time in milliseconds: 1471\n1 < 200\n1 < Date: Sat, 08 Oct 2022 23:04:56 GMT\n1 < Content-Type: application\/json; charset=utf-8\n1 < Transfer-Encoding: chunked\n1 < Connection: keep-alive\n1 < Cache-Control: max-age=0, private, must-revalidate\n1 < etag: W\/\"6b120e4679353469bfa7bd6f05ba6a2e\"\n1 < referrer-policy: strict-origin-when-cross-origin\n1 < vary: Origin\n1 < x-content-type-options: nosniff\n1 < x-download-options: noopen\n1 < x-frame-options: SAMEORIGIN\n1 < x-permitted-cross-domain-policies: none\n1 < x-request-id: 9a6d49ba-8e24-4d5a-a583-618bfb8bd79b\n1 < x-runtime: 0.042223\n1 < x-xss-protection: 0\n1 < CF-Cache-Status: DYNAMIC\n1 < Report-To: {\"endpoints\":[{\"url\":\"https:\\\/\\\/a.nel.cloudflare.com\\\/report\\\/v3?s=zFUpZc7k6km6mEh4iyFIn4n4F1OO0Sc7Sei1Y5J5VMdEt0IJOoXtBDwBBKciTmFts1BLZ79ZTu3rLuFotDbOpxblG04ibu0CkV%2BmMD7NQv6kEvUE7a%2Be1zfWjJ9oiYE%3D\"}],\"group\":\"cf-nel\",\"max_age\":604800}\n1 < NEL: {\"success_fraction\":0,\"report_to\":\"cf-nel\",\"max_age\":604800}\n1 < Server: cloudflare\n1 < CF-RAY: 757284b24a9ee3ca-ATL\n1 < alt-svc: h3=\":443\"; ma=86400, h3-29=\":443\"; ma=86400\n{\"meta\":{\"pagination\":{\"total\":833,\"pages\":84,\"page\":1,\"limit\":10,\"links\":{\"previous\":null,\"current\":\"https:\/\/gorest.co.in\/public\/v1\/users?page=1\",\"next\":\"https:\/\/gorest.co.in\/public\/v1\/users?page=2\"}}},\"data\":[{\"id\":3198,\"name\":\"Ekaling Ganaka Esq.\",\"email\":\"ganaka_ekaling_esq@oconner.biz\",\"gender\":\"male\",\"status\":\"active\"},{\"id\":3193,\"name\":\"Subhash Butt\",\"email\":\"subhash_butt@haag-flatley.info\",\"gender\":\"male\",\"status\":\"active\"},{\"id\":3192,\"name\":\"Amaranaath Kaur\",\"email\":\"amaranaath_kaur@schumm.org\",\"gender\":\"male\",\"status\":\"active\"},{\"id\":3189,\"name\":\"Baladitya Arora\",\"email\":\"baladitya_arora@koelpin.biz\",\"gender\":\"male\",\"status\":\"active\"},{\"id\":3187,\"name\":\"Anaadi Sethi DC\",\"email\":\"dc_sethi_anaadi@batz.net\",\"gender\":\"male\",\"status\":\"active\"},{\"id\":3174,\"name\":\"Mrs. Vishwamitra Shukla\",\"email\":\"mrs_shukla_vishwamitra@bosco.com\",\"gender\":\"male\",\"status\":\"active\"},{\"id\":3170,\"name\":\"Bala Kaul\",\"email\":\"bala_kaul@blick.biz\",\"gender\":\"male\",\"status\":\"active\"},{\"id\":3168,\"name\":\"Abhirath Malik\",\"email\":\"malik_abhirath@wisoky.org\",\"gender\":\"male\",\"status\":\"active\"},{\"id\":3159,\"name\":\"Chaitan Varrier\",\"email\":\"varrier_chaitan@rempel-jenkins.name\",\"gender\":\"male\",\"status\":\"active\"},{\"id\":3154,\"name\":\"Himani Somayaji\",\"email\":\"somayaji_himani@terry.org\",\"gender\":\"male\",\"status\":\"active\"}]}\n\n"},{"result":{"nanos":28700,"millis":0.0287,"status":"passed"},"step":{"line":8,"prefix":"Then","index":4,"text":"status 200"}},{"result":{"nanos":101376300,"millis":101.3763,"status":"passed"},"step":{"line":9,"prefix":"*","index":5,"text":"print response"},"stepLog":"19:04:56.495 [print] {\n  \"meta\": {\n    \"pagination\": {\n      \"total\": 833,\n      \"pages\": 84,\n      \"page\": 1,\n      \"limit\": 10,\n      \"links\": {\n        \"previous\": null,\n        \"current\": \"https:\/\/gorest.co.in\/public\/v1\/users?page=1\",\n        \"next\": \"https:\/\/gorest.co.in\/public\/v1\/users?page=2\"\n      }\n    }\n  },\n  \"data\": [\n    {\n      \"id\": 3198,\n      \"name\": \"Ekaling Ganaka Esq.\",\n      \"email\": \"ganaka_ekaling_esq@oconner.biz\",\n      \"gender\": \"male\",\n      \"status\": \"active\"\n    },\n    {\n      \"id\": 3193,\n      \"name\": \"Subhash Butt\",\n      \"email\": \"subhash_butt@haag-flatley.info\",\n      \"gender\": \"male\",\n      \"status\": \"active\"\n    },\n    {\n      \"id\": 3192,\n      \"name\": \"Amaranaath Kaur\",\n      \"email\": \"amaranaath_kaur@schumm.org\",\n      \"gender\": \"male\",\n      \"status\": \"active\"\n    },\n    {\n      \"id\": 3189,\n      \"name\": \"Baladitya Arora\",\n      \"email\": \"baladitya_arora@koelpin.biz\",\n      \"gender\": \"male\",\n      \"status\": \"active\"\n    },\n    {\n      \"id\": 3187,\n      \"name\": \"Anaadi Sethi DC\",\n      \"email\": \"dc_sethi_anaadi@batz.net\",\n      \"gender\": \"male\",\n      \"status\": \"active\"\n    },\n    {\n      \"id\": 3174,\n      \"name\": \"Mrs. Vishwamitra Shukla\",\n      \"email\": \"mrs_shukla_vishwamitra@bosco.com\",\n      \"gender\": \"male\",\n      \"status\": \"active\"\n    },\n    {\n      \"id\": 3170,\n      \"name\": \"Bala Kaul\",\n      \"email\": \"bala_kaul@blick.biz\",\n      \"gender\": \"male\",\n      \"status\": \"active\"\n    },\n    {\n      \"id\": 3168,\n      \"name\": \"Abhirath Malik\",\n      \"email\": \"malik_abhirath@wisoky.org\",\n      \"gender\": \"male\",\n      \"status\": \"active\"\n    },\n    {\n      \"id\": 3159,\n      \"name\": \"Chaitan Varrier\",\n      \"email\": \"varrier_chaitan@rempel-jenkins.name\",\n      \"gender\": \"male\",\n      \"status\": \"active\"\n    },\n    {\n      \"id\": 3154,\n      \"name\": \"Himani Somayaji\",\n      \"email\": \"somayaji_himani@terry.org\",\n      \"gender\": \"male\",\n      \"status\": \"active\"\n    }\n  ]\n}\n \n"}],"executorName":"main","line":3,"name":"GET API user details with query","description":"","durationMillis":2422.1477,"startTime":1665270294045,"failed":false,"refId":"[1:3]","endTime":1665270296497,"exampleIndex":-1},{"sectionIndex":1,"stepResults":[{"result":{"nanos":3691500,"millis":3.6915,"status":"passed"},"step":{"line":13,"prefix":"*","index":0,"text":"def query = {status: 'active'}"}},{"result":{"nanos":2227700,"millis":2.2277,"status":"passed"},"step":{"line":14,"prefix":"Given","index":1,"text":"url 'https:\/\/gorest.co.in\/public\/v1\/users'"}},{"result":{"nanos":297600,"millis":0.2976,"status":"passed"},"step":{"line":15,"prefix":"And","index":2,"text":"params query"}},{"result":{"nanos":945710500,"millis":945.7105,"status":"passed"},"step":{"line":16,"prefix":"When","index":3,"text":"method GET"},"stepLog":"19:04:56.517 request:\n1 > GET https:\/\/gorest.co.in\/public\/v1\/users?status=active\n1 > Host: gorest.co.in\n1 > Connection: Keep-Alive\n1 > User-Agent: Apache-HttpClient\/4.5.12 (Java\/17.0.4.1)\n1 > Accept-Encoding: gzip,deflate\n\n\n19:04:57.453 response time in milliseconds: 935\n1 < 200\n1 < Date: Sat, 08 Oct 2022 23:04:57 GMT\n1 < Content-Type: application\/json; charset=utf-8\n1 < Transfer-Encoding: chunked\n1 < Connection: keep-alive\n1 < Cache-Control: max-age=0, private, must-revalidate\n1 < etag: W\/\"695650eaa447fb2b04e3cf394a02e969\"\n1 < referrer-policy: strict-origin-when-cross-origin\n1 < vary: Origin\n1 < x-content-type-options: nosniff\n1 < x-download-options: noopen\n1 < x-frame-options: SAMEORIGIN\n1 < x-permitted-cross-domain-policies: none\n1 < x-request-id: 4daeda97-965e-465b-9488-ea1e6991c1f8\n1 < x-runtime: 0.037338\n1 < x-xss-protection: 0\n1 < CF-Cache-Status: DYNAMIC\n1 < Report-To: {\"endpoints\":[{\"url\":\"https:\\\/\\\/a.nel.cloudflare.com\\\/report\\\/v3?s=Szhh6Bah8JpMMYK8Uh44mfVkmADh0u%2F28UBKHgStSK9r0Rev2BL5G6XqiZPIQiVgcFRK7KYJXEljai4qhfmKWOE8LKVCLE0Zfgd0%2Fzy1AYANNHjySgNwVUujW9tzc7I%3D\"}],\"group\":\"cf-nel\",\"max_age\":604800}\n1 < NEL: {\"success_fraction\":0,\"report_to\":\"cf-nel\",\"max_age\":604800}\n1 < Server: cloudflare\n1 < CF-RAY: 757284b97a3eb11b-ATL\n1 < alt-svc: h3=\":443\"; ma=86400, h3-29=\":443\"; ma=86400\n{\"meta\":{\"pagination\":{\"total\":1626,\"pages\":163,\"page\":1,\"limit\":10,\"links\":{\"previous\":null,\"current\":\"https:\/\/gorest.co.in\/public\/v1\/users?page=1\",\"next\":\"https:\/\/gorest.co.in\/public\/v1\/users?page=2\"}}},\"data\":[{\"id\":3198,\"name\":\"Ekaling Ganaka Esq.\",\"email\":\"ganaka_ekaling_esq@oconner.biz\",\"gender\":\"male\",\"status\":\"active\"},{\"id\":3196,\"name\":\"Aagneya Talwar\",\"email\":\"talwar_aagneya@hettinger.io\",\"gender\":\"female\",\"status\":\"active\"},{\"id\":3193,\"name\":\"Subhash Butt\",\"email\":\"subhash_butt@haag-flatley.info\",\"gender\":\"male\",\"status\":\"active\"},{\"id\":3192,\"name\":\"Amaranaath Kaur\",\"email\":\"amaranaath_kaur@schumm.org\",\"gender\":\"male\",\"status\":\"active\"},{\"id\":3189,\"name\":\"Baladitya Arora\",\"email\":\"baladitya_arora@koelpin.biz\",\"gender\":\"male\",\"status\":\"active\"},{\"id\":3188,\"name\":\"Ekdant Nair\",\"email\":\"ekdant_nair@wyman.org\",\"gender\":\"female\",\"status\":\"active\"},{\"id\":3187,\"name\":\"Anaadi Sethi DC\",\"email\":\"dc_sethi_anaadi@batz.net\",\"gender\":\"male\",\"status\":\"active\"},{\"id\":3183,\"name\":\"Aagney Nayar\",\"email\":\"aagney_nayar@dooley-moen.name\",\"gender\":\"female\",\"status\":\"active\"},{\"id\":3182,\"name\":\"Sanka Verma\",\"email\":\"sanka_verma@durgan-jast.name\",\"gender\":\"female\",\"status\":\"active\"},{\"id\":3180,\"name\":\"Trilok Nehru\",\"email\":\"trilok_nehru@murray.co\",\"gender\":\"female\",\"status\":\"active\"}]}\n\n"},{"result":{"nanos":39900,"millis":0.0399,"status":"passed"},"step":{"line":17,"prefix":"Then","index":4,"text":"status 200"}},{"result":{"nanos":5890900,"millis":5.8909,"status":"passed"},"step":{"line":18,"prefix":"*","index":5,"text":"print response"},"stepLog":"19:04:57.467 [print] {\n  \"meta\": {\n    \"pagination\": {\n      \"total\": 1626,\n      \"pages\": 163,\n      \"page\": 1,\n      \"limit\": 10,\n      \"links\": {\n        \"previous\": null,\n        \"current\": \"https:\/\/gorest.co.in\/public\/v1\/users?page=1\",\n        \"next\": \"https:\/\/gorest.co.in\/public\/v1\/users?page=2\"\n      }\n    }\n  },\n  \"data\": [\n    {\n      \"id\": 3198,\n      \"name\": \"Ekaling Ganaka Esq.\",\n      \"email\": \"ganaka_ekaling_esq@oconner.biz\",\n      \"gender\": \"male\",\n      \"status\": \"active\"\n    },\n    {\n      \"id\": 3196,\n      \"name\": \"Aagneya Talwar\",\n      \"email\": \"talwar_aagneya@hettinger.io\",\n      \"gender\": \"female\",\n      \"status\": \"active\"\n    },\n    {\n      \"id\": 3193,\n      \"name\": \"Subhash Butt\",\n      \"email\": \"subhash_butt@haag-flatley.info\",\n      \"gender\": \"male\",\n      \"status\": \"active\"\n    },\n    {\n      \"id\": 3192,\n      \"name\": \"Amaranaath Kaur\",\n      \"email\": \"amaranaath_kaur@schumm.org\",\n      \"gender\": \"male\",\n      \"status\": \"active\"\n    },\n    {\n      \"id\": 3189,\n      \"name\": \"Baladitya Arora\",\n      \"email\": \"baladitya_arora@koelpin.biz\",\n      \"gender\": \"male\",\n      \"status\": \"active\"\n    },\n    {\n      \"id\": 3188,\n      \"name\": \"Ekdant Nair\",\n      \"email\": \"ekdant_nair@wyman.org\",\n      \"gender\": \"female\",\n      \"status\": \"active\"\n    },\n    {\n      \"id\": 3187,\n      \"name\": \"Anaadi Sethi DC\",\n      \"email\": \"dc_sethi_anaadi@batz.net\",\n      \"gender\": \"male\",\n      \"status\": \"active\"\n    },\n    {\n      \"id\": 3183,\n      \"name\": \"Aagney Nayar\",\n      \"email\": \"aagney_nayar@dooley-moen.name\",\n      \"gender\": \"female\",\n      \"status\": \"active\"\n    },\n    {\n      \"id\": 3182,\n      \"name\": \"Sanka Verma\",\n      \"email\": \"sanka_verma@durgan-jast.name\",\n      \"gender\": \"female\",\n      \"status\": \"active\"\n    },\n    {\n      \"id\": 3180,\n      \"name\": \"Trilok Nehru\",\n      \"email\": \"trilok_nehru@murray.co\",\n      \"gender\": \"female\",\n      \"status\": \"active\"\n    }\n  ]\n}\n \n"},{"result":{"nanos":2227300,"millis":2.2273,"status":"passed"},"step":{"line":19,"prefix":"*","index":6,"text":"def jsonResponse = response"}},{"result":{"nanos":4789400,"millis":4.7894,"status":"passed"},"step":{"line":20,"prefix":"*","index":7,"text":"print jsonResponse"},"stepLog":"19:04:57.475 [print] {\n  \"meta\": {\n    \"pagination\": {\n      \"total\": 1626,\n      \"pages\": 163,\n      \"page\": 1,\n      \"limit\": 10,\n      \"links\": {\n        \"previous\": null,\n        \"current\": \"https:\/\/gorest.co.in\/public\/v1\/users?page=1\",\n        \"next\": \"https:\/\/gorest.co.in\/public\/v1\/users?page=2\"\n      }\n    }\n  },\n  \"data\": [\n    {\n      \"id\": 3198,\n      \"name\": \"Ekaling Ganaka Esq.\",\n      \"email\": \"ganaka_ekaling_esq@oconner.biz\",\n      \"gender\": \"male\",\n      \"status\": \"active\"\n    },\n    {\n      \"id\": 3196,\n      \"name\": \"Aagneya Talwar\",\n      \"email\": \"talwar_aagneya@hettinger.io\",\n      \"gender\": \"female\",\n      \"status\": \"active\"\n    },\n    {\n      \"id\": 3193,\n      \"name\": \"Subhash Butt\",\n      \"email\": \"subhash_butt@haag-flatley.info\",\n      \"gender\": \"male\",\n      \"status\": \"active\"\n    },\n    {\n      \"id\": 3192,\n      \"name\": \"Amaranaath Kaur\",\n      \"email\": \"amaranaath_kaur@schumm.org\",\n      \"gender\": \"male\",\n      \"status\": \"active\"\n    },\n    {\n      \"id\": 3189,\n      \"name\": \"Baladitya Arora\",\n      \"email\": \"baladitya_arora@koelpin.biz\",\n      \"gender\": \"male\",\n      \"status\": \"active\"\n    },\n    {\n      \"id\": 3188,\n      \"name\": \"Ekdant Nair\",\n      \"email\": \"ekdant_nair@wyman.org\",\n      \"gender\": \"female\",\n      \"status\": \"active\"\n    },\n    {\n      \"id\": 3187,\n      \"name\": \"Anaadi Sethi DC\",\n      \"email\": \"dc_sethi_anaadi@batz.net\",\n      \"gender\": \"male\",\n      \"status\": \"active\"\n    },\n    {\n      \"id\": 3183,\n      \"name\": \"Aagney Nayar\",\n      \"email\": \"aagney_nayar@dooley-moen.name\",\n      \"gender\": \"female\",\n      \"status\": \"active\"\n    },\n    {\n      \"id\": 3182,\n      \"name\": \"Sanka Verma\",\n      \"email\": \"sanka_verma@durgan-jast.name\",\n      \"gender\": \"female\",\n      \"status\": \"active\"\n    },\n    {\n      \"id\": 3180,\n      \"name\": \"Trilok Nehru\",\n      \"email\": \"trilok_nehru@murray.co\",\n      \"gender\": \"female\",\n      \"status\": \"active\"\n    }\n  ]\n}\n \n"},{"result":{"nanos":2317800,"millis":2.3178,"status":"passed"},"step":{"line":21,"prefix":"*","index":8,"text":"def userCount = jsonResponse.data.length"}},{"result":{"nanos":1588800,"millis":1.5888,"status":"passed"},"step":{"line":22,"prefix":"*","index":9,"text":"print userCount"},"stepLog":"19:04:57.480 [print] 10 \n"},{"result":{"nanos":13001400,"millis":13.0014,"status":"passed"},"step":{"line":23,"prefix":"*","index":10,"text":"match userCount == 10"}}],"executorName":"main","line":12,"name":"GET API user details","description":"","durationMillis":981.7828,"startTime":1665270296508,"failed":false,"refId":"[2:12]","endTime":1665270297493,"exampleIndex":-1}],"callDepth":0,"name":"GET API with query parameter","description":"","resultDate":"2022-10-08 07:04:57 pm","durationMillis":3403.9305,"passedCount":2}