{"failedCount":0,"prefixedPath":"src\/test\/java\/Features\/GETapiquery.feature","packageQualifiedName":"src.test.java.Features.GETapiquery","loopIndex":-1,"relativePath":"src\/test\/java\/Features\/GETapiquery.feature","scenarioResults":[{"sectionIndex":0,"stepResults":[{"result":{"nanos":91872600,"millis":91.8726,"status":"passed"},"step":{"line":4,"prefix":"*","index":0,"text":"def query = {status: 'active', gender:'male'}"}},{"result":{"nanos":134513800,"millis":134.5138,"status":"passed"},"step":{"line":5,"prefix":"Given","index":1,"text":"url 'https:\/\/gorest.co.in\/public\/v1\/users'"}},{"result":{"nanos":1387446000,"millis":1387.446,"status":"passed"},"step":{"line":6,"prefix":"When","index":2,"text":"method GET"},"stepLog":"10:12:07.476 request:\n1 > GET https:\/\/gorest.co.in\/public\/v1\/users\n1 > Host: gorest.co.in\n1 > Connection: Keep-Alive\n1 > User-Agent: Apache-HttpClient\/4.5.12 (Java\/17.0.4.1)\n1 > Accept-Encoding: gzip,deflate\n\n\n10:12:08.324 response time in milliseconds: 831\n1 < 200\n1 < Date: Mon, 10 Oct 2022 14:12:07 GMT\n1 < Content-Type: application\/json; charset=utf-8\n1 < Transfer-Encoding: chunked\n1 < Connection: keep-alive\n1 < Cache-Control: max-age=0, private, must-revalidate\n1 < etag: W\/\"1f34606f10237bf20132077818a47912\"\n1 < referrer-policy: strict-origin-when-cross-origin\n1 < vary: Origin\n1 < x-content-type-options: nosniff\n1 < x-download-options: noopen\n1 < x-frame-options: SAMEORIGIN\n1 < x-permitted-cross-domain-policies: none\n1 < x-request-id: c8c0db7c-12cc-4a6a-aa6d-b26ff893f949\n1 < x-runtime: 0.017916\n1 < x-xss-protection: 0\n1 < CF-Cache-Status: DYNAMIC\n1 < Report-To: {\"endpoints\":[{\"url\":\"https:\\\/\\\/a.nel.cloudflare.com\\\/report\\\/v3?s=Ecopm7%2FG1iMSD8JdU2MJrAJ9Vi0U1aR6iphdhdd829q7KS1LUD7GknxLwYOZe4EyEp4R%2FYjv%2B06AFg1PmXhiGObPNGyUyooaP44B7lcIGWnhYuj%2Ff%2F4A4%2BRdmW3ch4I%3D\"}],\"group\":\"cf-nel\",\"max_age\":604800}\n1 < NEL: {\"success_fraction\":0,\"report_to\":\"cf-nel\",\"max_age\":604800}\n1 < Server: cloudflare\n1 < CF-RAY: 757ff2f67cf0ad15-ATL\n1 < alt-svc: h3=\":443\"; ma=86400, h3-29=\":443\"; ma=86400\n{\"meta\":{\"pagination\":{\"total\":2299,\"pages\":230,\"page\":1,\"limit\":10,\"links\":{\"previous\":null,\"current\":\"https:\/\/gorest.co.in\/public\/v1\/users?page=1\",\"next\":\"https:\/\/gorest.co.in\/public\/v1\/users?page=2\"}}},\"data\":[{\"id\":2355,\"name\":\"Dhanapati Kocchar\",\"email\":\"kocchar_dhanapati@hahn.name\",\"gender\":\"male\",\"status\":\"active\"},{\"id\":2354,\"name\":\"Ankal Tandon\",\"email\":\"ankal_tandon@ferry.io\",\"gender\":\"male\",\"status\":\"inactive\"},{\"id\":2353,\"name\":\"Buddhana Tandon\",\"email\":\"tandon_buddhana@larson-rice.name\",\"gender\":\"female\",\"status\":\"inactive\"},{\"id\":2352,\"name\":\"Trilochan Somayaji\",\"email\":\"trilochan_somayaji@sauer-predovic.info\",\"gender\":\"female\",\"status\":\"inactive\"},{\"id\":2351,\"name\":\"Mr. Amaresh Adiga\",\"email\":\"adiga_amaresh_mr@strosin-larson.name\",\"gender\":\"male\",\"status\":\"active\"},{\"id\":2350,\"name\":\"Vijay Kaur\",\"email\":\"kaur_vijay@prohaska-zieme.co\",\"gender\":\"male\",\"status\":\"active\"},{\"id\":2344,\"name\":\"Gopaal Marar CPA\",\"email\":\"marar_cpa_gopaal@gulgowski.co\",\"gender\":\"male\",\"status\":\"inactive\"},{\"id\":2343,\"name\":\"Chinmayanand Shah DVM\",\"email\":\"shah_chinmayanand_dvm@hoeger-bosco.io\",\"gender\":\"male\",\"status\":\"active\"},{\"id\":2342,\"name\":\"Purnima Johar Sr.\",\"email\":\"purnima_johar_sr@schiller.io\",\"gender\":\"female\",\"status\":\"active\"},{\"id\":2341,\"name\":\"Devika Bhattacharya DVM\",\"email\":\"dvm_devika_bhattacharya@hickle.info\",\"gender\":\"female\",\"status\":\"inactive\"}]}\n\n"},{"result":{"nanos":29400,"millis":0.0294,"status":"passed"},"step":{"line":7,"prefix":"Then","index":3,"text":"status 200"}},{"result":{"nanos":121935400,"millis":121.9354,"status":"passed"},"step":{"line":8,"prefix":"*","index":4,"text":"print response"},"stepLog":"10:12:08.457 [print] {\n  \"meta\": {\n    \"pagination\": {\n      \"total\": 2299,\n      \"pages\": 230,\n      \"page\": 1,\n      \"limit\": 10,\n      \"links\": {\n        \"previous\": null,\n        \"current\": \"https:\/\/gorest.co.in\/public\/v1\/users?page=1\",\n        \"next\": \"https:\/\/gorest.co.in\/public\/v1\/users?page=2\"\n      }\n    }\n  },\n  \"data\": [\n    {\n      \"id\": 2355,\n      \"name\": \"Dhanapati Kocchar\",\n      \"email\": \"kocchar_dhanapati@hahn.name\",\n      \"gender\": \"male\",\n      \"status\": \"active\"\n    },\n    {\n      \"id\": 2354,\n      \"name\": \"Ankal Tandon\",\n      \"email\": \"ankal_tandon@ferry.io\",\n      \"gender\": \"male\",\n      \"status\": \"inactive\"\n    },\n    {\n      \"id\": 2353,\n      \"name\": \"Buddhana Tandon\",\n      \"email\": \"tandon_buddhana@larson-rice.name\",\n      \"gender\": \"female\",\n      \"status\": \"inactive\"\n    },\n    {\n      \"id\": 2352,\n      \"name\": \"Trilochan Somayaji\",\n      \"email\": \"trilochan_somayaji@sauer-predovic.info\",\n      \"gender\": \"female\",\n      \"status\": \"inactive\"\n    },\n    {\n      \"id\": 2351,\n      \"name\": \"Mr. Amaresh Adiga\",\n      \"email\": \"adiga_amaresh_mr@strosin-larson.name\",\n      \"gender\": \"male\",\n      \"status\": \"active\"\n    },\n    {\n      \"id\": 2350,\n      \"name\": \"Vijay Kaur\",\n      \"email\": \"kaur_vijay@prohaska-zieme.co\",\n      \"gender\": \"male\",\n      \"status\": \"active\"\n    },\n    {\n      \"id\": 2344,\n      \"name\": \"Gopaal Marar CPA\",\n      \"email\": \"marar_cpa_gopaal@gulgowski.co\",\n      \"gender\": \"male\",\n      \"status\": \"inactive\"\n    },\n    {\n      \"id\": 2343,\n      \"name\": \"Chinmayanand Shah DVM\",\n      \"email\": \"shah_chinmayanand_dvm@hoeger-bosco.io\",\n      \"gender\": \"male\",\n      \"status\": \"active\"\n    },\n    {\n      \"id\": 2342,\n      \"name\": \"Purnima Johar Sr.\",\n      \"email\": \"purnima_johar_sr@schiller.io\",\n      \"gender\": \"female\",\n      \"status\": \"active\"\n    },\n    {\n      \"id\": 2341,\n      \"name\": \"Devika Bhattacharya DVM\",\n      \"email\": \"dvm_devika_bhattacharya@hickle.info\",\n      \"gender\": \"female\",\n      \"status\": \"inactive\"\n    }\n  ]\n}\n \n"}],"executorName":"main","line":3,"name":"GET API with query parameters","description":"","durationMillis":1735.7972,"startTime":1665411126699,"failed":false,"refId":"[1:3]","endTime":1665411128460,"exampleIndex":-1},{"sectionIndex":1,"stepResults":[{"result":{"nanos":3523400,"millis":3.5234,"status":"passed"},"step":{"line":12,"prefix":"*","index":0,"text":"def query = {status:'active'}"}},{"result":{"nanos":1479300,"millis":1.4793,"status":"passed"},"step":{"line":13,"prefix":"Given","index":1,"text":"url 'https:\/\/gorest.co.in\/public\/v1\/users'"}},{"result":{"nanos":17596900,"millis":17.5969,"status":"passed"},"step":{"line":14,"prefix":"And","index":2,"text":"params query"}},{"result":{"nanos":984067100,"millis":984.0671,"status":"passed"},"step":{"line":15,"prefix":"When","index":3,"text":"method GET"},"stepLog":"10:12:08.495 request:\n1 > GET https:\/\/gorest.co.in\/public\/v1\/users?status=active\n1 > Host: gorest.co.in\n1 > Connection: Keep-Alive\n1 > User-Agent: Apache-HttpClient\/4.5.12 (Java\/17.0.4.1)\n1 > Accept-Encoding: gzip,deflate\n\n\n10:12:09.473 response time in milliseconds: 976\n1 < 200\n1 < Date: Mon, 10 Oct 2022 14:12:08 GMT\n1 < Content-Type: application\/json; charset=utf-8\n1 < Transfer-Encoding: chunked\n1 < Connection: keep-alive\n1 < Cache-Control: max-age=0, private, must-revalidate\n1 < etag: W\/\"773ac7e9cc1b26a5b15ab3dfe45631ee\"\n1 < referrer-policy: strict-origin-when-cross-origin\n1 < vary: Origin\n1 < x-content-type-options: nosniff\n1 < x-download-options: noopen\n1 < x-frame-options: SAMEORIGIN\n1 < x-permitted-cross-domain-policies: none\n1 < x-request-id: b02c86b3-fd1c-4dc2-8129-fb7292cdd87c\n1 < x-runtime: 0.022312\n1 < x-xss-protection: 0\n1 < CF-Cache-Status: DYNAMIC\n1 < Report-To: {\"endpoints\":[{\"url\":\"https:\\\/\\\/a.nel.cloudflare.com\\\/report\\\/v3?s=2lPttFXt3%2FztdKVT%2BcM8l9g4GujAU7hqCsaJQAqUWscZ%2BWzI0ek9phEuqCevSyEen2Brhc51L7NqF35R8jDwJgzVbfkYzoK6J8u%2BXX%2BNXbFlbRTqPSfN%2BJEhyvdrkw0%3D\"}],\"group\":\"cf-nel\",\"max_age\":604800}\n1 < NEL: {\"success_fraction\":0,\"report_to\":\"cf-nel\",\"max_age\":604800}\n1 < Server: cloudflare\n1 < CF-RAY: 757ff2fa8f50adb9-ATL\n1 < alt-svc: h3=\":443\"; ma=86400, h3-29=\":443\"; ma=86400\n{\"meta\":{\"pagination\":{\"total\":1152,\"pages\":116,\"page\":1,\"limit\":10,\"links\":{\"previous\":null,\"current\":\"https:\/\/gorest.co.in\/public\/v1\/users?page=1\",\"next\":\"https:\/\/gorest.co.in\/public\/v1\/users?page=2\"}}},\"data\":[{\"id\":2355,\"name\":\"Dhanapati Kocchar\",\"email\":\"kocchar_dhanapati@hahn.name\",\"gender\":\"male\",\"status\":\"active\"},{\"id\":2351,\"name\":\"Mr. Amaresh Adiga\",\"email\":\"adiga_amaresh_mr@strosin-larson.name\",\"gender\":\"male\",\"status\":\"active\"},{\"id\":2350,\"name\":\"Vijay Kaur\",\"email\":\"kaur_vijay@prohaska-zieme.co\",\"gender\":\"male\",\"status\":\"active\"},{\"id\":2343,\"name\":\"Chinmayanand Shah DVM\",\"email\":\"shah_chinmayanand_dvm@hoeger-bosco.io\",\"gender\":\"male\",\"status\":\"active\"},{\"id\":2342,\"name\":\"Purnima Johar Sr.\",\"email\":\"purnima_johar_sr@schiller.io\",\"gender\":\"female\",\"status\":\"active\"},{\"id\":2339,\"name\":\"Laxmi Tagore VM\",\"email\":\"vm_laxmi_tagore@harris-collins.co\",\"gender\":\"female\",\"status\":\"active\"},{\"id\":2338,\"name\":\"Meghnath Chopra\",\"email\":\"chopra_meghnath@schneider-yundt.org\",\"gender\":\"male\",\"status\":\"active\"},{\"id\":2332,\"name\":\"Geeta Deshpande\",\"email\":\"geeta_deshpande@koch-pfannerstill.io\",\"gender\":\"female\",\"status\":\"active\"},{\"id\":2330,\"name\":\"Mrs. Agneya Achari\",\"email\":\"achari_mrs_agneya@ward.net\",\"gender\":\"male\",\"status\":\"active\"},{\"id\":2325,\"name\":\"Chandramauli Verma\",\"email\":\"chandramauli_verma@erdman-aufderhar.name\",\"gender\":\"male\",\"status\":\"active\"}]}\n\n"},{"result":{"nanos":45000,"millis":0.045,"status":"passed"},"step":{"line":16,"prefix":"Then","index":4,"text":"status 200"}},{"result":{"nanos":8018400,"millis":8.0184,"status":"passed"},"step":{"line":17,"prefix":"*","index":5,"text":"print response"},"stepLog":"10:12:09.485 [print] {\n  \"meta\": {\n    \"pagination\": {\n      \"total\": 1152,\n      \"pages\": 116,\n      \"page\": 1,\n      \"limit\": 10,\n      \"links\": {\n        \"previous\": null,\n        \"current\": \"https:\/\/gorest.co.in\/public\/v1\/users?page=1\",\n        \"next\": \"https:\/\/gorest.co.in\/public\/v1\/users?page=2\"\n      }\n    }\n  },\n  \"data\": [\n    {\n      \"id\": 2355,\n      \"name\": \"Dhanapati Kocchar\",\n      \"email\": \"kocchar_dhanapati@hahn.name\",\n      \"gender\": \"male\",\n      \"status\": \"active\"\n    },\n    {\n      \"id\": 2351,\n      \"name\": \"Mr. Amaresh Adiga\",\n      \"email\": \"adiga_amaresh_mr@strosin-larson.name\",\n      \"gender\": \"male\",\n      \"status\": \"active\"\n    },\n    {\n      \"id\": 2350,\n      \"name\": \"Vijay Kaur\",\n      \"email\": \"kaur_vijay@prohaska-zieme.co\",\n      \"gender\": \"male\",\n      \"status\": \"active\"\n    },\n    {\n      \"id\": 2343,\n      \"name\": \"Chinmayanand Shah DVM\",\n      \"email\": \"shah_chinmayanand_dvm@hoeger-bosco.io\",\n      \"gender\": \"male\",\n      \"status\": \"active\"\n    },\n    {\n      \"id\": 2342,\n      \"name\": \"Purnima Johar Sr.\",\n      \"email\": \"purnima_johar_sr@schiller.io\",\n      \"gender\": \"female\",\n      \"status\": \"active\"\n    },\n    {\n      \"id\": 2339,\n      \"name\": \"Laxmi Tagore VM\",\n      \"email\": \"vm_laxmi_tagore@harris-collins.co\",\n      \"gender\": \"female\",\n      \"status\": \"active\"\n    },\n    {\n      \"id\": 2338,\n      \"name\": \"Meghnath Chopra\",\n      \"email\": \"chopra_meghnath@schneider-yundt.org\",\n      \"gender\": \"male\",\n      \"status\": \"active\"\n    },\n    {\n      \"id\": 2332,\n      \"name\": \"Geeta Deshpande\",\n      \"email\": \"geeta_deshpande@koch-pfannerstill.io\",\n      \"gender\": \"female\",\n      \"status\": \"active\"\n    },\n    {\n      \"id\": 2330,\n      \"name\": \"Mrs. Agneya Achari\",\n      \"email\": \"achari_mrs_agneya@ward.net\",\n      \"gender\": \"male\",\n      \"status\": \"active\"\n    },\n    {\n      \"id\": 2325,\n      \"name\": \"Chandramauli Verma\",\n      \"email\": \"chandramauli_verma@erdman-aufderhar.name\",\n      \"gender\": \"male\",\n      \"status\": \"active\"\n    }\n  ]\n}\n \n"},{"result":{"nanos":2256000,"millis":2.256,"status":"passed"},"step":{"line":18,"prefix":"*","index":6,"text":"def jsonResponse = response"}},{"result":{"nanos":11456700,"millis":11.4567,"status":"passed"},"step":{"line":19,"prefix":"*","index":7,"text":"print jsonResponse"},"stepLog":"10:12:09.497 [print] {\n  \"meta\": {\n    \"pagination\": {\n      \"total\": 1152,\n      \"pages\": 116,\n      \"page\": 1,\n      \"limit\": 10,\n      \"links\": {\n        \"previous\": null,\n        \"current\": \"https:\/\/gorest.co.in\/public\/v1\/users?page=1\",\n        \"next\": \"https:\/\/gorest.co.in\/public\/v1\/users?page=2\"\n      }\n    }\n  },\n  \"data\": [\n    {\n      \"id\": 2355,\n      \"name\": \"Dhanapati Kocchar\",\n      \"email\": \"kocchar_dhanapati@hahn.name\",\n      \"gender\": \"male\",\n      \"status\": \"active\"\n    },\n    {\n      \"id\": 2351,\n      \"name\": \"Mr. Amaresh Adiga\",\n      \"email\": \"adiga_amaresh_mr@strosin-larson.name\",\n      \"gender\": \"male\",\n      \"status\": \"active\"\n    },\n    {\n      \"id\": 2350,\n      \"name\": \"Vijay Kaur\",\n      \"email\": \"kaur_vijay@prohaska-zieme.co\",\n      \"gender\": \"male\",\n      \"status\": \"active\"\n    },\n    {\n      \"id\": 2343,\n      \"name\": \"Chinmayanand Shah DVM\",\n      \"email\": \"shah_chinmayanand_dvm@hoeger-bosco.io\",\n      \"gender\": \"male\",\n      \"status\": \"active\"\n    },\n    {\n      \"id\": 2342,\n      \"name\": \"Purnima Johar Sr.\",\n      \"email\": \"purnima_johar_sr@schiller.io\",\n      \"gender\": \"female\",\n      \"status\": \"active\"\n    },\n    {\n      \"id\": 2339,\n      \"name\": \"Laxmi Tagore VM\",\n      \"email\": \"vm_laxmi_tagore@harris-collins.co\",\n      \"gender\": \"female\",\n      \"status\": \"active\"\n    },\n    {\n      \"id\": 2338,\n      \"name\": \"Meghnath Chopra\",\n      \"email\": \"chopra_meghnath@schneider-yundt.org\",\n      \"gender\": \"male\",\n      \"status\": \"active\"\n    },\n    {\n      \"id\": 2332,\n      \"name\": \"Geeta Deshpande\",\n      \"email\": \"geeta_deshpande@koch-pfannerstill.io\",\n      \"gender\": \"female\",\n      \"status\": \"active\"\n    },\n    {\n      \"id\": 2330,\n      \"name\": \"Mrs. Agneya Achari\",\n      \"email\": \"achari_mrs_agneya@ward.net\",\n      \"gender\": \"male\",\n      \"status\": \"active\"\n    },\n    {\n      \"id\": 2325,\n      \"name\": \"Chandramauli Verma\",\n      \"email\": \"chandramauli_verma@erdman-aufderhar.name\",\n      \"gender\": \"male\",\n      \"status\": \"active\"\n    }\n  ]\n}\n \n"},{"result":{"nanos":14911900,"millis":14.9119,"status":"passed"},"step":{"line":20,"prefix":"*","index":8,"text":"def actuserCount = jsonResponse.data.userCount"}},{"result":{"nanos":3179500,"millis":3.1795,"status":"passed"},"step":{"line":21,"prefix":"*","index":9,"text":"print actuserCount"},"stepLog":"10:12:09.519 [print] null \n"}],"executorName":"main","line":11,"name":"GET API with query","description":"","durationMillis":1046.5342,"startTime":1665411128469,"failed":false,"refId":"[2:11]","endTime":1665411129519,"exampleIndex":-1}],"callDepth":0,"name":"GET API with parameters","description":"","resultDate":"2022-10-10 10:12:09 am","durationMillis":2782.3314,"passedCount":2}