{"failedCount":0,"prefixedPath":"src\/test\/java\/Features\/GETapiquery.feature","packageQualifiedName":"src.test.java.Features.GETapiquery","loopIndex":-1,"relativePath":"src\/test\/java\/Features\/GETapiquery.feature","scenarioResults":[{"sectionIndex":0,"stepResults":[{"result":{"nanos":98097500,"millis":98.0975,"status":"passed"},"step":{"line":4,"prefix":"*","index":0,"text":"def query = {status:'active'}"}},{"result":{"nanos":144592800,"millis":144.5928,"status":"passed"},"step":{"line":5,"prefix":"Given","index":1,"text":"url 'https:\/\/gorest.co.in\/public\/v1\/users'"}},{"result":{"nanos":39807600,"millis":39.8076,"status":"passed"},"step":{"line":6,"prefix":"And","index":2,"text":"params query"}},{"result":{"nanos":1467510000,"millis":1467.51,"status":"passed"},"step":{"line":7,"prefix":"When","index":3,"text":"method GET"},"stepLog":"22:55:30.890 request:\n1 > GET https:\/\/gorest.co.in\/public\/v1\/users?status=active\n1 > Host: gorest.co.in\n1 > Connection: Keep-Alive\n1 > User-Agent: Apache-HttpClient\/4.5.12 (Java\/17.0.4.1)\n1 > Accept-Encoding: gzip,deflate\n\n\n22:55:31.822 response time in milliseconds: 920\n1 < 200\n1 < Date: Sat, 08 Oct 2022 02:55:29 GMT\n1 < Content-Type: application\/json; charset=utf-8\n1 < Transfer-Encoding: chunked\n1 < Connection: keep-alive\n1 < Cache-Control: max-age=0, private, must-revalidate\n1 < etag: W\/\"b54935287b12c6c83982c6db33a976c7\"\n1 < referrer-policy: strict-origin-when-cross-origin\n1 < vary: Origin\n1 < x-content-type-options: nosniff\n1 < x-download-options: noopen\n1 < x-frame-options: SAMEORIGIN\n1 < x-permitted-cross-domain-policies: none\n1 < x-request-id: cbd0620c-dd64-45b3-8828-cc4d324d6a3f\n1 < x-runtime: 0.057841\n1 < x-xss-protection: 0\n1 < CF-Cache-Status: DYNAMIC\n1 < Report-To: {\"endpoints\":[{\"url\":\"https:\\\/\\\/a.nel.cloudflare.com\\\/report\\\/v3?s=CxTQaAoTDQE3V3Vd1sr4tBkqcRQkzuwVuiwWTBbMSuwealnSfqK%2BnrEz1hDHMMsexU3Qqm4KUODhka7JnJ1vZFqTe4D93EYrlb879JBfNwzCha0Pj0gBzbvIcA55O8g%3D\"}],\"group\":\"cf-nel\",\"max_age\":604800}\n1 < NEL: {\"success_fraction\":0,\"report_to\":\"cf-nel\",\"max_age\":604800}\n1 < Server: cloudflare\n1 < CF-RAY: 756b99114fbcad2e-ATL\n1 < alt-svc: h3=\":443\"; ma=86400, h3-29=\":443\"; ma=86400\n{\"meta\":{\"pagination\":{\"total\":1711,\"pages\":172,\"page\":1,\"limit\":10,\"links\":{\"previous\":null,\"current\":\"https:\/\/gorest.co.in\/public\/v1\/users?page=1\",\"next\":\"https:\/\/gorest.co.in\/public\/v1\/users?page=2\"}}},\"data\":[{\"id\":3442,\"name\":\"Rev. Devika Pilla\",\"email\":\"rev_devika_pilla@simonis-walsh.biz\",\"gender\":\"male\",\"status\":\"active\"},{\"id\":3438,\"name\":\"Chandramauli Johar\",\"email\":\"chandramauli_johar@beatty-graham.info\",\"gender\":\"female\",\"status\":\"active\"},{\"id\":3436,\"name\":\"Chandra Khanna\",\"email\":\"khanna_chandra@kilback.name\",\"gender\":\"female\",\"status\":\"active\"},{\"id\":3435,\"name\":\"Kumuda Tandon DVM\",\"email\":\"tandon_kumuda_dvm@williamson.co\",\"gender\":\"male\",\"status\":\"active\"},{\"id\":3433,\"name\":\"Bhagwanti Devar\",\"email\":\"devar_bhagwanti@hyatt-goodwin.info\",\"gender\":\"male\",\"status\":\"active\"},{\"id\":3432,\"name\":\"Dwaipayan Nambeesan V\",\"email\":\"dwaipayan_nambeesan_v@cummings-kertzmann.biz\",\"gender\":\"male\",\"status\":\"active\"},{\"id\":3431,\"name\":\"Sukanya Mahajan\",\"email\":\"sukanya_mahajan@yost.com\",\"gender\":\"male\",\"status\":\"active\"},{\"id\":3428,\"name\":\"Param Nair DVM\",\"email\":\"dvm_param_nair@wiza-vonrueden.org\",\"gender\":\"female\",\"status\":\"active\"},{\"id\":3427,\"name\":\"Dayaananda Dhawan\",\"email\":\"dhawan_dayaananda@schaden-rolfson.co\",\"gender\":\"male\",\"status\":\"active\"},{\"id\":3426,\"name\":\"Pres. Ramesh Mukhopadhyay\",\"email\":\"ramesh_pres_mukhopadhyay@ohara-zemlak.biz\",\"gender\":\"male\",\"status\":\"active\"}]}\n\n"},{"result":{"nanos":62400,"millis":0.0624,"status":"passed"},"step":{"line":8,"prefix":"Then","index":4,"text":"status 200"}},{"result":{"nanos":235280300,"millis":235.2803,"status":"passed"},"step":{"line":9,"prefix":"*","index":5,"text":"print response"},"stepLog":"22:55:32.076 [print] {\n  \"meta\": {\n    \"pagination\": {\n      \"total\": 1711,\n      \"pages\": 172,\n      \"page\": 1,\n      \"limit\": 10,\n      \"links\": {\n        \"previous\": null,\n        \"current\": \"https:\/\/gorest.co.in\/public\/v1\/users?page=1\",\n        \"next\": \"https:\/\/gorest.co.in\/public\/v1\/users?page=2\"\n      }\n    }\n  },\n  \"data\": [\n    {\n      \"id\": 3442,\n      \"name\": \"Rev. Devika Pilla\",\n      \"email\": \"rev_devika_pilla@simonis-walsh.biz\",\n      \"gender\": \"male\",\n      \"status\": \"active\"\n    },\n    {\n      \"id\": 3438,\n      \"name\": \"Chandramauli Johar\",\n      \"email\": \"chandramauli_johar@beatty-graham.info\",\n      \"gender\": \"female\",\n      \"status\": \"active\"\n    },\n    {\n      \"id\": 3436,\n      \"name\": \"Chandra Khanna\",\n      \"email\": \"khanna_chandra@kilback.name\",\n      \"gender\": \"female\",\n      \"status\": \"active\"\n    },\n    {\n      \"id\": 3435,\n      \"name\": \"Kumuda Tandon DVM\",\n      \"email\": \"tandon_kumuda_dvm@williamson.co\",\n      \"gender\": \"male\",\n      \"status\": \"active\"\n    },\n    {\n      \"id\": 3433,\n      \"name\": \"Bhagwanti Devar\",\n      \"email\": \"devar_bhagwanti@hyatt-goodwin.info\",\n      \"gender\": \"male\",\n      \"status\": \"active\"\n    },\n    {\n      \"id\": 3432,\n      \"name\": \"Dwaipayan Nambeesan V\",\n      \"email\": \"dwaipayan_nambeesan_v@cummings-kertzmann.biz\",\n      \"gender\": \"male\",\n      \"status\": \"active\"\n    },\n    {\n      \"id\": 3431,\n      \"name\": \"Sukanya Mahajan\",\n      \"email\": \"sukanya_mahajan@yost.com\",\n      \"gender\": \"male\",\n      \"status\": \"active\"\n    },\n    {\n      \"id\": 3428,\n      \"name\": \"Param Nair DVM\",\n      \"email\": \"dvm_param_nair@wiza-vonrueden.org\",\n      \"gender\": \"female\",\n      \"status\": \"active\"\n    },\n    {\n      \"id\": 3427,\n      \"name\": \"Dayaananda Dhawan\",\n      \"email\": \"dhawan_dayaananda@schaden-rolfson.co\",\n      \"gender\": \"male\",\n      \"status\": \"active\"\n    },\n    {\n      \"id\": 3426,\n      \"name\": \"Pres. Ramesh Mukhopadhyay\",\n      \"email\": \"ramesh_pres_mukhopadhyay@ohara-zemlak.biz\",\n      \"gender\": \"male\",\n      \"status\": \"active\"\n    }\n  ]\n}\n \n"}],"executorName":"main","line":3,"name":"GET all active user","description":"","durationMillis":1985.3506,"startTime":1665197730065,"failed":false,"refId":"[1:3]","endTime":1665197732077,"exampleIndex":-1},{"sectionIndex":1,"stepResults":[{"result":{"nanos":1668700,"millis":1.6687,"status":"passed"},"step":{"line":14,"prefix":"*","index":0,"text":"def query = {status: 'active'}"}},{"result":{"nanos":744700,"millis":0.7447,"status":"passed"},"step":{"line":15,"prefix":"Given","index":1,"text":"url 'https:\/\/gorest.co.in\/public\/v1\/users'"}},{"result":{"nanos":263800,"millis":0.2638,"status":"passed"},"step":{"line":16,"prefix":"And","index":2,"text":"params query"}},{"result":{"nanos":414216600,"millis":414.2166,"status":"passed"},"step":{"line":17,"prefix":"When","index":3,"text":"method GET"},"stepLog":"22:55:32.095 request:\n1 > GET https:\/\/gorest.co.in\/public\/v1\/users?status=active\n1 > Host: gorest.co.in\n1 > Connection: Keep-Alive\n1 > User-Agent: Apache-HttpClient\/4.5.12 (Java\/17.0.4.1)\n1 > Accept-Encoding: gzip,deflate\n\n\n22:55:32.501 response time in milliseconds: 404\n1 < 200\n1 < Date: Sat, 08 Oct 2022 02:55:30 GMT\n1 < Content-Type: application\/json; charset=utf-8\n1 < Transfer-Encoding: chunked\n1 < Connection: keep-alive\n1 < Cache-Control: max-age=0, private, must-revalidate\n1 < etag: W\/\"b54935287b12c6c83982c6db33a976c7\"\n1 < referrer-policy: strict-origin-when-cross-origin\n1 < vary: Origin\n1 < x-content-type-options: nosniff\n1 < x-download-options: noopen\n1 < x-frame-options: SAMEORIGIN\n1 < x-permitted-cross-domain-policies: none\n1 < x-request-id: 845ef7ff-d7bf-41d1-afc4-be3f6037f9bb\n1 < x-runtime: 0.049927\n1 < x-xss-protection: 0\n1 < CF-Cache-Status: DYNAMIC\n1 < Report-To: {\"endpoints\":[{\"url\":\"https:\\\/\\\/a.nel.cloudflare.com\\\/report\\\/v3?s=jvk%2BiYWHzNJLg3PeI4TIoEiaZNvIbx%2BVfyESxMrqIeNAxEaH1NtmBFF1UNYDQv%2BAIHxSikMgtrs0hx2n3fJv1bG3pvfrMoCton5ZzNh3VkZbqRtNoDMbTiN0CO%2F4GA0%3D\"}],\"group\":\"cf-nel\",\"max_age\":604800}\n1 < NEL: {\"success_fraction\":0,\"report_to\":\"cf-nel\",\"max_age\":604800}\n1 < Server: cloudflare\n1 < CF-RAY: 756b99163867b163-ATL\n1 < alt-svc: h3=\":443\"; ma=86400, h3-29=\":443\"; ma=86400\n{\"meta\":{\"pagination\":{\"total\":1711,\"pages\":172,\"page\":1,\"limit\":10,\"links\":{\"previous\":null,\"current\":\"https:\/\/gorest.co.in\/public\/v1\/users?page=1\",\"next\":\"https:\/\/gorest.co.in\/public\/v1\/users?page=2\"}}},\"data\":[{\"id\":3442,\"name\":\"Rev. Devika Pilla\",\"email\":\"rev_devika_pilla@simonis-walsh.biz\",\"gender\":\"male\",\"status\":\"active\"},{\"id\":3438,\"name\":\"Chandramauli Johar\",\"email\":\"chandramauli_johar@beatty-graham.info\",\"gender\":\"female\",\"status\":\"active\"},{\"id\":3436,\"name\":\"Chandra Khanna\",\"email\":\"khanna_chandra@kilback.name\",\"gender\":\"female\",\"status\":\"active\"},{\"id\":3435,\"name\":\"Kumuda Tandon DVM\",\"email\":\"tandon_kumuda_dvm@williamson.co\",\"gender\":\"male\",\"status\":\"active\"},{\"id\":3433,\"name\":\"Bhagwanti Devar\",\"email\":\"devar_bhagwanti@hyatt-goodwin.info\",\"gender\":\"male\",\"status\":\"active\"},{\"id\":3432,\"name\":\"Dwaipayan Nambeesan V\",\"email\":\"dwaipayan_nambeesan_v@cummings-kertzmann.biz\",\"gender\":\"male\",\"status\":\"active\"},{\"id\":3431,\"name\":\"Sukanya Mahajan\",\"email\":\"sukanya_mahajan@yost.com\",\"gender\":\"male\",\"status\":\"active\"},{\"id\":3428,\"name\":\"Param Nair DVM\",\"email\":\"dvm_param_nair@wiza-vonrueden.org\",\"gender\":\"female\",\"status\":\"active\"},{\"id\":3427,\"name\":\"Dayaananda Dhawan\",\"email\":\"dhawan_dayaananda@schaden-rolfson.co\",\"gender\":\"male\",\"status\":\"active\"},{\"id\":3426,\"name\":\"Pres. Ramesh Mukhopadhyay\",\"email\":\"ramesh_pres_mukhopadhyay@ohara-zemlak.biz\",\"gender\":\"male\",\"status\":\"active\"}]}\n\n"},{"result":{"nanos":41100,"millis":0.0411,"status":"passed"},"step":{"line":18,"prefix":"Then","index":4,"text":"status 200"}},{"result":{"nanos":6143300,"millis":6.1433,"status":"passed"},"step":{"line":19,"prefix":"*","index":5,"text":"print response"},"stepLog":"22:55:32.513 [print] {\n  \"meta\": {\n    \"pagination\": {\n      \"total\": 1711,\n      \"pages\": 172,\n      \"page\": 1,\n      \"limit\": 10,\n      \"links\": {\n        \"previous\": null,\n        \"current\": \"https:\/\/gorest.co.in\/public\/v1\/users?page=1\",\n        \"next\": \"https:\/\/gorest.co.in\/public\/v1\/users?page=2\"\n      }\n    }\n  },\n  \"data\": [\n    {\n      \"id\": 3442,\n      \"name\": \"Rev. Devika Pilla\",\n      \"email\": \"rev_devika_pilla@simonis-walsh.biz\",\n      \"gender\": \"male\",\n      \"status\": \"active\"\n    },\n    {\n      \"id\": 3438,\n      \"name\": \"Chandramauli Johar\",\n      \"email\": \"chandramauli_johar@beatty-graham.info\",\n      \"gender\": \"female\",\n      \"status\": \"active\"\n    },\n    {\n      \"id\": 3436,\n      \"name\": \"Chandra Khanna\",\n      \"email\": \"khanna_chandra@kilback.name\",\n      \"gender\": \"female\",\n      \"status\": \"active\"\n    },\n    {\n      \"id\": 3435,\n      \"name\": \"Kumuda Tandon DVM\",\n      \"email\": \"tandon_kumuda_dvm@williamson.co\",\n      \"gender\": \"male\",\n      \"status\": \"active\"\n    },\n    {\n      \"id\": 3433,\n      \"name\": \"Bhagwanti Devar\",\n      \"email\": \"devar_bhagwanti@hyatt-goodwin.info\",\n      \"gender\": \"male\",\n      \"status\": \"active\"\n    },\n    {\n      \"id\": 3432,\n      \"name\": \"Dwaipayan Nambeesan V\",\n      \"email\": \"dwaipayan_nambeesan_v@cummings-kertzmann.biz\",\n      \"gender\": \"male\",\n      \"status\": \"active\"\n    },\n    {\n      \"id\": 3431,\n      \"name\": \"Sukanya Mahajan\",\n      \"email\": \"sukanya_mahajan@yost.com\",\n      \"gender\": \"male\",\n      \"status\": \"active\"\n    },\n    {\n      \"id\": 3428,\n      \"name\": \"Param Nair DVM\",\n      \"email\": \"dvm_param_nair@wiza-vonrueden.org\",\n      \"gender\": \"female\",\n      \"status\": \"active\"\n    },\n    {\n      \"id\": 3427,\n      \"name\": \"Dayaananda Dhawan\",\n      \"email\": \"dhawan_dayaananda@schaden-rolfson.co\",\n      \"gender\": \"male\",\n      \"status\": \"active\"\n    },\n    {\n      \"id\": 3426,\n      \"name\": \"Pres. Ramesh Mukhopadhyay\",\n      \"email\": \"ramesh_pres_mukhopadhyay@ohara-zemlak.biz\",\n      \"gender\": \"male\",\n      \"status\": \"active\"\n    }\n  ]\n}\n \n"},{"result":{"nanos":1310900,"millis":1.3109,"status":"passed"},"step":{"line":20,"prefix":"*","index":6,"text":"def jsonResponse = response"}},{"result":{"nanos":4205900,"millis":4.2059,"status":"passed"},"step":{"line":21,"prefix":"*","index":7,"text":"print response"},"stepLog":"22:55:32.519 [print] {\n  \"meta\": {\n    \"pagination\": {\n      \"total\": 1711,\n      \"pages\": 172,\n      \"page\": 1,\n      \"limit\": 10,\n      \"links\": {\n        \"previous\": null,\n        \"current\": \"https:\/\/gorest.co.in\/public\/v1\/users?page=1\",\n        \"next\": \"https:\/\/gorest.co.in\/public\/v1\/users?page=2\"\n      }\n    }\n  },\n  \"data\": [\n    {\n      \"id\": 3442,\n      \"name\": \"Rev. Devika Pilla\",\n      \"email\": \"rev_devika_pilla@simonis-walsh.biz\",\n      \"gender\": \"male\",\n      \"status\": \"active\"\n    },\n    {\n      \"id\": 3438,\n      \"name\": \"Chandramauli Johar\",\n      \"email\": \"chandramauli_johar@beatty-graham.info\",\n      \"gender\": \"female\",\n      \"status\": \"active\"\n    },\n    {\n      \"id\": 3436,\n      \"name\": \"Chandra Khanna\",\n      \"email\": \"khanna_chandra@kilback.name\",\n      \"gender\": \"female\",\n      \"status\": \"active\"\n    },\n    {\n      \"id\": 3435,\n      \"name\": \"Kumuda Tandon DVM\",\n      \"email\": \"tandon_kumuda_dvm@williamson.co\",\n      \"gender\": \"male\",\n      \"status\": \"active\"\n    },\n    {\n      \"id\": 3433,\n      \"name\": \"Bhagwanti Devar\",\n      \"email\": \"devar_bhagwanti@hyatt-goodwin.info\",\n      \"gender\": \"male\",\n      \"status\": \"active\"\n    },\n    {\n      \"id\": 3432,\n      \"name\": \"Dwaipayan Nambeesan V\",\n      \"email\": \"dwaipayan_nambeesan_v@cummings-kertzmann.biz\",\n      \"gender\": \"male\",\n      \"status\": \"active\"\n    },\n    {\n      \"id\": 3431,\n      \"name\": \"Sukanya Mahajan\",\n      \"email\": \"sukanya_mahajan@yost.com\",\n      \"gender\": \"male\",\n      \"status\": \"active\"\n    },\n    {\n      \"id\": 3428,\n      \"name\": \"Param Nair DVM\",\n      \"email\": \"dvm_param_nair@wiza-vonrueden.org\",\n      \"gender\": \"female\",\n      \"status\": \"active\"\n    },\n    {\n      \"id\": 3427,\n      \"name\": \"Dayaananda Dhawan\",\n      \"email\": \"dhawan_dayaananda@schaden-rolfson.co\",\n      \"gender\": \"male\",\n      \"status\": \"active\"\n    },\n    {\n      \"id\": 3426,\n      \"name\": \"Pres. Ramesh Mukhopadhyay\",\n      \"email\": \"ramesh_pres_mukhopadhyay@ohara-zemlak.biz\",\n      \"gender\": \"male\",\n      \"status\": \"active\"\n    }\n  ]\n}\n \n"},{"result":{"nanos":5514800,"millis":5.5148,"status":"passed"},"step":{"line":22,"prefix":"*","index":8,"text":"def userCount = jsonResponse.data.length"}},{"result":{"nanos":2928900,"millis":2.9289,"status":"passed"},"step":{"line":23,"prefix":"*","index":9,"text":"print userCount"},"stepLog":"22:55:32.528 [print] 10 \n"},{"result":{"nanos":16954800,"millis":16.9548,"status":"passed"},"step":{"line":24,"prefix":"*","index":10,"text":"match userCount == 10"}}],"executorName":"main","line":13,"name":"GET all active user with with get count","description":"","durationMillis":453.9935,"startTime":1665197732090,"failed":false,"refId":"[2:13]","endTime":1665197732546,"exampleIndex":-1}],"callDepth":0,"name":"GET Api query parameters","description":"","resultDate":"2022-10-07 10:55:32 pm","durationMillis":2439.3441,"passedCount":2}