{"failedCount":0,"prefixedPath":"src\/test\/java\/Features\/GETapiquery.feature","packageQualifiedName":"src.test.java.Features.GETapiquery","loopIndex":-1,"relativePath":"src\/test\/java\/Features\/GETapiquery.feature","scenarioResults":[{"sectionIndex":0,"stepResults":[{"result":{"nanos":123799600,"millis":123.7996,"status":"passed"},"step":{"line":4,"prefix":"*","index":0,"text":"def query = {status:'active', gender: 'male'}"}},{"result":{"nanos":150255500,"millis":150.2555,"status":"passed"},"step":{"line":5,"prefix":"Given","index":1,"text":"url 'https:\/\/gorest.co.in\/public\/v1\/users'"}},{"result":{"nanos":75591400,"millis":75.5914,"status":"passed"},"step":{"line":6,"prefix":"And","index":2,"text":"params query"}},{"result":{"nanos":2024000000,"millis":2024.0,"status":"passed"},"step":{"line":7,"prefix":"When","index":3,"text":"method GET"},"stepLog":"19:19:31.298 request:\n1 > GET https:\/\/gorest.co.in\/public\/v1\/users?gender=male&status=active\n1 > Host: gorest.co.in\n1 > Connection: Keep-Alive\n1 > User-Agent: Apache-HttpClient\/4.5.12 (Java\/17.0.4.1)\n1 > Accept-Encoding: gzip,deflate\n\n\n19:19:32.676 response time in milliseconds: 1364\n1 < 200\n1 < Date: Sun, 09 Oct 2022 23:19:32 GMT\n1 < Content-Type: application\/json; charset=utf-8\n1 < Transfer-Encoding: chunked\n1 < Connection: keep-alive\n1 < Cache-Control: max-age=0, private, must-revalidate\n1 < etag: W\/\"9ef17259aa8dae9fef29f79a7d40ef5a\"\n1 < referrer-policy: strict-origin-when-cross-origin\n1 < vary: Origin\n1 < x-content-type-options: nosniff\n1 < x-download-options: noopen\n1 < x-frame-options: SAMEORIGIN\n1 < x-permitted-cross-domain-policies: none\n1 < x-request-id: ac7eaafa-2fae-4584-b3b6-1443289811c3\n1 < x-runtime: 0.018399\n1 < x-xss-protection: 0\n1 < CF-Cache-Status: DYNAMIC\n1 < Report-To: {\"endpoints\":[{\"url\":\"https:\\\/\\\/a.nel.cloudflare.com\\\/report\\\/v3?s=va8NlT8jKrgIClQ9nihQQ2Lw5sxgwO2bn28gnXrJDFjJ9WzDq%2BUX3b%2F0T8b3VjXvZ20ehejKUKrZSiUNCEURAJYhtXGn23bFoL76XXhJyMRMbwP8PtQVddu3R7sTHUQ%3D\"}],\"group\":\"cf-nel\",\"max_age\":604800}\n1 < NEL: {\"success_fraction\":0,\"report_to\":\"cf-nel\",\"max_age\":604800}\n1 < Server: cloudflare\n1 < CF-RAY: 757ad77a1c2cada7-ATL\n1 < alt-svc: h3=\":443\"; ma=86400, h3-29=\":443\"; ma=86400\n{\"meta\":{\"pagination\":{\"total\":618,\"pages\":62,\"page\":1,\"limit\":10,\"links\":{\"previous\":null,\"current\":\"https:\/\/gorest.co.in\/public\/v1\/users?page=1\",\"next\":\"https:\/\/gorest.co.in\/public\/v1\/users?page=2\"}}},\"data\":[{\"id\":2419,\"name\":\"Subhasini Bandopadhyay\",\"email\":\"subhasini_bandopadhyay@schamberger.com\",\"gender\":\"male\",\"status\":\"active\"},{\"id\":2413,\"name\":\"Mrs. Balagovind Deshpande\",\"email\":\"mrs_balagovind_deshpande@larkin.co\",\"gender\":\"male\",\"status\":\"active\"},{\"id\":2409,\"name\":\"Prasad Panicker\",\"email\":\"panicker_prasad@williamson-barrows.co\",\"gender\":\"male\",\"status\":\"active\"},{\"id\":2405,\"name\":\"Gov. Aadidev Agarwal\",\"email\":\"aadidev_gov_agarwal@purdy-hartmann.io\",\"gender\":\"male\",\"status\":\"active\"},{\"id\":2404,\"name\":\"Chidambaram Agarwal\",\"email\":\"chidambaram_agarwal@stracke.io\",\"gender\":\"male\",\"status\":\"active\"},{\"id\":2403,\"name\":\"Bahula Ahuja\",\"email\":\"bahula_ahuja@hills.net\",\"gender\":\"male\",\"status\":\"active\"},{\"id\":2389,\"name\":\"Adinath Saini\",\"email\":\"adinath_saini@keeling.info\",\"gender\":\"male\",\"status\":\"active\"},{\"id\":2387,\"name\":\"Tanushree Butt\",\"email\":\"butt_tanushree@osinski-stracke.info\",\"gender\":\"male\",\"status\":\"active\"},{\"id\":2386,\"name\":\"Devani Kaur Esq.\",\"email\":\"devani_kaur_esq@gerlach.co\",\"gender\":\"male\",\"status\":\"active\"},{\"id\":2380,\"name\":\"Swara Sinha\",\"email\":\"sinha_swara@morar.co\",\"gender\":\"male\",\"status\":\"active\"}]}\n\n"},{"result":{"nanos":55800,"millis":0.0558,"status":"passed"},"step":{"line":8,"prefix":"Then","index":4,"text":"status 200"}},{"result":{"nanos":165718300,"millis":165.7183,"status":"passed"},"step":{"line":9,"prefix":"*","index":5,"text":"print response"},"stepLog":"19:19:32.857 [print] {\n  \"meta\": {\n    \"pagination\": {\n      \"total\": 618,\n      \"pages\": 62,\n      \"page\": 1,\n      \"limit\": 10,\n      \"links\": {\n        \"previous\": null,\n        \"current\": \"https:\/\/gorest.co.in\/public\/v1\/users?page=1\",\n        \"next\": \"https:\/\/gorest.co.in\/public\/v1\/users?page=2\"\n      }\n    }\n  },\n  \"data\": [\n    {\n      \"id\": 2419,\n      \"name\": \"Subhasini Bandopadhyay\",\n      \"email\": \"subhasini_bandopadhyay@schamberger.com\",\n      \"gender\": \"male\",\n      \"status\": \"active\"\n    },\n    {\n      \"id\": 2413,\n      \"name\": \"Mrs. Balagovind Deshpande\",\n      \"email\": \"mrs_balagovind_deshpande@larkin.co\",\n      \"gender\": \"male\",\n      \"status\": \"active\"\n    },\n    {\n      \"id\": 2409,\n      \"name\": \"Prasad Panicker\",\n      \"email\": \"panicker_prasad@williamson-barrows.co\",\n      \"gender\": \"male\",\n      \"status\": \"active\"\n    },\n    {\n      \"id\": 2405,\n      \"name\": \"Gov. Aadidev Agarwal\",\n      \"email\": \"aadidev_gov_agarwal@purdy-hartmann.io\",\n      \"gender\": \"male\",\n      \"status\": \"active\"\n    },\n    {\n      \"id\": 2404,\n      \"name\": \"Chidambaram Agarwal\",\n      \"email\": \"chidambaram_agarwal@stracke.io\",\n      \"gender\": \"male\",\n      \"status\": \"active\"\n    },\n    {\n      \"id\": 2403,\n      \"name\": \"Bahula Ahuja\",\n      \"email\": \"bahula_ahuja@hills.net\",\n      \"gender\": \"male\",\n      \"status\": \"active\"\n    },\n    {\n      \"id\": 2389,\n      \"name\": \"Adinath Saini\",\n      \"email\": \"adinath_saini@keeling.info\",\n      \"gender\": \"male\",\n      \"status\": \"active\"\n    },\n    {\n      \"id\": 2387,\n      \"name\": \"Tanushree Butt\",\n      \"email\": \"butt_tanushree@osinski-stracke.info\",\n      \"gender\": \"male\",\n      \"status\": \"active\"\n    },\n    {\n      \"id\": 2386,\n      \"name\": \"Devani Kaur Esq.\",\n      \"email\": \"devani_kaur_esq@gerlach.co\",\n      \"gender\": \"male\",\n      \"status\": \"active\"\n    },\n    {\n      \"id\": 2380,\n      \"name\": \"Swara Sinha\",\n      \"email\": \"sinha_swara@morar.co\",\n      \"gender\": \"male\",\n      \"status\": \"active\"\n    }\n  ]\n}\n \n"}],"executorName":"main","line":3,"name":"GET API with query params","description":"","durationMillis":2539.4206,"startTime":1665357570285,"failed":false,"refId":"[1:3]","endTime":1665357572858,"exampleIndex":-1}],"callDepth":0,"name":"GET API with query parametrs","description":"","resultDate":"2022-10-09 07:19:32 pm","durationMillis":2539.4206,"passedCount":1}