{"failedCount":0,"prefixedPath":"src\/test\/java\/Features\/GETapiquery.feature","packageQualifiedName":"src.test.java.Features.GETapiquery","loopIndex":-1,"relativePath":"src\/test\/java\/Features\/GETapiquery.feature","scenarioResults":[{"sectionIndex":0,"stepResults":[{"result":{"nanos":98488800,"millis":98.4888,"status":"passed"},"step":{"line":4,"prefix":"*","index":0,"text":"def query = {status:'active', gender:'male'}"}},{"result":{"nanos":273367400,"millis":273.3674,"status":"passed"},"step":{"line":6,"prefix":"Given","index":1,"text":"url 'https:\/\/gorest.co.in\/public\/v1\/users'"}},{"result":{"nanos":62288700,"millis":62.2887,"status":"passed"},"step":{"line":7,"prefix":"And","index":2,"text":"params query"}},{"result":{"nanos":1707498400,"millis":1707.4984,"status":"passed"},"step":{"line":8,"prefix":"When","index":3,"text":"method GET"},"stepLog":"22:19:55.734 request:\n1 > GET https:\/\/gorest.co.in\/public\/v1\/users?gender=male&status=active\n1 > Host: gorest.co.in\n1 > Connection: Keep-Alive\n1 > User-Agent: Apache-HttpClient\/4.5.12 (Java\/17.0.4.1)\n1 > Accept-Encoding: gzip,deflate\n\n\n22:19:56.720 response time in milliseconds: 965\n1 < 200\n1 < Date: Sat, 08 Oct 2022 02:19:54 GMT\n1 < Content-Type: application\/json; charset=utf-8\n1 < Transfer-Encoding: chunked\n1 < Connection: keep-alive\n1 < Cache-Control: max-age=0, private, must-revalidate\n1 < etag: W\/\"53c1fa121a31835a72a3aaf94b830680\"\n1 < referrer-policy: strict-origin-when-cross-origin\n1 < vary: Origin\n1 < x-content-type-options: nosniff\n1 < x-download-options: noopen\n1 < x-frame-options: SAMEORIGIN\n1 < x-permitted-cross-domain-policies: none\n1 < x-request-id: ae1f2d0b-fc7a-48ad-a85b-b8b96c24aa68\n1 < x-runtime: 0.042088\n1 < x-xss-protection: 0\n1 < CF-Cache-Status: DYNAMIC\n1 < Report-To: {\"endpoints\":[{\"url\":\"https:\\\/\\\/a.nel.cloudflare.com\\\/report\\\/v3?s=licu%2BLa%2BlpzsIjROlpphdKzPaYiAa%2FaL%2Bm%2FW4kfisgLCAUBBHyboEVJfV2hg3kSmr0SZ9Hkuk03DRMH45NQc%2FWdNtz%2F3045KIuhCu3wcqp3m75T2dTJSfkqmc53V%2BgY%3D\"}],\"group\":\"cf-nel\",\"max_age\":604800}\n1 < NEL: {\"success_fraction\":0,\"report_to\":\"cf-nel\",\"max_age\":604800}\n1 < Server: cloudflare\n1 < CF-RAY: 756b64f0cd67ad6b-ATL\n1 < alt-svc: h3=\":443\"; ma=86400, h3-29=\":443\"; ma=86400\n{\"meta\":{\"pagination\":{\"total\":870,\"pages\":87,\"page\":1,\"limit\":10,\"links\":{\"previous\":null,\"current\":\"https:\/\/gorest.co.in\/public\/v1\/users?page=1\",\"next\":\"https:\/\/gorest.co.in\/public\/v1\/users?page=2\"}}},\"data\":[{\"id\":3451,\"name\":\"Brahmanandam Ahluwalia\",\"email\":\"ahluwalia_brahmanandam@veum.biz\",\"gender\":\"male\",\"status\":\"active\"},{\"id\":3444,\"name\":\"Swara Guneta\",\"email\":\"guneta_swara@ondricka.org\",\"gender\":\"male\",\"status\":\"active\"},{\"id\":3442,\"name\":\"Rev. Devika Pilla\",\"email\":\"rev_devika_pilla@simonis-walsh.biz\",\"gender\":\"male\",\"status\":\"active\"},{\"id\":3435,\"name\":\"Kumuda Tandon DVM\",\"email\":\"tandon_kumuda_dvm@williamson.co\",\"gender\":\"male\",\"status\":\"active\"},{\"id\":3433,\"name\":\"Bhagwanti Devar\",\"email\":\"devar_bhagwanti@hyatt-goodwin.info\",\"gender\":\"male\",\"status\":\"active\"},{\"id\":3432,\"name\":\"Dwaipayan Nambeesan V\",\"email\":\"dwaipayan_nambeesan_v@cummings-kertzmann.biz\",\"gender\":\"male\",\"status\":\"active\"},{\"id\":3431,\"name\":\"Sukanya Mahajan\",\"email\":\"sukanya_mahajan@yost.com\",\"gender\":\"male\",\"status\":\"active\"},{\"id\":3427,\"name\":\"Dayaananda Dhawan\",\"email\":\"dhawan_dayaananda@schaden-rolfson.co\",\"gender\":\"male\",\"status\":\"active\"},{\"id\":3426,\"name\":\"Pres. Ramesh Mukhopadhyay\",\"email\":\"ramesh_pres_mukhopadhyay@ohara-zemlak.biz\",\"gender\":\"male\",\"status\":\"active\"},{\"id\":3418,\"name\":\"Sen. Rakesh Bhat\",\"email\":\"bhat_sen_rakesh@block.org\",\"gender\":\"male\",\"status\":\"active\"}]}\n\n"},{"result":{"nanos":66400,"millis":0.0664,"status":"passed"},"step":{"line":9,"prefix":"Then","index":4,"text":"status 200"}},{"result":{"nanos":226682200,"millis":226.6822,"status":"passed"},"step":{"line":10,"prefix":"*","index":5,"text":"print response"},"stepLog":"22:19:56.958 [print] {\n  \"meta\": {\n    \"pagination\": {\n      \"total\": 870,\n      \"pages\": 87,\n      \"page\": 1,\n      \"limit\": 10,\n      \"links\": {\n        \"previous\": null,\n        \"current\": \"https:\/\/gorest.co.in\/public\/v1\/users?page=1\",\n        \"next\": \"https:\/\/gorest.co.in\/public\/v1\/users?page=2\"\n      }\n    }\n  },\n  \"data\": [\n    {\n      \"id\": 3451,\n      \"name\": \"Brahmanandam Ahluwalia\",\n      \"email\": \"ahluwalia_brahmanandam@veum.biz\",\n      \"gender\": \"male\",\n      \"status\": \"active\"\n    },\n    {\n      \"id\": 3444,\n      \"name\": \"Swara Guneta\",\n      \"email\": \"guneta_swara@ondricka.org\",\n      \"gender\": \"male\",\n      \"status\": \"active\"\n    },\n    {\n      \"id\": 3442,\n      \"name\": \"Rev. Devika Pilla\",\n      \"email\": \"rev_devika_pilla@simonis-walsh.biz\",\n      \"gender\": \"male\",\n      \"status\": \"active\"\n    },\n    {\n      \"id\": 3435,\n      \"name\": \"Kumuda Tandon DVM\",\n      \"email\": \"tandon_kumuda_dvm@williamson.co\",\n      \"gender\": \"male\",\n      \"status\": \"active\"\n    },\n    {\n      \"id\": 3433,\n      \"name\": \"Bhagwanti Devar\",\n      \"email\": \"devar_bhagwanti@hyatt-goodwin.info\",\n      \"gender\": \"male\",\n      \"status\": \"active\"\n    },\n    {\n      \"id\": 3432,\n      \"name\": \"Dwaipayan Nambeesan V\",\n      \"email\": \"dwaipayan_nambeesan_v@cummings-kertzmann.biz\",\n      \"gender\": \"male\",\n      \"status\": \"active\"\n    },\n    {\n      \"id\": 3431,\n      \"name\": \"Sukanya Mahajan\",\n      \"email\": \"sukanya_mahajan@yost.com\",\n      \"gender\": \"male\",\n      \"status\": \"active\"\n    },\n    {\n      \"id\": 3427,\n      \"name\": \"Dayaananda Dhawan\",\n      \"email\": \"dhawan_dayaananda@schaden-rolfson.co\",\n      \"gender\": \"male\",\n      \"status\": \"active\"\n    },\n    {\n      \"id\": 3426,\n      \"name\": \"Pres. Ramesh Mukhopadhyay\",\n      \"email\": \"ramesh_pres_mukhopadhyay@ohara-zemlak.biz\",\n      \"gender\": \"male\",\n      \"status\": \"active\"\n    },\n    {\n      \"id\": 3418,\n      \"name\": \"Sen. Rakesh Bhat\",\n      \"email\": \"bhat_sen_rakesh@block.org\",\n      \"gender\": \"male\",\n      \"status\": \"active\"\n    }\n  ]\n}\n \n"}],"executorName":"main","line":3,"name":"get all active user","description":"","durationMillis":2368.3919,"startTime":1665195594560,"failed":false,"refId":"[1:3]","endTime":1665195596961,"exampleIndex":-1}],"callDepth":0,"name":"GET API with query Parameters","description":"","resultDate":"2022-10-07 10:19:56 pm","durationMillis":2368.3919,"passedCount":1}