{"failedCount":0,"prefixedPath":"src\/test\/java\/Features\/GETapiquery.feature","packageQualifiedName":"src.test.java.Features.GETapiquery","loopIndex":-1,"relativePath":"src\/test\/java\/Features\/GETapiquery.feature","scenarioResults":[{"sectionIndex":0,"stepResults":[{"result":{"nanos":106394800,"millis":106.3948,"status":"passed"},"step":{"line":4,"prefix":"*","index":0,"text":"def query = {status:'active', gender:'male'}"}},{"result":{"nanos":162670700,"millis":162.6707,"status":"passed"},"step":{"line":6,"prefix":"Given","index":1,"text":"url 'https:\/\/gorest.co.in\/public\/v1\/users'"}},{"result":{"nanos":41970500,"millis":41.9705,"status":"passed"},"step":{"line":7,"prefix":"And","index":2,"text":"params query"}},{"result":{"nanos":1390381000,"millis":1390.381,"status":"passed"},"step":{"line":8,"prefix":"When","index":3,"text":"method GET"},"stepLog":"09:18:05.367 request:\n1 > GET https:\/\/gorest.co.in\/public\/v1\/users?gender=male&status=active\n1 > Host: gorest.co.in\n1 > Connection: Keep-Alive\n1 > User-Agent: Apache-HttpClient\/4.5.12 (Java\/17.0.4.1)\n1 > Accept-Encoding: gzip,deflate\n\n\n09:18:06.201 response time in milliseconds: 817\n1 < 200\n1 < Date: Sun, 09 Oct 2022 13:18:05 GMT\n1 < Content-Type: application\/json; charset=utf-8\n1 < Transfer-Encoding: chunked\n1 < Connection: keep-alive\n1 < Cache-Control: max-age=0, private, must-revalidate\n1 < etag: W\/\"27b2f335238614a50a137caf13529b30\"\n1 < referrer-policy: strict-origin-when-cross-origin\n1 < vary: Origin\n1 < x-content-type-options: nosniff\n1 < x-download-options: noopen\n1 < x-frame-options: SAMEORIGIN\n1 < x-permitted-cross-domain-policies: none\n1 < x-request-id: adf933fc-784d-4ac9-a6fe-0ff2aad69251\n1 < x-runtime: 0.032116\n1 < x-xss-protection: 0\n1 < CF-Cache-Status: DYNAMIC\n1 < Report-To: {\"endpoints\":[{\"url\":\"https:\\\/\\\/a.nel.cloudflare.com\\\/report\\\/v3?s=winTDWdD3J9mVsjoVIAqylGw0EjceIjRxrdXNufct1Gc5LrxBxBmQPyxT2wzf%2BqkBQmpcVgDm%2BTP00x5BSstInmYxyHeU7C7MIM6f5R%2FoS3xP3K1%2BoCGRdYPrCcTmSc%3D\"}],\"group\":\"cf-nel\",\"max_age\":604800}\n1 < NEL: {\"success_fraction\":0,\"report_to\":\"cf-nel\",\"max_age\":604800}\n1 < Server: cloudflare\n1 < CF-RAY: 75776670f9aeb0c4-ATL\n1 < alt-svc: h3=\":443\"; ma=86400, h3-29=\":443\"; ma=86400\n{\"meta\":{\"pagination\":{\"total\":819,\"pages\":82,\"page\":1,\"limit\":10,\"links\":{\"previous\":null,\"current\":\"https:\/\/gorest.co.in\/public\/v1\/users?page=1\",\"next\":\"https:\/\/gorest.co.in\/public\/v1\/users?page=2\"}}},\"data\":[{\"id\":3159,\"name\":\"Chaitan Varrier\",\"email\":\"varrier_chaitan@rempel-jenkins.name\",\"gender\":\"male\",\"status\":\"active\"},{\"id\":3154,\"name\":\"Himani Somayaji\",\"email\":\"somayaji_himani@terry.org\",\"gender\":\"male\",\"status\":\"active\"},{\"id\":3150,\"name\":\"Agrata Verma\",\"email\":\"agrata_verma@ullrich.net\",\"gender\":\"male\",\"status\":\"active\"},{\"id\":3143,\"name\":\"Lai Khan\",\"email\":\"lai_khan@schinner-mayer.name\",\"gender\":\"male\",\"status\":\"active\"},{\"id\":3142,\"name\":\"Bhima Mahajan\",\"email\":\"bhima_mahajan@homenick.org\",\"gender\":\"male\",\"status\":\"active\"},{\"id\":3135,\"name\":\"Bhadrak Joshi\",\"email\":\"joshi_bhadrak@breitenberg.com\",\"gender\":\"male\",\"status\":\"active\"},{\"id\":3124,\"name\":\"Ms. Bishnu Chaturvedi\",\"email\":\"chaturvedi_ms_bishnu@weimann.name\",\"gender\":\"male\",\"status\":\"active\"},{\"id\":3121,\"name\":\"Anila Naik\",\"email\":\"anila_naik@franecki.biz\",\"gender\":\"male\",\"status\":\"active\"},{\"id\":3114,\"name\":\"Basanti Menon\",\"email\":\"basanti_menon@rempel.co\",\"gender\":\"male\",\"status\":\"active\"},{\"id\":3113,\"name\":\"Miss Udai Marar\",\"email\":\"marar_miss_udai@braun.co\",\"gender\":\"male\",\"status\":\"active\"}]}\n\n"},{"result":{"nanos":85600,"millis":0.0856,"status":"passed"},"step":{"line":9,"prefix":"Then","index":4,"text":"status 200"}},{"result":{"nanos":180978100,"millis":180.9781,"status":"passed"},"step":{"line":10,"prefix":"*","index":5,"text":"print response"},"stepLog":"09:18:06.411 [print] {\n  \"meta\": {\n    \"pagination\": {\n      \"total\": 819,\n      \"pages\": 82,\n      \"page\": 1,\n      \"limit\": 10,\n      \"links\": {\n        \"previous\": null,\n        \"current\": \"https:\/\/gorest.co.in\/public\/v1\/users?page=1\",\n        \"next\": \"https:\/\/gorest.co.in\/public\/v1\/users?page=2\"\n      }\n    }\n  },\n  \"data\": [\n    {\n      \"id\": 3159,\n      \"name\": \"Chaitan Varrier\",\n      \"email\": \"varrier_chaitan@rempel-jenkins.name\",\n      \"gender\": \"male\",\n      \"status\": \"active\"\n    },\n    {\n      \"id\": 3154,\n      \"name\": \"Himani Somayaji\",\n      \"email\": \"somayaji_himani@terry.org\",\n      \"gender\": \"male\",\n      \"status\": \"active\"\n    },\n    {\n      \"id\": 3150,\n      \"name\": \"Agrata Verma\",\n      \"email\": \"agrata_verma@ullrich.net\",\n      \"gender\": \"male\",\n      \"status\": \"active\"\n    },\n    {\n      \"id\": 3143,\n      \"name\": \"Lai Khan\",\n      \"email\": \"lai_khan@schinner-mayer.name\",\n      \"gender\": \"male\",\n      \"status\": \"active\"\n    },\n    {\n      \"id\": 3142,\n      \"name\": \"Bhima Mahajan\",\n      \"email\": \"bhima_mahajan@homenick.org\",\n      \"gender\": \"male\",\n      \"status\": \"active\"\n    },\n    {\n      \"id\": 3135,\n      \"name\": \"Bhadrak Joshi\",\n      \"email\": \"joshi_bhadrak@breitenberg.com\",\n      \"gender\": \"male\",\n      \"status\": \"active\"\n    },\n    {\n      \"id\": 3124,\n      \"name\": \"Ms. Bishnu Chaturvedi\",\n      \"email\": \"chaturvedi_ms_bishnu@weimann.name\",\n      \"gender\": \"male\",\n      \"status\": \"active\"\n    },\n    {\n      \"id\": 3121,\n      \"name\": \"Anila Naik\",\n      \"email\": \"anila_naik@franecki.biz\",\n      \"gender\": \"male\",\n      \"status\": \"active\"\n    },\n    {\n      \"id\": 3114,\n      \"name\": \"Basanti Menon\",\n      \"email\": \"basanti_menon@rempel.co\",\n      \"gender\": \"male\",\n      \"status\": \"active\"\n    },\n    {\n      \"id\": 3113,\n      \"name\": \"Miss Udai Marar\",\n      \"email\": \"marar_miss_udai@braun.co\",\n      \"gender\": \"male\",\n      \"status\": \"active\"\n    }\n  ]\n}\n \n"}],"executorName":"main","line":3,"name":"GET API user detail with query","description":"","durationMillis":1882.4807,"startTime":1665321484499,"failed":false,"refId":"[1:3]","endTime":1665321486413,"exampleIndex":-1},{"sectionIndex":1,"stepResults":[{"result":{"nanos":512700,"millis":0.5127,"status":"passed"},"step":{"line":14,"prefix":"*","index":0,"text":"def query = {status:'active'}"}},{"result":{"nanos":474500,"millis":0.4745,"status":"passed"},"step":{"line":16,"prefix":"Given","index":1,"text":"url 'https:\/\/gorest.co.in\/public\/v1\/users'"}},{"result":{"nanos":236600,"millis":0.2366,"status":"passed"},"step":{"line":17,"prefix":"And","index":2,"text":"params query"}},{"result":{"nanos":991120100,"millis":991.1201,"status":"passed"},"step":{"line":18,"prefix":"When","index":3,"text":"method GET"},"stepLog":"09:18:06.432 request:\n1 > GET https:\/\/gorest.co.in\/public\/v1\/users?status=active\n1 > Host: gorest.co.in\n1 > Connection: Keep-Alive\n1 > User-Agent: Apache-HttpClient\/4.5.12 (Java\/17.0.4.1)\n1 > Accept-Encoding: gzip,deflate\n\n\n09:18:07.414 response time in milliseconds: 978\n1 < 200\n1 < Date: Sun, 09 Oct 2022 13:18:06 GMT\n1 < Content-Type: application\/json; charset=utf-8\n1 < Transfer-Encoding: chunked\n1 < Connection: keep-alive\n1 < Cache-Control: max-age=0, private, must-revalidate\n1 < etag: W\/\"eb47c8c39c133c75bacf4af220cb8c23\"\n1 < referrer-policy: strict-origin-when-cross-origin\n1 < vary: Origin\n1 < x-content-type-options: nosniff\n1 < x-download-options: noopen\n1 < x-frame-options: SAMEORIGIN\n1 < x-permitted-cross-domain-policies: none\n1 < x-request-id: 72fa7e69-e648-4b56-b151-cbd3b22fbc3a\n1 < x-runtime: 0.021807\n1 < x-xss-protection: 0\n1 < CF-Cache-Status: DYNAMIC\n1 < Report-To: {\"endpoints\":[{\"url\":\"https:\\\/\\\/a.nel.cloudflare.com\\\/report\\\/v3?s=s%2BPPPL%2B4ThrjT0OafPRn7P6TPd3PVLyQm4N2E%2BC5ZGUiFlHFjVxfbZG5h0mRAFGZBRkAMwSPU6CVULHoEgrg%2FapBqC1DzzPIbWlV4E0gHj4BjdnhjwthBaAVmQUTEcE%3D\"}],\"group\":\"cf-nel\",\"max_age\":604800}\n1 < NEL: {\"success_fraction\":0,\"report_to\":\"cf-nel\",\"max_age\":604800}\n1 < Server: cloudflare\n1 < CF-RAY: 757766756a1dacf7-ATL\n1 < alt-svc: h3=\":443\"; ma=86400, h3-29=\":443\"; ma=86400\n{\"meta\":{\"pagination\":{\"total\":1601,\"pages\":161,\"page\":1,\"limit\":10,\"links\":{\"previous\":null,\"current\":\"https:\/\/gorest.co.in\/public\/v1\/users?page=1\",\"next\":\"https:\/\/gorest.co.in\/public\/v1\/users?page=2\"}}},\"data\":[{\"id\":3176,\"name\":\"Guru Nehru\",\"email\":\"guru_nehru@daniel-wiegand.net\",\"gender\":\"female\",\"status\":\"active\"},{\"id\":3175,\"name\":\"Paramartha Arora\",\"email\":\"paramartha_arora@haag.info\",\"gender\":\"female\",\"status\":\"active\"},{\"id\":3169,\"name\":\"Nagabhushanam Agarwal\",\"email\":\"nagabhushanam_agarwal@beer.io\",\"gender\":\"female\",\"status\":\"active\"},{\"id\":3162,\"name\":\"Arjun Jain\",\"email\":\"arjun_jain@thompson.info\",\"gender\":\"female\",\"status\":\"active\"},{\"id\":3160,\"name\":\"Devi Dwivedi\",\"email\":\"dwivedi_devi@collins-rippin.org\",\"gender\":\"female\",\"status\":\"active\"},{\"id\":3159,\"name\":\"Chaitan Varrier\",\"email\":\"varrier_chaitan@rempel-jenkins.name\",\"gender\":\"male\",\"status\":\"active\"},{\"id\":3155,\"name\":\"Daevi Rana VM\",\"email\":\"daevi_rana_vm@turcotte.name\",\"gender\":\"female\",\"status\":\"active\"},{\"id\":3154,\"name\":\"Himani Somayaji\",\"email\":\"somayaji_himani@terry.org\",\"gender\":\"male\",\"status\":\"active\"},{\"id\":3153,\"name\":\"Sen. Bhooshit Varman\",\"email\":\"sen_varman_bhooshit@wolff-zulauf.info\",\"gender\":\"female\",\"status\":\"active\"},{\"id\":3151,\"name\":\"Suma Gill\",\"email\":\"gill_suma@cronin.com\",\"gender\":\"female\",\"status\":\"active\"}]}\n\n"},{"result":{"nanos":38400,"millis":0.0384,"status":"passed"},"step":{"line":19,"prefix":"Then","index":4,"text":"status 200"}},{"result":{"nanos":7092800,"millis":7.0928,"status":"passed"},"step":{"line":20,"prefix":"*","index":5,"text":"print response"},"stepLog":"09:18:07.427 [print] {\n  \"meta\": {\n    \"pagination\": {\n      \"total\": 1601,\n      \"pages\": 161,\n      \"page\": 1,\n      \"limit\": 10,\n      \"links\": {\n        \"previous\": null,\n        \"current\": \"https:\/\/gorest.co.in\/public\/v1\/users?page=1\",\n        \"next\": \"https:\/\/gorest.co.in\/public\/v1\/users?page=2\"\n      }\n    }\n  },\n  \"data\": [\n    {\n      \"id\": 3176,\n      \"name\": \"Guru Nehru\",\n      \"email\": \"guru_nehru@daniel-wiegand.net\",\n      \"gender\": \"female\",\n      \"status\": \"active\"\n    },\n    {\n      \"id\": 3175,\n      \"name\": \"Paramartha Arora\",\n      \"email\": \"paramartha_arora@haag.info\",\n      \"gender\": \"female\",\n      \"status\": \"active\"\n    },\n    {\n      \"id\": 3169,\n      \"name\": \"Nagabhushanam Agarwal\",\n      \"email\": \"nagabhushanam_agarwal@beer.io\",\n      \"gender\": \"female\",\n      \"status\": \"active\"\n    },\n    {\n      \"id\": 3162,\n      \"name\": \"Arjun Jain\",\n      \"email\": \"arjun_jain@thompson.info\",\n      \"gender\": \"female\",\n      \"status\": \"active\"\n    },\n    {\n      \"id\": 3160,\n      \"name\": \"Devi Dwivedi\",\n      \"email\": \"dwivedi_devi@collins-rippin.org\",\n      \"gender\": \"female\",\n      \"status\": \"active\"\n    },\n    {\n      \"id\": 3159,\n      \"name\": \"Chaitan Varrier\",\n      \"email\": \"varrier_chaitan@rempel-jenkins.name\",\n      \"gender\": \"male\",\n      \"status\": \"active\"\n    },\n    {\n      \"id\": 3155,\n      \"name\": \"Daevi Rana VM\",\n      \"email\": \"daevi_rana_vm@turcotte.name\",\n      \"gender\": \"female\",\n      \"status\": \"active\"\n    },\n    {\n      \"id\": 3154,\n      \"name\": \"Himani Somayaji\",\n      \"email\": \"somayaji_himani@terry.org\",\n      \"gender\": \"male\",\n      \"status\": \"active\"\n    },\n    {\n      \"id\": 3153,\n      \"name\": \"Sen. Bhooshit Varman\",\n      \"email\": \"sen_varman_bhooshit@wolff-zulauf.info\",\n      \"gender\": \"female\",\n      \"status\": \"active\"\n    },\n    {\n      \"id\": 3151,\n      \"name\": \"Suma Gill\",\n      \"email\": \"gill_suma@cronin.com\",\n      \"gender\": \"female\",\n      \"status\": \"active\"\n    }\n  ]\n}\n \n"},{"result":{"nanos":2107400,"millis":2.1074,"status":"passed"},"step":{"line":21,"prefix":"*","index":6,"text":"def jsonResponse = response"}},{"result":{"nanos":6807600,"millis":6.8076,"status":"passed"},"step":{"line":22,"prefix":"*","index":7,"text":"print jsonResponse"},"stepLog":"09:18:07.437 [print] {\n  \"meta\": {\n    \"pagination\": {\n      \"total\": 1601,\n      \"pages\": 161,\n      \"page\": 1,\n      \"limit\": 10,\n      \"links\": {\n        \"previous\": null,\n        \"current\": \"https:\/\/gorest.co.in\/public\/v1\/users?page=1\",\n        \"next\": \"https:\/\/gorest.co.in\/public\/v1\/users?page=2\"\n      }\n    }\n  },\n  \"data\": [\n    {\n      \"id\": 3176,\n      \"name\": \"Guru Nehru\",\n      \"email\": \"guru_nehru@daniel-wiegand.net\",\n      \"gender\": \"female\",\n      \"status\": \"active\"\n    },\n    {\n      \"id\": 3175,\n      \"name\": \"Paramartha Arora\",\n      \"email\": \"paramartha_arora@haag.info\",\n      \"gender\": \"female\",\n      \"status\": \"active\"\n    },\n    {\n      \"id\": 3169,\n      \"name\": \"Nagabhushanam Agarwal\",\n      \"email\": \"nagabhushanam_agarwal@beer.io\",\n      \"gender\": \"female\",\n      \"status\": \"active\"\n    },\n    {\n      \"id\": 3162,\n      \"name\": \"Arjun Jain\",\n      \"email\": \"arjun_jain@thompson.info\",\n      \"gender\": \"female\",\n      \"status\": \"active\"\n    },\n    {\n      \"id\": 3160,\n      \"name\": \"Devi Dwivedi\",\n      \"email\": \"dwivedi_devi@collins-rippin.org\",\n      \"gender\": \"female\",\n      \"status\": \"active\"\n    },\n    {\n      \"id\": 3159,\n      \"name\": \"Chaitan Varrier\",\n      \"email\": \"varrier_chaitan@rempel-jenkins.name\",\n      \"gender\": \"male\",\n      \"status\": \"active\"\n    },\n    {\n      \"id\": 3155,\n      \"name\": \"Daevi Rana VM\",\n      \"email\": \"daevi_rana_vm@turcotte.name\",\n      \"gender\": \"female\",\n      \"status\": \"active\"\n    },\n    {\n      \"id\": 3154,\n      \"name\": \"Himani Somayaji\",\n      \"email\": \"somayaji_himani@terry.org\",\n      \"gender\": \"male\",\n      \"status\": \"active\"\n    },\n    {\n      \"id\": 3153,\n      \"name\": \"Sen. Bhooshit Varman\",\n      \"email\": \"sen_varman_bhooshit@wolff-zulauf.info\",\n      \"gender\": \"female\",\n      \"status\": \"active\"\n    },\n    {\n      \"id\": 3151,\n      \"name\": \"Suma Gill\",\n      \"email\": \"gill_suma@cronin.com\",\n      \"gender\": \"female\",\n      \"status\": \"active\"\n    }\n  ]\n}\n \n"},{"result":{"nanos":5508800,"millis":5.5088,"status":"passed"},"step":{"line":23,"prefix":"*","index":8,"text":"def actuserCount = jsonResponse.data.length"}},{"result":{"nanos":2878100,"millis":2.8781,"status":"passed"},"step":{"line":24,"prefix":"*","index":9,"text":"print actuserCount"},"stepLog":"09:18:07.446 [print] 10 \n"},{"result":{"nanos":22813000,"millis":22.813,"status":"passed"},"step":{"line":25,"prefix":"*","index":10,"text":"match actuserCount == 10"}}],"executorName":"main","line":13,"name":"GET API user details","description":"","durationMillis":1039.59,"startTime":1665321486428,"failed":false,"refId":"[2:13]","endTime":1665321487470,"exampleIndex":-1}],"callDepth":0,"name":"GET API query with parameters","description":"","resultDate":"2022-10-09 09:18:07 am","durationMillis":2922.0707,"passedCount":2}