{"failedCount":0,"prefixedPath":"src\/test\/java\/Features\/GETapiquery.feature","packageQualifiedName":"src.test.java.Features.GETapiquery","loopIndex":-1,"relativePath":"src\/test\/java\/Features\/GETapiquery.feature","scenarioResults":[{"sectionIndex":0,"stepResults":[{"result":{"nanos":102534700,"millis":102.5347,"status":"passed"},"step":{"line":4,"prefix":"*","index":0,"text":"def query = {status:'active', gender:'male'}"}},{"result":{"nanos":164910800,"millis":164.9108,"status":"passed"},"step":{"line":6,"prefix":"Given","index":1,"text":"url 'https:\/\/gorest.co.in\/public\/v1\/users'"}},{"result":{"nanos":77931700,"millis":77.9317,"status":"passed"},"step":{"line":7,"prefix":"And","index":2,"text":"params query"}},{"result":{"nanos":1997081700,"millis":1997.0817,"status":"passed"},"step":{"line":8,"prefix":"When","index":3,"text":"method GET"},"stepLog":"09:18:33.510 request:\n1 > GET https:\/\/gorest.co.in\/public\/v1\/users?gender=male&status=active\n1 > Host: gorest.co.in\n1 > Connection: Keep-Alive\n1 > User-Agent: Apache-HttpClient\/4.5.12 (Java\/17.0.4.1)\n1 > Accept-Encoding: gzip,deflate\n\n\n09:18:34.930 response time in milliseconds: 1406\n1 < 200\n1 < Date: Sun, 09 Oct 2022 13:18:34 GMT\n1 < Content-Type: application\/json; charset=utf-8\n1 < Transfer-Encoding: chunked\n1 < Connection: keep-alive\n1 < Cache-Control: max-age=0, private, must-revalidate\n1 < etag: W\/\"27b2f335238614a50a137caf13529b30\"\n1 < referrer-policy: strict-origin-when-cross-origin\n1 < vary: Origin\n1 < x-content-type-options: nosniff\n1 < x-download-options: noopen\n1 < x-frame-options: SAMEORIGIN\n1 < x-permitted-cross-domain-policies: none\n1 < x-request-id: 7b8def55-5bab-4b37-9dad-e7cc91d80fce\n1 < x-runtime: 0.019708\n1 < x-xss-protection: 0\n1 < CF-Cache-Status: DYNAMIC\n1 < Report-To: {\"endpoints\":[{\"url\":\"https:\\\/\\\/a.nel.cloudflare.com\\\/report\\\/v3?s=oCXltB9bRWwQyh86JsVG19iLPXFw7QQZG5u5HGpobvo6X2TnPc16S0HGhLJxaUQDniZAaIatVFL9s9ZEgp1J%2B0pLsRxCtHHasRXQ1%2FJiJyU3R3Kn41uhmWspOUu91Gk%3D\"}],\"group\":\"cf-nel\",\"max_age\":604800}\n1 < NEL: {\"success_fraction\":0,\"report_to\":\"cf-nel\",\"max_age\":604800}\n1 < Server: cloudflare\n1 < CF-RAY: 75776720ff55180f-ATL\n1 < alt-svc: h3=\":443\"; ma=86400, h3-29=\":443\"; ma=86400\n{\"meta\":{\"pagination\":{\"total\":819,\"pages\":82,\"page\":1,\"limit\":10,\"links\":{\"previous\":null,\"current\":\"https:\/\/gorest.co.in\/public\/v1\/users?page=1\",\"next\":\"https:\/\/gorest.co.in\/public\/v1\/users?page=2\"}}},\"data\":[{\"id\":3159,\"name\":\"Chaitan Varrier\",\"email\":\"varrier_chaitan@rempel-jenkins.name\",\"gender\":\"male\",\"status\":\"active\"},{\"id\":3154,\"name\":\"Himani Somayaji\",\"email\":\"somayaji_himani@terry.org\",\"gender\":\"male\",\"status\":\"active\"},{\"id\":3150,\"name\":\"Agrata Verma\",\"email\":\"agrata_verma@ullrich.net\",\"gender\":\"male\",\"status\":\"active\"},{\"id\":3143,\"name\":\"Lai Khan\",\"email\":\"lai_khan@schinner-mayer.name\",\"gender\":\"male\",\"status\":\"active\"},{\"id\":3142,\"name\":\"Bhima Mahajan\",\"email\":\"bhima_mahajan@homenick.org\",\"gender\":\"male\",\"status\":\"active\"},{\"id\":3135,\"name\":\"Bhadrak Joshi\",\"email\":\"joshi_bhadrak@breitenberg.com\",\"gender\":\"male\",\"status\":\"active\"},{\"id\":3124,\"name\":\"Ms. Bishnu Chaturvedi\",\"email\":\"chaturvedi_ms_bishnu@weimann.name\",\"gender\":\"male\",\"status\":\"active\"},{\"id\":3121,\"name\":\"Anila Naik\",\"email\":\"anila_naik@franecki.biz\",\"gender\":\"male\",\"status\":\"active\"},{\"id\":3114,\"name\":\"Basanti Menon\",\"email\":\"basanti_menon@rempel.co\",\"gender\":\"male\",\"status\":\"active\"},{\"id\":3113,\"name\":\"Miss Udai Marar\",\"email\":\"marar_miss_udai@braun.co\",\"gender\":\"male\",\"status\":\"active\"}]}\n\n"},{"result":{"nanos":65000,"millis":0.065,"status":"passed"},"step":{"line":9,"prefix":"Then","index":4,"text":"status 200"}},{"result":{"nanos":130147100,"millis":130.1471,"status":"passed"},"step":{"line":10,"prefix":"*","index":5,"text":"print response"},"stepLog":"09:18:35.081 [print] {\n  \"meta\": {\n    \"pagination\": {\n      \"total\": 819,\n      \"pages\": 82,\n      \"page\": 1,\n      \"limit\": 10,\n      \"links\": {\n        \"previous\": null,\n        \"current\": \"https:\/\/gorest.co.in\/public\/v1\/users?page=1\",\n        \"next\": \"https:\/\/gorest.co.in\/public\/v1\/users?page=2\"\n      }\n    }\n  },\n  \"data\": [\n    {\n      \"id\": 3159,\n      \"name\": \"Chaitan Varrier\",\n      \"email\": \"varrier_chaitan@rempel-jenkins.name\",\n      \"gender\": \"male\",\n      \"status\": \"active\"\n    },\n    {\n      \"id\": 3154,\n      \"name\": \"Himani Somayaji\",\n      \"email\": \"somayaji_himani@terry.org\",\n      \"gender\": \"male\",\n      \"status\": \"active\"\n    },\n    {\n      \"id\": 3150,\n      \"name\": \"Agrata Verma\",\n      \"email\": \"agrata_verma@ullrich.net\",\n      \"gender\": \"male\",\n      \"status\": \"active\"\n    },\n    {\n      \"id\": 3143,\n      \"name\": \"Lai Khan\",\n      \"email\": \"lai_khan@schinner-mayer.name\",\n      \"gender\": \"male\",\n      \"status\": \"active\"\n    },\n    {\n      \"id\": 3142,\n      \"name\": \"Bhima Mahajan\",\n      \"email\": \"bhima_mahajan@homenick.org\",\n      \"gender\": \"male\",\n      \"status\": \"active\"\n    },\n    {\n      \"id\": 3135,\n      \"name\": \"Bhadrak Joshi\",\n      \"email\": \"joshi_bhadrak@breitenberg.com\",\n      \"gender\": \"male\",\n      \"status\": \"active\"\n    },\n    {\n      \"id\": 3124,\n      \"name\": \"Ms. Bishnu Chaturvedi\",\n      \"email\": \"chaturvedi_ms_bishnu@weimann.name\",\n      \"gender\": \"male\",\n      \"status\": \"active\"\n    },\n    {\n      \"id\": 3121,\n      \"name\": \"Anila Naik\",\n      \"email\": \"anila_naik@franecki.biz\",\n      \"gender\": \"male\",\n      \"status\": \"active\"\n    },\n    {\n      \"id\": 3114,\n      \"name\": \"Basanti Menon\",\n      \"email\": \"basanti_menon@rempel.co\",\n      \"gender\": \"male\",\n      \"status\": \"active\"\n    },\n    {\n      \"id\": 3113,\n      \"name\": \"Miss Udai Marar\",\n      \"email\": \"marar_miss_udai@braun.co\",\n      \"gender\": \"male\",\n      \"status\": \"active\"\n    }\n  ]\n}\n \n"}],"executorName":"main","line":3,"name":"GET API user detail with query","description":"","durationMillis":2472.671,"startTime":1665321512575,"failed":false,"refId":"[1:3]","endTime":1665321515082,"exampleIndex":-1},{"sectionIndex":1,"stepResults":[{"result":{"nanos":913600,"millis":0.9136,"status":"passed"},"step":{"line":14,"prefix":"*","index":0,"text":"def query = {status:'active'}"}},{"result":{"nanos":1616200,"millis":1.6162,"status":"passed"},"step":{"line":16,"prefix":"Given","index":1,"text":"url 'https:\/\/gorest.co.in\/public\/v1\/users'"}},{"result":{"nanos":405100,"millis":0.4051,"status":"passed"},"step":{"line":17,"prefix":"And","index":2,"text":"params query"}},{"result":{"nanos":961084600,"millis":961.0846,"status":"passed"},"step":{"line":18,"prefix":"When","index":3,"text":"method GET"},"stepLog":"09:18:35.098 request:\n1 > GET https:\/\/gorest.co.in\/public\/v1\/users?status=active\n1 > Host: gorest.co.in\n1 > Connection: Keep-Alive\n1 > User-Agent: Apache-HttpClient\/4.5.12 (Java\/17.0.4.1)\n1 > Accept-Encoding: gzip,deflate\n\n\n09:18:36.051 response time in milliseconds: 951\n1 < 200\n1 < Date: Sun, 09 Oct 2022 13:18:35 GMT\n1 < Content-Type: application\/json; charset=utf-8\n1 < Transfer-Encoding: chunked\n1 < Connection: keep-alive\n1 < Cache-Control: max-age=0, private, must-revalidate\n1 < etag: W\/\"eb47c8c39c133c75bacf4af220cb8c23\"\n1 < referrer-policy: strict-origin-when-cross-origin\n1 < vary: Origin\n1 < x-content-type-options: nosniff\n1 < x-download-options: noopen\n1 < x-frame-options: SAMEORIGIN\n1 < x-permitted-cross-domain-policies: none\n1 < x-request-id: f3fb0839-d74b-4875-bb87-08e452c42769\n1 < x-runtime: 0.026751\n1 < x-xss-protection: 0\n1 < CF-Cache-Status: DYNAMIC\n1 < Report-To: {\"endpoints\":[{\"url\":\"https:\\\/\\\/a.nel.cloudflare.com\\\/report\\\/v3?s=1YfrGWcsuZAB1LOYzlCUFrMhJ84%2FK%2F094F%2FeBIPgqWz4prGEqmL2ZJnBxUJCbM7DcPHEXduQzO78elmHqx0UnZKKyhyAf2sRIV70YycSnJaZvQuqu8OywcW904Wm%2BV0%3D\"}],\"group\":\"cf-nel\",\"max_age\":604800}\n1 < NEL: {\"success_fraction\":0,\"report_to\":\"cf-nel\",\"max_age\":604800}\n1 < Server: cloudflare\n1 < CF-RAY: 75776728ab63f1ca-ATL\n1 < alt-svc: h3=\":443\"; ma=86400, h3-29=\":443\"; ma=86400\n{\"meta\":{\"pagination\":{\"total\":1601,\"pages\":161,\"page\":1,\"limit\":10,\"links\":{\"previous\":null,\"current\":\"https:\/\/gorest.co.in\/public\/v1\/users?page=1\",\"next\":\"https:\/\/gorest.co.in\/public\/v1\/users?page=2\"}}},\"data\":[{\"id\":3176,\"name\":\"Guru Nehru\",\"email\":\"guru_nehru@daniel-wiegand.net\",\"gender\":\"female\",\"status\":\"active\"},{\"id\":3175,\"name\":\"Paramartha Arora\",\"email\":\"paramartha_arora@haag.info\",\"gender\":\"female\",\"status\":\"active\"},{\"id\":3169,\"name\":\"Nagabhushanam Agarwal\",\"email\":\"nagabhushanam_agarwal@beer.io\",\"gender\":\"female\",\"status\":\"active\"},{\"id\":3162,\"name\":\"Arjun Jain\",\"email\":\"arjun_jain@thompson.info\",\"gender\":\"female\",\"status\":\"active\"},{\"id\":3160,\"name\":\"Devi Dwivedi\",\"email\":\"dwivedi_devi@collins-rippin.org\",\"gender\":\"female\",\"status\":\"active\"},{\"id\":3159,\"name\":\"Chaitan Varrier\",\"email\":\"varrier_chaitan@rempel-jenkins.name\",\"gender\":\"male\",\"status\":\"active\"},{\"id\":3155,\"name\":\"Daevi Rana VM\",\"email\":\"daevi_rana_vm@turcotte.name\",\"gender\":\"female\",\"status\":\"active\"},{\"id\":3154,\"name\":\"Himani Somayaji\",\"email\":\"somayaji_himani@terry.org\",\"gender\":\"male\",\"status\":\"active\"},{\"id\":3153,\"name\":\"Sen. Bhooshit Varman\",\"email\":\"sen_varman_bhooshit@wolff-zulauf.info\",\"gender\":\"female\",\"status\":\"active\"},{\"id\":3151,\"name\":\"Suma Gill\",\"email\":\"gill_suma@cronin.com\",\"gender\":\"female\",\"status\":\"active\"}]}\n\n"},{"result":{"nanos":29700,"millis":0.0297,"status":"passed"},"step":{"line":19,"prefix":"Then","index":4,"text":"status 200"}},{"result":{"nanos":5391700,"millis":5.3917,"status":"passed"},"step":{"line":20,"prefix":"*","index":5,"text":"print response"},"stepLog":"09:18:36.063 [print] {\n  \"meta\": {\n    \"pagination\": {\n      \"total\": 1601,\n      \"pages\": 161,\n      \"page\": 1,\n      \"limit\": 10,\n      \"links\": {\n        \"previous\": null,\n        \"current\": \"https:\/\/gorest.co.in\/public\/v1\/users?page=1\",\n        \"next\": \"https:\/\/gorest.co.in\/public\/v1\/users?page=2\"\n      }\n    }\n  },\n  \"data\": [\n    {\n      \"id\": 3176,\n      \"name\": \"Guru Nehru\",\n      \"email\": \"guru_nehru@daniel-wiegand.net\",\n      \"gender\": \"female\",\n      \"status\": \"active\"\n    },\n    {\n      \"id\": 3175,\n      \"name\": \"Paramartha Arora\",\n      \"email\": \"paramartha_arora@haag.info\",\n      \"gender\": \"female\",\n      \"status\": \"active\"\n    },\n    {\n      \"id\": 3169,\n      \"name\": \"Nagabhushanam Agarwal\",\n      \"email\": \"nagabhushanam_agarwal@beer.io\",\n      \"gender\": \"female\",\n      \"status\": \"active\"\n    },\n    {\n      \"id\": 3162,\n      \"name\": \"Arjun Jain\",\n      \"email\": \"arjun_jain@thompson.info\",\n      \"gender\": \"female\",\n      \"status\": \"active\"\n    },\n    {\n      \"id\": 3160,\n      \"name\": \"Devi Dwivedi\",\n      \"email\": \"dwivedi_devi@collins-rippin.org\",\n      \"gender\": \"female\",\n      \"status\": \"active\"\n    },\n    {\n      \"id\": 3159,\n      \"name\": \"Chaitan Varrier\",\n      \"email\": \"varrier_chaitan@rempel-jenkins.name\",\n      \"gender\": \"male\",\n      \"status\": \"active\"\n    },\n    {\n      \"id\": 3155,\n      \"name\": \"Daevi Rana VM\",\n      \"email\": \"daevi_rana_vm@turcotte.name\",\n      \"gender\": \"female\",\n      \"status\": \"active\"\n    },\n    {\n      \"id\": 3154,\n      \"name\": \"Himani Somayaji\",\n      \"email\": \"somayaji_himani@terry.org\",\n      \"gender\": \"male\",\n      \"status\": \"active\"\n    },\n    {\n      \"id\": 3153,\n      \"name\": \"Sen. Bhooshit Varman\",\n      \"email\": \"sen_varman_bhooshit@wolff-zulauf.info\",\n      \"gender\": \"female\",\n      \"status\": \"active\"\n    },\n    {\n      \"id\": 3151,\n      \"name\": \"Suma Gill\",\n      \"email\": \"gill_suma@cronin.com\",\n      \"gender\": \"female\",\n      \"status\": \"active\"\n    }\n  ]\n}\n \n"},{"result":{"nanos":1200600,"millis":1.2006,"status":"passed"},"step":{"line":21,"prefix":"*","index":6,"text":"def jsonResponse = response"}},{"result":{"nanos":5664300,"millis":5.6643,"status":"passed"},"step":{"line":22,"prefix":"*","index":7,"text":"print jsonResponse"},"stepLog":"09:18:36.070 [print] {\n  \"meta\": {\n    \"pagination\": {\n      \"total\": 1601,\n      \"pages\": 161,\n      \"page\": 1,\n      \"limit\": 10,\n      \"links\": {\n        \"previous\": null,\n        \"current\": \"https:\/\/gorest.co.in\/public\/v1\/users?page=1\",\n        \"next\": \"https:\/\/gorest.co.in\/public\/v1\/users?page=2\"\n      }\n    }\n  },\n  \"data\": [\n    {\n      \"id\": 3176,\n      \"name\": \"Guru Nehru\",\n      \"email\": \"guru_nehru@daniel-wiegand.net\",\n      \"gender\": \"female\",\n      \"status\": \"active\"\n    },\n    {\n      \"id\": 3175,\n      \"name\": \"Paramartha Arora\",\n      \"email\": \"paramartha_arora@haag.info\",\n      \"gender\": \"female\",\n      \"status\": \"active\"\n    },\n    {\n      \"id\": 3169,\n      \"name\": \"Nagabhushanam Agarwal\",\n      \"email\": \"nagabhushanam_agarwal@beer.io\",\n      \"gender\": \"female\",\n      \"status\": \"active\"\n    },\n    {\n      \"id\": 3162,\n      \"name\": \"Arjun Jain\",\n      \"email\": \"arjun_jain@thompson.info\",\n      \"gender\": \"female\",\n      \"status\": \"active\"\n    },\n    {\n      \"id\": 3160,\n      \"name\": \"Devi Dwivedi\",\n      \"email\": \"dwivedi_devi@collins-rippin.org\",\n      \"gender\": \"female\",\n      \"status\": \"active\"\n    },\n    {\n      \"id\": 3159,\n      \"name\": \"Chaitan Varrier\",\n      \"email\": \"varrier_chaitan@rempel-jenkins.name\",\n      \"gender\": \"male\",\n      \"status\": \"active\"\n    },\n    {\n      \"id\": 3155,\n      \"name\": \"Daevi Rana VM\",\n      \"email\": \"daevi_rana_vm@turcotte.name\",\n      \"gender\": \"female\",\n      \"status\": \"active\"\n    },\n    {\n      \"id\": 3154,\n      \"name\": \"Himani Somayaji\",\n      \"email\": \"somayaji_himani@terry.org\",\n      \"gender\": \"male\",\n      \"status\": \"active\"\n    },\n    {\n      \"id\": 3153,\n      \"name\": \"Sen. Bhooshit Varman\",\n      \"email\": \"sen_varman_bhooshit@wolff-zulauf.info\",\n      \"gender\": \"female\",\n      \"status\": \"active\"\n    },\n    {\n      \"id\": 3151,\n      \"name\": \"Suma Gill\",\n      \"email\": \"gill_suma@cronin.com\",\n      \"gender\": \"female\",\n      \"status\": \"active\"\n    }\n  ]\n}\n \n"},{"result":{"nanos":4398300,"millis":4.3983,"status":"passed"},"step":{"line":23,"prefix":"*","index":8,"text":"def actuserCount = jsonResponse.data.length"}},{"result":{"nanos":4022700,"millis":4.0227,"status":"passed"},"step":{"line":24,"prefix":"*","index":9,"text":"print actuserCount"},"stepLog":"09:18:36.079 [print] 10 \n"},{"result":{"nanos":24505300,"millis":24.5053,"status":"passed"},"step":{"line":25,"prefix":"*","index":10,"text":"match actuserCount == 10"}}],"executorName":"main","line":13,"name":"GET API user details","description":"","durationMillis":1009.2321,"startTime":1665321515092,"failed":false,"refId":"[2:13]","endTime":1665321516104,"exampleIndex":-1}],"callDepth":0,"name":"GET API query with parameters","description":"","resultDate":"2022-10-09 09:18:36 am","durationMillis":3481.9031,"passedCount":2}