{"failedCount":1,"prefixedPath":"src\/test\/java\/Features\/GETapiquery.feature","packageQualifiedName":"src.test.java.Features.GETapiquery","loopIndex":-1,"relativePath":"src\/test\/java\/Features\/GETapiquery.feature","scenarioResults":[{"sectionIndex":0,"stepResults":[{"result":{"nanos":92718400,"millis":92.7184,"status":"passed"},"step":{"line":4,"prefix":"*","index":0,"text":"def query = {status: 'active', gender:'male'}"}},{"result":{"nanos":141281600,"millis":141.2816,"status":"passed"},"step":{"line":5,"prefix":"Given","index":1,"text":"url 'https:\/\/gorest.co.in\/public\/v1\/users'"}},{"result":{"nanos":1988921800,"millis":1988.9218,"status":"passed"},"step":{"line":6,"prefix":"When","index":2,"text":"method GET"},"stepLog":"10:10:51.987 request:\n1 > GET https:\/\/gorest.co.in\/public\/v1\/users\n1 > Host: gorest.co.in\n1 > Connection: Keep-Alive\n1 > User-Agent: Apache-HttpClient\/4.5.12 (Java\/17.0.4.1)\n1 > Accept-Encoding: gzip,deflate\n\n\n10:10:53.481 response time in milliseconds: 1484\n1 < 200\n1 < Date: Mon, 10 Oct 2022 14:10:52 GMT\n1 < Content-Type: application\/json; charset=utf-8\n1 < Transfer-Encoding: chunked\n1 < Connection: keep-alive\n1 < Cache-Control: max-age=0, private, must-revalidate\n1 < etag: W\/\"1f34606f10237bf20132077818a47912\"\n1 < referrer-policy: strict-origin-when-cross-origin\n1 < vary: Origin\n1 < x-content-type-options: nosniff\n1 < x-download-options: noopen\n1 < x-frame-options: SAMEORIGIN\n1 < x-permitted-cross-domain-policies: none\n1 < x-request-id: df9fb5f7-1f82-4c28-a7de-ab13429f57c0\n1 < x-runtime: 0.032770\n1 < x-xss-protection: 0\n1 < CF-Cache-Status: DYNAMIC\n1 < Report-To: {\"endpoints\":[{\"url\":\"https:\\\/\\\/a.nel.cloudflare.com\\\/report\\\/v3?s=8rrV7BJOQQEOdykKmlHBBHnULbmN6%2BLKJjeByzGQYjfjBgb1bcIe7p7pzWRbdMUuYv0uawVTLGIczINC6AEE5%2Fg9x3%2B34EWZB5KeEoiZGNui4QN%2BBSV9ab4rqdGqrDs%3D\"}],\"group\":\"cf-nel\",\"max_age\":604800}\n1 < NEL: {\"success_fraction\":0,\"report_to\":\"cf-nel\",\"max_age\":604800}\n1 < Server: cloudflare\n1 < CF-RAY: 757ff11f1e0ef319-ATL\n1 < alt-svc: h3=\":443\"; ma=86400, h3-29=\":443\"; ma=86400\n{\"meta\":{\"pagination\":{\"total\":2299,\"pages\":230,\"page\":1,\"limit\":10,\"links\":{\"previous\":null,\"current\":\"https:\/\/gorest.co.in\/public\/v1\/users?page=1\",\"next\":\"https:\/\/gorest.co.in\/public\/v1\/users?page=2\"}}},\"data\":[{\"id\":2355,\"name\":\"Dhanapati Kocchar\",\"email\":\"kocchar_dhanapati@hahn.name\",\"gender\":\"male\",\"status\":\"active\"},{\"id\":2354,\"name\":\"Ankal Tandon\",\"email\":\"ankal_tandon@ferry.io\",\"gender\":\"male\",\"status\":\"inactive\"},{\"id\":2353,\"name\":\"Buddhana Tandon\",\"email\":\"tandon_buddhana@larson-rice.name\",\"gender\":\"female\",\"status\":\"inactive\"},{\"id\":2352,\"name\":\"Trilochan Somayaji\",\"email\":\"trilochan_somayaji@sauer-predovic.info\",\"gender\":\"female\",\"status\":\"inactive\"},{\"id\":2351,\"name\":\"Mr. Amaresh Adiga\",\"email\":\"adiga_amaresh_mr@strosin-larson.name\",\"gender\":\"male\",\"status\":\"active\"},{\"id\":2350,\"name\":\"Vijay Kaur\",\"email\":\"kaur_vijay@prohaska-zieme.co\",\"gender\":\"male\",\"status\":\"active\"},{\"id\":2344,\"name\":\"Gopaal Marar CPA\",\"email\":\"marar_cpa_gopaal@gulgowski.co\",\"gender\":\"male\",\"status\":\"inactive\"},{\"id\":2343,\"name\":\"Chinmayanand Shah DVM\",\"email\":\"shah_chinmayanand_dvm@hoeger-bosco.io\",\"gender\":\"male\",\"status\":\"active\"},{\"id\":2342,\"name\":\"Purnima Johar Sr.\",\"email\":\"purnima_johar_sr@schiller.io\",\"gender\":\"female\",\"status\":\"active\"},{\"id\":2341,\"name\":\"Devika Bhattacharya DVM\",\"email\":\"dvm_devika_bhattacharya@hickle.info\",\"gender\":\"female\",\"status\":\"inactive\"}]}\n\n"},{"result":{"nanos":42800,"millis":0.0428,"status":"passed"},"step":{"line":7,"prefix":"Then","index":3,"text":"status 200"}},{"result":{"nanos":141892200,"millis":141.8922,"status":"passed"},"step":{"line":8,"prefix":"*","index":4,"text":"print response"},"stepLog":"10:10:53.632 [print] {\n  \"meta\": {\n    \"pagination\": {\n      \"total\": 2299,\n      \"pages\": 230,\n      \"page\": 1,\n      \"limit\": 10,\n      \"links\": {\n        \"previous\": null,\n        \"current\": \"https:\/\/gorest.co.in\/public\/v1\/users?page=1\",\n        \"next\": \"https:\/\/gorest.co.in\/public\/v1\/users?page=2\"\n      }\n    }\n  },\n  \"data\": [\n    {\n      \"id\": 2355,\n      \"name\": \"Dhanapati Kocchar\",\n      \"email\": \"kocchar_dhanapati@hahn.name\",\n      \"gender\": \"male\",\n      \"status\": \"active\"\n    },\n    {\n      \"id\": 2354,\n      \"name\": \"Ankal Tandon\",\n      \"email\": \"ankal_tandon@ferry.io\",\n      \"gender\": \"male\",\n      \"status\": \"inactive\"\n    },\n    {\n      \"id\": 2353,\n      \"name\": \"Buddhana Tandon\",\n      \"email\": \"tandon_buddhana@larson-rice.name\",\n      \"gender\": \"female\",\n      \"status\": \"inactive\"\n    },\n    {\n      \"id\": 2352,\n      \"name\": \"Trilochan Somayaji\",\n      \"email\": \"trilochan_somayaji@sauer-predovic.info\",\n      \"gender\": \"female\",\n      \"status\": \"inactive\"\n    },\n    {\n      \"id\": 2351,\n      \"name\": \"Mr. Amaresh Adiga\",\n      \"email\": \"adiga_amaresh_mr@strosin-larson.name\",\n      \"gender\": \"male\",\n      \"status\": \"active\"\n    },\n    {\n      \"id\": 2350,\n      \"name\": \"Vijay Kaur\",\n      \"email\": \"kaur_vijay@prohaska-zieme.co\",\n      \"gender\": \"male\",\n      \"status\": \"active\"\n    },\n    {\n      \"id\": 2344,\n      \"name\": \"Gopaal Marar CPA\",\n      \"email\": \"marar_cpa_gopaal@gulgowski.co\",\n      \"gender\": \"male\",\n      \"status\": \"inactive\"\n    },\n    {\n      \"id\": 2343,\n      \"name\": \"Chinmayanand Shah DVM\",\n      \"email\": \"shah_chinmayanand_dvm@hoeger-bosco.io\",\n      \"gender\": \"male\",\n      \"status\": \"active\"\n    },\n    {\n      \"id\": 2342,\n      \"name\": \"Purnima Johar Sr.\",\n      \"email\": \"purnima_johar_sr@schiller.io\",\n      \"gender\": \"female\",\n      \"status\": \"active\"\n    },\n    {\n      \"id\": 2341,\n      \"name\": \"Devika Bhattacharya DVM\",\n      \"email\": \"dvm_devika_bhattacharya@hickle.info\",\n      \"gender\": \"female\",\n      \"status\": \"inactive\"\n    }\n  ]\n}\n \n"}],"executorName":"main","line":3,"name":"GET API with query parameters","description":"","durationMillis":2364.8568,"startTime":1665411051243,"failed":false,"refId":"[1:3]","endTime":1665411053636,"exampleIndex":-1},{"sectionIndex":1,"stepResults":[{"result":{"nanos":0,"errorMessage":"no step-definition method match found for: def query {status:'active'}\nsrc\/test\/java\/Features\/GETapiquery.feature:12","millis":0.0,"status":"failed"},"step":{"line":12,"prefix":"*","index":0,"text":"def query {status:'active'}"},"stepLog":"10:10:53.649 src\/test\/java\/Features\/GETapiquery.feature:12\n* def query {status:'active'}\nno step-definition method match found for: def query {status:'active'}\nsrc\/test\/java\/Features\/GETapiquery.feature:12\n"},{"result":{"nanos":0,"millis":0.0,"status":"skipped"},"step":{"line":13,"prefix":"Given","index":1,"text":"url 'https:\/\/gorest.co.in\/public\/v1\/users'"}},{"result":{"nanos":0,"millis":0.0,"status":"skipped"},"step":{"line":14,"prefix":"And","index":2,"text":"params query"}},{"result":{"nanos":0,"millis":0.0,"status":"skipped"},"step":{"line":15,"prefix":"When","index":3,"text":"method GET"}},{"result":{"nanos":0,"millis":0.0,"status":"skipped"},"step":{"line":16,"prefix":"Then","index":4,"text":"status 200"}},{"result":{"nanos":0,"millis":0.0,"status":"skipped"},"step":{"line":17,"prefix":"*","index":5,"text":"print response"}},{"result":{"nanos":0,"millis":0.0,"status":"skipped"},"step":{"line":18,"prefix":"*","index":6,"text":"def jsonResponse = response"}},{"result":{"nanos":0,"millis":0.0,"status":"skipped"},"step":{"line":19,"prefix":"*","index":7,"text":"print jsonResponse"}},{"result":{"nanos":0,"millis":0.0,"status":"skipped"},"step":{"line":20,"prefix":"*","index":8,"text":"def actuserCount = jsonResponse.data.userCount"}},{"result":{"nanos":0,"millis":0.0,"status":"skipped"},"step":{"line":21,"prefix":"*","index":9,"text":"print userCount"}}],"line":11,"description":"","durationMillis":0.0,"failed":true,"error":"no step-definition method match found for: def query {status:'active'}\nsrc\/test\/java\/Features\/GETapiquery.feature:12","executorName":"main","name":"GET API with query","startTime":1665411053646,"refId":"[2:11]","endTime":1665411053650,"exampleIndex":-1}],"callDepth":0,"name":"GET API with parameters","description":"","resultDate":"2022-10-10 10:10:53 am","durationMillis":2364.8568,"passedCount":1}