{"failedCount":1,"prefixedPath":"src\/test\/java\/Features\/GETapiquery.feature","packageQualifiedName":"src.test.java.Features.GETapiquery","loopIndex":-1,"relativePath":"src\/test\/java\/Features\/GETapiquery.feature","scenarioResults":[{"sectionIndex":0,"stepResults":[{"result":{"nanos":86118800,"millis":86.1188,"status":"passed"},"step":{"line":4,"prefix":"*","index":0,"text":"def query = {status:'active', gender: 'male'}"}},{"result":{"nanos":176249100,"millis":176.2491,"status":"passed"},"step":{"line":5,"prefix":"Given","index":1,"text":"url 'https:\/\/gorest.co.in\/public\/v1\/users'"}},{"result":{"nanos":45100500,"millis":45.1005,"status":"passed"},"step":{"line":6,"prefix":"And","index":2,"text":"params query"}},{"result":{"nanos":2069146100,"millis":2069.1461,"status":"passed"},"step":{"line":7,"prefix":"When","index":3,"text":"method GET"},"stepLog":"19:23:09.042 request:\n1 > GET https:\/\/gorest.co.in\/public\/v1\/users?gender=male&status=active\n1 > Host: gorest.co.in\n1 > Connection: Keep-Alive\n1 > User-Agent: Apache-HttpClient\/4.5.12 (Java\/17.0.4.1)\n1 > Accept-Encoding: gzip,deflate\n\n\n19:23:10.447 response time in milliseconds: 1395\n1 < 200\n1 < Date: Sun, 09 Oct 2022 23:23:10 GMT\n1 < Content-Type: application\/json; charset=utf-8\n1 < Transfer-Encoding: chunked\n1 < Connection: keep-alive\n1 < Cache-Control: max-age=0, private, must-revalidate\n1 < etag: W\/\"9ef17259aa8dae9fef29f79a7d40ef5a\"\n1 < referrer-policy: strict-origin-when-cross-origin\n1 < vary: Origin\n1 < x-content-type-options: nosniff\n1 < x-download-options: noopen\n1 < x-frame-options: SAMEORIGIN\n1 < x-permitted-cross-domain-policies: none\n1 < x-request-id: e1acaabd-48da-47c1-af41-fb9249b0a5a0\n1 < x-runtime: 0.024784\n1 < x-xss-protection: 0\n1 < CF-Cache-Status: DYNAMIC\n1 < Report-To: {\"endpoints\":[{\"url\":\"https:\\\/\\\/a.nel.cloudflare.com\\\/report\\\/v3?s=975V3oZvDs4Sr41gGkqv8PCCFyinaCTwn2g7fYLDudUX4rjvwFb1sEN9o6CmKAaAThOkNWobrvQKBcBL%2FoTcerplaTfFdA2z43LgTgNntNgsAEqwDrWLMyNsRf5pHzk%3D\"}],\"group\":\"cf-nel\",\"max_age\":604800}\n1 < NEL: {\"success_fraction\":0,\"report_to\":\"cf-nel\",\"max_age\":604800}\n1 < Server: cloudflare\n1 < CF-RAY: 757adccb2d25ad9b-ATL\n1 < alt-svc: h3=\":443\"; ma=86400, h3-29=\":443\"; ma=86400\n{\"meta\":{\"pagination\":{\"total\":618,\"pages\":62,\"page\":1,\"limit\":10,\"links\":{\"previous\":null,\"current\":\"https:\/\/gorest.co.in\/public\/v1\/users?page=1\",\"next\":\"https:\/\/gorest.co.in\/public\/v1\/users?page=2\"}}},\"data\":[{\"id\":2419,\"name\":\"Subhasini Bandopadhyay\",\"email\":\"subhasini_bandopadhyay@schamberger.com\",\"gender\":\"male\",\"status\":\"active\"},{\"id\":2413,\"name\":\"Mrs. Balagovind Deshpande\",\"email\":\"mrs_balagovind_deshpande@larkin.co\",\"gender\":\"male\",\"status\":\"active\"},{\"id\":2409,\"name\":\"Prasad Panicker\",\"email\":\"panicker_prasad@williamson-barrows.co\",\"gender\":\"male\",\"status\":\"active\"},{\"id\":2405,\"name\":\"Gov. Aadidev Agarwal\",\"email\":\"aadidev_gov_agarwal@purdy-hartmann.io\",\"gender\":\"male\",\"status\":\"active\"},{\"id\":2404,\"name\":\"Chidambaram Agarwal\",\"email\":\"chidambaram_agarwal@stracke.io\",\"gender\":\"male\",\"status\":\"active\"},{\"id\":2403,\"name\":\"Bahula Ahuja\",\"email\":\"bahula_ahuja@hills.net\",\"gender\":\"male\",\"status\":\"active\"},{\"id\":2389,\"name\":\"Adinath Saini\",\"email\":\"adinath_saini@keeling.info\",\"gender\":\"male\",\"status\":\"active\"},{\"id\":2387,\"name\":\"Tanushree Butt\",\"email\":\"butt_tanushree@osinski-stracke.info\",\"gender\":\"male\",\"status\":\"active\"},{\"id\":2386,\"name\":\"Devani Kaur Esq.\",\"email\":\"devani_kaur_esq@gerlach.co\",\"gender\":\"male\",\"status\":\"active\"},{\"id\":2380,\"name\":\"Swara Sinha\",\"email\":\"sinha_swara@morar.co\",\"gender\":\"male\",\"status\":\"active\"}]}\n\n"},{"result":{"nanos":36700,"millis":0.0367,"status":"passed"},"step":{"line":8,"prefix":"Then","index":4,"text":"status 200"}},{"result":{"nanos":144130200,"millis":144.1302,"status":"passed"},"step":{"line":9,"prefix":"*","index":5,"text":"print response"},"stepLog":"19:23:10.613 [print] {\n  \"meta\": {\n    \"pagination\": {\n      \"total\": 618,\n      \"pages\": 62,\n      \"page\": 1,\n      \"limit\": 10,\n      \"links\": {\n        \"previous\": null,\n        \"current\": \"https:\/\/gorest.co.in\/public\/v1\/users?page=1\",\n        \"next\": \"https:\/\/gorest.co.in\/public\/v1\/users?page=2\"\n      }\n    }\n  },\n  \"data\": [\n    {\n      \"id\": 2419,\n      \"name\": \"Subhasini Bandopadhyay\",\n      \"email\": \"subhasini_bandopadhyay@schamberger.com\",\n      \"gender\": \"male\",\n      \"status\": \"active\"\n    },\n    {\n      \"id\": 2413,\n      \"name\": \"Mrs. Balagovind Deshpande\",\n      \"email\": \"mrs_balagovind_deshpande@larkin.co\",\n      \"gender\": \"male\",\n      \"status\": \"active\"\n    },\n    {\n      \"id\": 2409,\n      \"name\": \"Prasad Panicker\",\n      \"email\": \"panicker_prasad@williamson-barrows.co\",\n      \"gender\": \"male\",\n      \"status\": \"active\"\n    },\n    {\n      \"id\": 2405,\n      \"name\": \"Gov. Aadidev Agarwal\",\n      \"email\": \"aadidev_gov_agarwal@purdy-hartmann.io\",\n      \"gender\": \"male\",\n      \"status\": \"active\"\n    },\n    {\n      \"id\": 2404,\n      \"name\": \"Chidambaram Agarwal\",\n      \"email\": \"chidambaram_agarwal@stracke.io\",\n      \"gender\": \"male\",\n      \"status\": \"active\"\n    },\n    {\n      \"id\": 2403,\n      \"name\": \"Bahula Ahuja\",\n      \"email\": \"bahula_ahuja@hills.net\",\n      \"gender\": \"male\",\n      \"status\": \"active\"\n    },\n    {\n      \"id\": 2389,\n      \"name\": \"Adinath Saini\",\n      \"email\": \"adinath_saini@keeling.info\",\n      \"gender\": \"male\",\n      \"status\": \"active\"\n    },\n    {\n      \"id\": 2387,\n      \"name\": \"Tanushree Butt\",\n      \"email\": \"butt_tanushree@osinski-stracke.info\",\n      \"gender\": \"male\",\n      \"status\": \"active\"\n    },\n    {\n      \"id\": 2386,\n      \"name\": \"Devani Kaur Esq.\",\n      \"email\": \"devani_kaur_esq@gerlach.co\",\n      \"gender\": \"male\",\n      \"status\": \"active\"\n    },\n    {\n      \"id\": 2380,\n      \"name\": \"Swara Sinha\",\n      \"email\": \"sinha_swara@morar.co\",\n      \"gender\": \"male\",\n      \"status\": \"active\"\n    }\n  ]\n}\n \n"}],"executorName":"main","line":3,"name":"GET API with query params","description":"","durationMillis":2520.7814,"startTime":1665357788072,"failed":false,"refId":"[1:3]","endTime":1665357790618,"exampleIndex":-1},{"sectionIndex":1,"stepResults":[{"result":{"nanos":678200,"millis":0.6782,"status":"passed"},"step":{"line":12,"prefix":"*","index":0,"text":"def query = {status: 'actve'}"}},{"result":{"nanos":758700,"millis":0.7587,"status":"passed"},"step":{"line":13,"prefix":"Given","index":1,"text":"url 'https:\/\/gorest.co.in\/public\/v1\/users'"}},{"result":{"nanos":342100,"millis":0.3421,"status":"passed"},"step":{"line":14,"prefix":"And","index":2,"text":"params query"}},{"result":{"nanos":965269200,"millis":965.2692,"status":"passed"},"step":{"line":15,"prefix":"When","index":3,"text":"method GET"},"stepLog":"19:23:10.647 request:\n1 > GET https:\/\/gorest.co.in\/public\/v1\/users?status=actve\n1 > Host: gorest.co.in\n1 > Connection: Keep-Alive\n1 > User-Agent: Apache-HttpClient\/4.5.12 (Java\/17.0.4.1)\n1 > Accept-Encoding: gzip,deflate\n\n\n19:23:11.602 response time in milliseconds: 953\n1 < 200\n1 < Date: Sun, 09 Oct 2022 23:23:12 GMT\n1 < Content-Type: application\/json; charset=utf-8\n1 < Transfer-Encoding: chunked\n1 < Connection: keep-alive\n1 < Cache-Control: max-age=0, private, must-revalidate\n1 < etag: W\/\"7d0fad3944b5884d753950e7824069d3\"\n1 < referrer-policy: strict-origin-when-cross-origin\n1 < vary: Origin\n1 < x-content-type-options: nosniff\n1 < x-download-options: noopen\n1 < x-frame-options: SAMEORIGIN\n1 < x-permitted-cross-domain-policies: none\n1 < x-request-id: a73808f8-d11f-4851-b62d-bcd74cb25dc7\n1 < x-runtime: 0.014236\n1 < x-xss-protection: 0\n1 < CF-Cache-Status: DYNAMIC\n1 < Report-To: {\"endpoints\":[{\"url\":\"https:\\\/\\\/a.nel.cloudflare.com\\\/report\\\/v3?s=xLu6uTmXOeIA%2BQ3137VL0CpUpyy6a6hwKoaoJeM3By4lL0AUJppvvf%2FewpDaFuXE9LSdxCyOxrHYaOEUz1gfJQkCA9dXXXs4WzqulzGW84h36Q9HCsWW11vC5wfdpqQ%3D\"}],\"group\":\"cf-nel\",\"max_age\":604800}\n1 < NEL: {\"success_fraction\":0,\"report_to\":\"cf-nel\",\"max_age\":604800}\n1 < Server: cloudflare\n1 < CF-RAY: 757adcd2cd6aadaa-ATL\n1 < alt-svc: h3=\":443\"; ma=86400, h3-29=\":443\"; ma=86400\n{\"meta\":{\"pagination\":{\"total\":0,\"pages\":0,\"page\":1,\"limit\":10,\"links\":{\"previous\":null,\"current\":null,\"next\":null}}},\"data\":[]}\n\n"},{"result":{"nanos":44800,"millis":0.0448,"status":"passed"},"step":{"line":16,"prefix":"Then","index":4,"text":"status 200"}},{"result":{"nanos":2733800,"millis":2.7338,"status":"passed"},"step":{"line":17,"prefix":"*","index":5,"text":"print response"},"stepLog":"19:23:11.612 [print] {\n  \"meta\": {\n    \"pagination\": {\n      \"total\": 0,\n      \"pages\": 0,\n      \"page\": 1,\n      \"limit\": 10,\n      \"links\": {\n        \"previous\": null,\n        \"current\": null,\n        \"next\": null\n      }\n    }\n  },\n  \"data\": [\n  ]\n}\n \n"},{"result":{"nanos":2267400,"millis":2.2674,"status":"passed"},"step":{"line":18,"prefix":"*","index":6,"text":"def jsonResponse = response"}},{"result":{"nanos":5180000,"millis":5.18,"status":"passed"},"step":{"line":19,"prefix":"*","index":7,"text":"print jsonResponse"},"stepLog":"19:23:11.620 [print] {\n  \"meta\": {\n    \"pagination\": {\n      \"total\": 0,\n      \"pages\": 0,\n      \"page\": 1,\n      \"limit\": 10,\n      \"links\": {\n        \"previous\": null,\n        \"current\": null,\n        \"next\": null\n      }\n    }\n  },\n  \"data\": [\n  ]\n}\n \n"},{"result":{"nanos":5961900,"millis":5.9619,"status":"passed"},"step":{"line":20,"prefix":"*","index":8,"text":"def actuserCount = jsonResponse.data.length"}},{"result":{"nanos":3584600,"millis":3.5846,"status":"passed"},"step":{"line":21,"prefix":"*","index":9,"text":"print actuserCount"},"stepLog":"19:23:11.630 [print] 0 \n"},{"result":{"nanos":32715500,"errorMessage":"js failed:\n>>>>\n01: userCount\n<<<<\norg.graalvm.polyglot.PolyglotException: ReferenceError: \"userCount\" is not defined\n- <js>.:program(Unnamed:1)\n\nsrc\/test\/java\/Features\/GETapiquery.feature:22","millis":32.7155,"status":"failed"},"step":{"line":22,"prefix":"*","index":10,"text":"match userCount == 10"},"stepLog":"19:23:11.664 src\/test\/java\/Features\/GETapiquery.feature:22\n* match userCount == 10\njs failed:\n>>>>\n01: userCount\n<<<<\norg.graalvm.polyglot.PolyglotException: ReferenceError: \"userCount\" is not defined\n- <js>.:program(Unnamed:1)\n\nsrc\/test\/java\/Features\/GETapiquery.feature:22\n"}],"line":11,"description":"","durationMillis":1019.5362,"failed":true,"error":"js failed:\n>>>>\n01: userCount\n<<<<\norg.graalvm.polyglot.PolyglotException: ReferenceError: \"userCount\" is not defined\n- <js>.:program(Unnamed:1)\n\nsrc\/test\/java\/Features\/GETapiquery.feature:22","executorName":"main","name":"GET API with user query","startTime":1665357790641,"refId":"[2:11]","endTime":1665357791664,"exampleIndex":-1}],"callDepth":0,"name":"GET API with query parametrs","description":"","resultDate":"2022-10-09 07:23:11 pm","durationMillis":3540.3176,"passedCount":1}