{"failedCount":0,"prefixedPath":"src\/test\/java\/Features\/GETapiquery.feature","packageQualifiedName":"src.test.java.Features.GETapiquery","loopIndex":-1,"relativePath":"src\/test\/java\/Features\/GETapiquery.feature","scenarioResults":[{"sectionIndex":0,"stepResults":[{"result":{"nanos":93517600,"millis":93.5176,"status":"passed"},"step":{"line":4,"prefix":"*","index":0,"text":"def query = {status: 'active', gender:'male'}"}},{"result":{"nanos":141916700,"millis":141.9167,"status":"passed"},"step":{"line":5,"prefix":"Given","index":1,"text":"url 'https:\/\/gorest.co.in\/public\/v1\/users'"}},{"result":{"nanos":2199455400,"millis":2199.4554,"status":"passed"},"step":{"line":6,"prefix":"When","index":2,"text":"method GET"},"stepLog":"10:24:35.356 request:\n1 > GET https:\/\/gorest.co.in\/public\/v1\/users\n1 > Host: gorest.co.in\n1 > Connection: Keep-Alive\n1 > User-Agent: Apache-HttpClient\/4.5.12 (Java\/17.0.4.1)\n1 > Accept-Encoding: gzip,deflate\n\n\n10:24:37.007 response time in milliseconds: 1644\n1 < 200\n1 < Date: Mon, 10 Oct 2022 14:24:35 GMT\n1 < Content-Type: application\/json; charset=utf-8\n1 < Transfer-Encoding: chunked\n1 < Connection: keep-alive\n1 < Cache-Control: max-age=0, private, must-revalidate\n1 < etag: W\/\"4834b42355495cc80c7070fbc1cf2e32\"\n1 < referrer-policy: strict-origin-when-cross-origin\n1 < vary: Origin\n1 < x-content-type-options: nosniff\n1 < x-download-options: noopen\n1 < x-frame-options: SAMEORIGIN\n1 < x-permitted-cross-domain-policies: none\n1 < x-request-id: 5ee11235-ecda-4d28-ad99-0990f4aa518b\n1 < x-runtime: 0.021904\n1 < x-xss-protection: 0\n1 < CF-Cache-Status: DYNAMIC\n1 < Report-To: {\"endpoints\":[{\"url\":\"https:\\\/\\\/a.nel.cloudflare.com\\\/report\\\/v3?s=ewFMNfxXC%2BFcHZJIGRiKKgsuF083NjtAVTiwA3kbdJBOrazoMX%2F5C%2FDguENnqIRgmkNbamBH1QiqPGgPo%2FlmZqXlqEVuhAquyw%2FdZ9MMzD5SWQjcrjQ0X%2FdipplUASE%3D\"}],\"group\":\"cf-nel\",\"max_age\":604800}\n1 < NEL: {\"success_fraction\":0,\"report_to\":\"cf-nel\",\"max_age\":604800}\n1 < Server: cloudflare\n1 < CF-RAY: 7580053a3d9fad83-ATL\n1 < alt-svc: h3=\":443\"; ma=86400, h3-29=\":443\"; ma=86400\n{\"meta\":{\"pagination\":{\"total\":2296,\"pages\":230,\"page\":1,\"limit\":10,\"links\":{\"previous\":null,\"current\":\"https:\/\/gorest.co.in\/public\/v1\/users?page=1\",\"next\":\"https:\/\/gorest.co.in\/public\/v1\/users?page=2\"}}},\"data\":[{\"id\":2354,\"name\":\"Ankal Tandon\",\"email\":\"ankal_tandon@ferry.io\",\"gender\":\"male\",\"status\":\"inactive\"},{\"id\":2353,\"name\":\"Buddhana Tandon\",\"email\":\"tandon_buddhana@larson-rice.name\",\"gender\":\"female\",\"status\":\"inactive\"},{\"id\":2352,\"name\":\"Trilochan Somayaji\",\"email\":\"trilochan_somayaji@sauer-predovic.info\",\"gender\":\"female\",\"status\":\"inactive\"},{\"id\":2351,\"name\":\"Mr. Amaresh Adiga\",\"email\":\"adiga_amaresh_mr@strosin-larson.name\",\"gender\":\"male\",\"status\":\"active\"},{\"id\":2350,\"name\":\"Vijay Kaur\",\"email\":\"kaur_vijay@prohaska-zieme.co\",\"gender\":\"male\",\"status\":\"active\"},{\"id\":2344,\"name\":\"Gopaal Marar CPA\",\"email\":\"marar_cpa_gopaal@gulgowski.co\",\"gender\":\"male\",\"status\":\"inactive\"},{\"id\":2343,\"name\":\"Chinmayanand Shah DVM\",\"email\":\"shah_chinmayanand_dvm@hoeger-bosco.io\",\"gender\":\"male\",\"status\":\"active\"},{\"id\":2342,\"name\":\"Purnima Johar Sr.\",\"email\":\"purnima_johar_sr@schiller.io\",\"gender\":\"female\",\"status\":\"active\"},{\"id\":2341,\"name\":\"Devika Bhattacharya DVM\",\"email\":\"dvm_devika_bhattacharya@hickle.info\",\"gender\":\"female\",\"status\":\"inactive\"},{\"id\":2340,\"name\":\"Amrita Kaul\",\"email\":\"amrita_kaul@reichel.co\",\"gender\":\"male\",\"status\":\"inactive\"}]}\n\n"},{"result":{"nanos":41400,"millis":0.0414,"status":"passed"},"step":{"line":7,"prefix":"Then","index":3,"text":"status 200"}},{"result":{"nanos":144378000,"millis":144.378,"status":"passed"},"step":{"line":8,"prefix":"*","index":4,"text":"print response"},"stepLog":"10:24:37.167 [print] {\n  \"meta\": {\n    \"pagination\": {\n      \"total\": 2296,\n      \"pages\": 230,\n      \"page\": 1,\n      \"limit\": 10,\n      \"links\": {\n        \"previous\": null,\n        \"current\": \"https:\/\/gorest.co.in\/public\/v1\/users?page=1\",\n        \"next\": \"https:\/\/gorest.co.in\/public\/v1\/users?page=2\"\n      }\n    }\n  },\n  \"data\": [\n    {\n      \"id\": 2354,\n      \"name\": \"Ankal Tandon\",\n      \"email\": \"ankal_tandon@ferry.io\",\n      \"gender\": \"male\",\n      \"status\": \"inactive\"\n    },\n    {\n      \"id\": 2353,\n      \"name\": \"Buddhana Tandon\",\n      \"email\": \"tandon_buddhana@larson-rice.name\",\n      \"gender\": \"female\",\n      \"status\": \"inactive\"\n    },\n    {\n      \"id\": 2352,\n      \"name\": \"Trilochan Somayaji\",\n      \"email\": \"trilochan_somayaji@sauer-predovic.info\",\n      \"gender\": \"female\",\n      \"status\": \"inactive\"\n    },\n    {\n      \"id\": 2351,\n      \"name\": \"Mr. Amaresh Adiga\",\n      \"email\": \"adiga_amaresh_mr@strosin-larson.name\",\n      \"gender\": \"male\",\n      \"status\": \"active\"\n    },\n    {\n      \"id\": 2350,\n      \"name\": \"Vijay Kaur\",\n      \"email\": \"kaur_vijay@prohaska-zieme.co\",\n      \"gender\": \"male\",\n      \"status\": \"active\"\n    },\n    {\n      \"id\": 2344,\n      \"name\": \"Gopaal Marar CPA\",\n      \"email\": \"marar_cpa_gopaal@gulgowski.co\",\n      \"gender\": \"male\",\n      \"status\": \"inactive\"\n    },\n    {\n      \"id\": 2343,\n      \"name\": \"Chinmayanand Shah DVM\",\n      \"email\": \"shah_chinmayanand_dvm@hoeger-bosco.io\",\n      \"gender\": \"male\",\n      \"status\": \"active\"\n    },\n    {\n      \"id\": 2342,\n      \"name\": \"Purnima Johar Sr.\",\n      \"email\": \"purnima_johar_sr@schiller.io\",\n      \"gender\": \"female\",\n      \"status\": \"active\"\n    },\n    {\n      \"id\": 2341,\n      \"name\": \"Devika Bhattacharya DVM\",\n      \"email\": \"dvm_devika_bhattacharya@hickle.info\",\n      \"gender\": \"female\",\n      \"status\": \"inactive\"\n    },\n    {\n      \"id\": 2340,\n      \"name\": \"Amrita Kaul\",\n      \"email\": \"amrita_kaul@reichel.co\",\n      \"gender\": \"male\",\n      \"status\": \"inactive\"\n    }\n  ]\n}\n \n"}],"executorName":"main","line":3,"name":"GET API with query parameters","description":"","durationMillis":2579.3091,"startTime":1665411874564,"failed":false,"refId":"[1:3]","endTime":1665411877170,"exampleIndex":-1},{"sectionIndex":1,"stepResults":[{"result":{"nanos":2030500,"millis":2.0305,"status":"passed"},"step":{"line":12,"prefix":"*","index":0,"text":"def query = {status:'active'}"}},{"result":{"nanos":1262400,"millis":1.2624,"status":"passed"},"step":{"line":13,"prefix":"Given","index":1,"text":"url 'https:\/\/gorest.co.in\/public\/v1\/users'"}},{"result":{"nanos":17334700,"millis":17.3347,"status":"passed"},"step":{"line":14,"prefix":"And","index":2,"text":"params query"}},{"result":{"nanos":965149600,"millis":965.1496,"status":"passed"},"step":{"line":15,"prefix":"When","index":3,"text":"method GET"},"stepLog":"10:24:37.211 request:\n1 > GET https:\/\/gorest.co.in\/public\/v1\/users?status=active\n1 > Host: gorest.co.in\n1 > Connection: Keep-Alive\n1 > User-Agent: Apache-HttpClient\/4.5.12 (Java\/17.0.4.1)\n1 > Accept-Encoding: gzip,deflate\n\n\n10:24:38.166 response time in milliseconds: 954\n1 < 200\n1 < Date: Mon, 10 Oct 2022 14:24:37 GMT\n1 < Content-Type: application\/json; charset=utf-8\n1 < Transfer-Encoding: chunked\n1 < Connection: keep-alive\n1 < Cache-Control: max-age=0, private, must-revalidate\n1 < etag: W\/\"349a5c4cf05df0113de1a4a6ff861945\"\n1 < referrer-policy: strict-origin-when-cross-origin\n1 < vary: Origin\n1 < x-content-type-options: nosniff\n1 < x-download-options: noopen\n1 < x-frame-options: SAMEORIGIN\n1 < x-permitted-cross-domain-policies: none\n1 < x-request-id: aca867d9-f1c9-41ef-b66c-bd05b4db69a9\n1 < x-runtime: 0.017688\n1 < x-xss-protection: 0\n1 < CF-Cache-Status: DYNAMIC\n1 < Report-To: {\"endpoints\":[{\"url\":\"https:\\\/\\\/a.nel.cloudflare.com\\\/report\\\/v3?s=ZMVKXz1O5ewpHvGzMxnM0LV1Lk%2Fg3FsMQevph7CUHgn0jUtUQshanDks0sQgZHiZgca9oNQcaLzXwxq8wb4ub%2F0VrMnTe5AQRpjhOm6wSHbR7MP8R1piDjXtAFl1abs%3D\"}],\"group\":\"cf-nel\",\"max_age\":604800}\n1 < NEL: {\"success_fraction\":0,\"report_to\":\"cf-nel\",\"max_age\":604800}\n1 < Server: cloudflare\n1 < CF-RAY: 75800541ff3db0fa-ATL\n1 < alt-svc: h3=\":443\"; ma=86400, h3-29=\":443\"; ma=86400\n{\"meta\":{\"pagination\":{\"total\":1151,\"pages\":116,\"page\":1,\"limit\":10,\"links\":{\"previous\":null,\"current\":\"https:\/\/gorest.co.in\/public\/v1\/users?page=1\",\"next\":\"https:\/\/gorest.co.in\/public\/v1\/users?page=2\"}}},\"data\":[{\"id\":2351,\"name\":\"Mr. Amaresh Adiga\",\"email\":\"adiga_amaresh_mr@strosin-larson.name\",\"gender\":\"male\",\"status\":\"active\"},{\"id\":2350,\"name\":\"Vijay Kaur\",\"email\":\"kaur_vijay@prohaska-zieme.co\",\"gender\":\"male\",\"status\":\"active\"},{\"id\":2343,\"name\":\"Chinmayanand Shah DVM\",\"email\":\"shah_chinmayanand_dvm@hoeger-bosco.io\",\"gender\":\"male\",\"status\":\"active\"},{\"id\":2342,\"name\":\"Purnima Johar Sr.\",\"email\":\"purnima_johar_sr@schiller.io\",\"gender\":\"female\",\"status\":\"active\"},{\"id\":2339,\"name\":\"Laxmi Tagore VM\",\"email\":\"vm_laxmi_tagore@harris-collins.co\",\"gender\":\"female\",\"status\":\"active\"},{\"id\":2338,\"name\":\"Meghnath Chopra\",\"email\":\"chopra_meghnath@schneider-yundt.org\",\"gender\":\"male\",\"status\":\"active\"},{\"id\":2332,\"name\":\"Geeta Deshpande\",\"email\":\"geeta_deshpande@koch-pfannerstill.io\",\"gender\":\"female\",\"status\":\"active\"},{\"id\":2330,\"name\":\"Mrs. Agneya Achari\",\"email\":\"achari_mrs_agneya@ward.net\",\"gender\":\"male\",\"status\":\"active\"},{\"id\":2325,\"name\":\"Chandramauli Verma\",\"email\":\"chandramauli_verma@erdman-aufderhar.name\",\"gender\":\"male\",\"status\":\"active\"},{\"id\":2324,\"name\":\"Dhanapati Embranthiri\",\"email\":\"embranthiri_dhanapati@fisher-stokes.name\",\"gender\":\"male\",\"status\":\"active\"}]}\n\n"},{"result":{"nanos":43800,"millis":0.0438,"status":"passed"},"step":{"line":16,"prefix":"Then","index":4,"text":"status 200"}},{"result":{"nanos":7633000,"millis":7.633,"status":"passed"},"step":{"line":17,"prefix":"*","index":5,"text":"print response"},"stepLog":"10:24:38.181 [print] {\n  \"meta\": {\n    \"pagination\": {\n      \"total\": 1151,\n      \"pages\": 116,\n      \"page\": 1,\n      \"limit\": 10,\n      \"links\": {\n        \"previous\": null,\n        \"current\": \"https:\/\/gorest.co.in\/public\/v1\/users?page=1\",\n        \"next\": \"https:\/\/gorest.co.in\/public\/v1\/users?page=2\"\n      }\n    }\n  },\n  \"data\": [\n    {\n      \"id\": 2351,\n      \"name\": \"Mr. Amaresh Adiga\",\n      \"email\": \"adiga_amaresh_mr@strosin-larson.name\",\n      \"gender\": \"male\",\n      \"status\": \"active\"\n    },\n    {\n      \"id\": 2350,\n      \"name\": \"Vijay Kaur\",\n      \"email\": \"kaur_vijay@prohaska-zieme.co\",\n      \"gender\": \"male\",\n      \"status\": \"active\"\n    },\n    {\n      \"id\": 2343,\n      \"name\": \"Chinmayanand Shah DVM\",\n      \"email\": \"shah_chinmayanand_dvm@hoeger-bosco.io\",\n      \"gender\": \"male\",\n      \"status\": \"active\"\n    },\n    {\n      \"id\": 2342,\n      \"name\": \"Purnima Johar Sr.\",\n      \"email\": \"purnima_johar_sr@schiller.io\",\n      \"gender\": \"female\",\n      \"status\": \"active\"\n    },\n    {\n      \"id\": 2339,\n      \"name\": \"Laxmi Tagore VM\",\n      \"email\": \"vm_laxmi_tagore@harris-collins.co\",\n      \"gender\": \"female\",\n      \"status\": \"active\"\n    },\n    {\n      \"id\": 2338,\n      \"name\": \"Meghnath Chopra\",\n      \"email\": \"chopra_meghnath@schneider-yundt.org\",\n      \"gender\": \"male\",\n      \"status\": \"active\"\n    },\n    {\n      \"id\": 2332,\n      \"name\": \"Geeta Deshpande\",\n      \"email\": \"geeta_deshpande@koch-pfannerstill.io\",\n      \"gender\": \"female\",\n      \"status\": \"active\"\n    },\n    {\n      \"id\": 2330,\n      \"name\": \"Mrs. Agneya Achari\",\n      \"email\": \"achari_mrs_agneya@ward.net\",\n      \"gender\": \"male\",\n      \"status\": \"active\"\n    },\n    {\n      \"id\": 2325,\n      \"name\": \"Chandramauli Verma\",\n      \"email\": \"chandramauli_verma@erdman-aufderhar.name\",\n      \"gender\": \"male\",\n      \"status\": \"active\"\n    },\n    {\n      \"id\": 2324,\n      \"name\": \"Dhanapati Embranthiri\",\n      \"email\": \"embranthiri_dhanapati@fisher-stokes.name\",\n      \"gender\": \"male\",\n      \"status\": \"active\"\n    }\n  ]\n}\n \n"},{"result":{"nanos":2086600,"millis":2.0866,"status":"passed"},"step":{"line":18,"prefix":"*","index":6,"text":"def jsonResponse = response"}},{"result":{"nanos":5885900,"millis":5.8859,"status":"passed"},"step":{"line":19,"prefix":"*","index":7,"text":"print jsonResponse"},"stepLog":"10:24:38.190 [print] {\n  \"meta\": {\n    \"pagination\": {\n      \"total\": 1151,\n      \"pages\": 116,\n      \"page\": 1,\n      \"limit\": 10,\n      \"links\": {\n        \"previous\": null,\n        \"current\": \"https:\/\/gorest.co.in\/public\/v1\/users?page=1\",\n        \"next\": \"https:\/\/gorest.co.in\/public\/v1\/users?page=2\"\n      }\n    }\n  },\n  \"data\": [\n    {\n      \"id\": 2351,\n      \"name\": \"Mr. Amaresh Adiga\",\n      \"email\": \"adiga_amaresh_mr@strosin-larson.name\",\n      \"gender\": \"male\",\n      \"status\": \"active\"\n    },\n    {\n      \"id\": 2350,\n      \"name\": \"Vijay Kaur\",\n      \"email\": \"kaur_vijay@prohaska-zieme.co\",\n      \"gender\": \"male\",\n      \"status\": \"active\"\n    },\n    {\n      \"id\": 2343,\n      \"name\": \"Chinmayanand Shah DVM\",\n      \"email\": \"shah_chinmayanand_dvm@hoeger-bosco.io\",\n      \"gender\": \"male\",\n      \"status\": \"active\"\n    },\n    {\n      \"id\": 2342,\n      \"name\": \"Purnima Johar Sr.\",\n      \"email\": \"purnima_johar_sr@schiller.io\",\n      \"gender\": \"female\",\n      \"status\": \"active\"\n    },\n    {\n      \"id\": 2339,\n      \"name\": \"Laxmi Tagore VM\",\n      \"email\": \"vm_laxmi_tagore@harris-collins.co\",\n      \"gender\": \"female\",\n      \"status\": \"active\"\n    },\n    {\n      \"id\": 2338,\n      \"name\": \"Meghnath Chopra\",\n      \"email\": \"chopra_meghnath@schneider-yundt.org\",\n      \"gender\": \"male\",\n      \"status\": \"active\"\n    },\n    {\n      \"id\": 2332,\n      \"name\": \"Geeta Deshpande\",\n      \"email\": \"geeta_deshpande@koch-pfannerstill.io\",\n      \"gender\": \"female\",\n      \"status\": \"active\"\n    },\n    {\n      \"id\": 2330,\n      \"name\": \"Mrs. Agneya Achari\",\n      \"email\": \"achari_mrs_agneya@ward.net\",\n      \"gender\": \"male\",\n      \"status\": \"active\"\n    },\n    {\n      \"id\": 2325,\n      \"name\": \"Chandramauli Verma\",\n      \"email\": \"chandramauli_verma@erdman-aufderhar.name\",\n      \"gender\": \"male\",\n      \"status\": \"active\"\n    },\n    {\n      \"id\": 2324,\n      \"name\": \"Dhanapati Embranthiri\",\n      \"email\": \"embranthiri_dhanapati@fisher-stokes.name\",\n      \"gender\": \"male\",\n      \"status\": \"active\"\n    }\n  ]\n}\n \n"},{"result":{"nanos":15653900,"millis":15.6539,"status":"passed"},"step":{"line":20,"prefix":"*","index":8,"text":"def actuserCount = jsonResponse.data.userCount"}},{"result":{"nanos":2757000,"millis":2.757,"status":"passed"},"step":{"line":21,"prefix":"*","index":9,"text":"print actuserCount"},"stepLog":"10:24:38.208 [print] null \n"}],"executorName":"main","line":11,"name":"GET API with query","description":"","durationMillis":1019.8374,"startTime":1665411877186,"failed":false,"refId":"[2:11]","endTime":1665411878209,"exampleIndex":-1}],"callDepth":0,"name":"GET API with parameters","description":"","resultDate":"2022-10-10 10:24:38 am","durationMillis":3599.1465,"passedCount":2}