{"failedCount":0,"prefixedPath":"src\/test\/java\/Features\/GETapiquery.feature","packageQualifiedName":"src.test.java.Features.GETapiquery","loopIndex":-1,"relativePath":"src\/test\/java\/Features\/GETapiquery.feature","scenarioResults":[{"sectionIndex":0,"stepResults":[{"result":{"nanos":74103700,"millis":74.1037,"status":"passed"},"step":{"line":4,"prefix":"*","index":0,"text":"def query = {status:'active'}"}},{"result":{"nanos":147191400,"millis":147.1914,"status":"passed"},"step":{"line":6,"prefix":"Given","index":1,"text":"url 'https:\/\/gorest.co.in\/public\/v1\/users'"}},{"result":{"nanos":41448100,"millis":41.4481,"status":"passed"},"step":{"line":7,"prefix":"And","index":2,"text":"params query"}},{"result":{"nanos":1402181200,"millis":1402.1812,"status":"passed"},"step":{"line":8,"prefix":"When","index":3,"text":"method GET"},"stepLog":"22:38:09.085 request:\n1 > GET https:\/\/gorest.co.in\/public\/v1\/users?status=active\n1 > Host: gorest.co.in\n1 > Connection: Keep-Alive\n1 > User-Agent: Apache-HttpClient\/4.5.12 (Java\/17.0.4.1)\n1 > Accept-Encoding: gzip,deflate\n\n\n22:38:09.928 response time in milliseconds: 821\n1 < 200\n1 < Date: Sat, 08 Oct 2022 02:38:07 GMT\n1 < Content-Type: application\/json; charset=utf-8\n1 < Transfer-Encoding: chunked\n1 < Connection: keep-alive\n1 < Cache-Control: max-age=0, private, must-revalidate\n1 < etag: W\/\"b54935287b12c6c83982c6db33a976c7\"\n1 < referrer-policy: strict-origin-when-cross-origin\n1 < vary: Origin\n1 < x-content-type-options: nosniff\n1 < x-download-options: noopen\n1 < x-frame-options: SAMEORIGIN\n1 < x-permitted-cross-domain-policies: none\n1 < x-request-id: 410b2419-958a-4751-bb68-182aa8ff337d\n1 < x-runtime: 0.038201\n1 < x-xss-protection: 0\n1 < CF-Cache-Status: DYNAMIC\n1 < Report-To: {\"endpoints\":[{\"url\":\"https:\\\/\\\/a.nel.cloudflare.com\\\/report\\\/v3?s=Pd6hTru9vhmrGpPYEyzA1kroL9nSzhL551IwOdTIkuuGYsYNPpOZ0nZjQHx10qJiYsuX2QRHoVMEjZFEzHMNJkHaoalodo3%2B8HMeB1YhpStC1FAGL1Q3M8xWk3c3UHI%3D\"}],\"group\":\"cf-nel\",\"max_age\":604800}\n1 < NEL: {\"success_fraction\":0,\"report_to\":\"cf-nel\",\"max_age\":604800}\n1 < Server: cloudflare\n1 < CF-RAY: 756b7fa18a65ad7d-ATL\n1 < alt-svc: h3=\":443\"; ma=86400, h3-29=\":443\"; ma=86400\n{\"meta\":{\"pagination\":{\"total\":1711,\"pages\":172,\"page\":1,\"limit\":10,\"links\":{\"previous\":null,\"current\":\"https:\/\/gorest.co.in\/public\/v1\/users?page=1\",\"next\":\"https:\/\/gorest.co.in\/public\/v1\/users?page=2\"}}},\"data\":[{\"id\":3442,\"name\":\"Rev. Devika Pilla\",\"email\":\"rev_devika_pilla@simonis-walsh.biz\",\"gender\":\"male\",\"status\":\"active\"},{\"id\":3438,\"name\":\"Chandramauli Johar\",\"email\":\"chandramauli_johar@beatty-graham.info\",\"gender\":\"female\",\"status\":\"active\"},{\"id\":3436,\"name\":\"Chandra Khanna\",\"email\":\"khanna_chandra@kilback.name\",\"gender\":\"female\",\"status\":\"active\"},{\"id\":3435,\"name\":\"Kumuda Tandon DVM\",\"email\":\"tandon_kumuda_dvm@williamson.co\",\"gender\":\"male\",\"status\":\"active\"},{\"id\":3433,\"name\":\"Bhagwanti Devar\",\"email\":\"devar_bhagwanti@hyatt-goodwin.info\",\"gender\":\"male\",\"status\":\"active\"},{\"id\":3432,\"name\":\"Dwaipayan Nambeesan V\",\"email\":\"dwaipayan_nambeesan_v@cummings-kertzmann.biz\",\"gender\":\"male\",\"status\":\"active\"},{\"id\":3431,\"name\":\"Sukanya Mahajan\",\"email\":\"sukanya_mahajan@yost.com\",\"gender\":\"male\",\"status\":\"active\"},{\"id\":3428,\"name\":\"Param Nair DVM\",\"email\":\"dvm_param_nair@wiza-vonrueden.org\",\"gender\":\"female\",\"status\":\"active\"},{\"id\":3427,\"name\":\"Dayaananda Dhawan\",\"email\":\"dhawan_dayaananda@schaden-rolfson.co\",\"gender\":\"male\",\"status\":\"active\"},{\"id\":3426,\"name\":\"Pres. Ramesh Mukhopadhyay\",\"email\":\"ramesh_pres_mukhopadhyay@ohara-zemlak.biz\",\"gender\":\"male\",\"status\":\"active\"}]}\n\n"},{"result":{"nanos":61300,"millis":0.0613,"status":"passed"},"step":{"line":9,"prefix":"Then","index":4,"text":"status 200"}},{"result":{"nanos":156844400,"millis":156.8444,"status":"passed"},"step":{"line":10,"prefix":"*","index":5,"text":"print response"},"stepLog":"22:38:10.105 [print] {\n  \"meta\": {\n    \"pagination\": {\n      \"total\": 1711,\n      \"pages\": 172,\n      \"page\": 1,\n      \"limit\": 10,\n      \"links\": {\n        \"previous\": null,\n        \"current\": \"https:\/\/gorest.co.in\/public\/v1\/users?page=1\",\n        \"next\": \"https:\/\/gorest.co.in\/public\/v1\/users?page=2\"\n      }\n    }\n  },\n  \"data\": [\n    {\n      \"id\": 3442,\n      \"name\": \"Rev. Devika Pilla\",\n      \"email\": \"rev_devika_pilla@simonis-walsh.biz\",\n      \"gender\": \"male\",\n      \"status\": \"active\"\n    },\n    {\n      \"id\": 3438,\n      \"name\": \"Chandramauli Johar\",\n      \"email\": \"chandramauli_johar@beatty-graham.info\",\n      \"gender\": \"female\",\n      \"status\": \"active\"\n    },\n    {\n      \"id\": 3436,\n      \"name\": \"Chandra Khanna\",\n      \"email\": \"khanna_chandra@kilback.name\",\n      \"gender\": \"female\",\n      \"status\": \"active\"\n    },\n    {\n      \"id\": 3435,\n      \"name\": \"Kumuda Tandon DVM\",\n      \"email\": \"tandon_kumuda_dvm@williamson.co\",\n      \"gender\": \"male\",\n      \"status\": \"active\"\n    },\n    {\n      \"id\": 3433,\n      \"name\": \"Bhagwanti Devar\",\n      \"email\": \"devar_bhagwanti@hyatt-goodwin.info\",\n      \"gender\": \"male\",\n      \"status\": \"active\"\n    },\n    {\n      \"id\": 3432,\n      \"name\": \"Dwaipayan Nambeesan V\",\n      \"email\": \"dwaipayan_nambeesan_v@cummings-kertzmann.biz\",\n      \"gender\": \"male\",\n      \"status\": \"active\"\n    },\n    {\n      \"id\": 3431,\n      \"name\": \"Sukanya Mahajan\",\n      \"email\": \"sukanya_mahajan@yost.com\",\n      \"gender\": \"male\",\n      \"status\": \"active\"\n    },\n    {\n      \"id\": 3428,\n      \"name\": \"Param Nair DVM\",\n      \"email\": \"dvm_param_nair@wiza-vonrueden.org\",\n      \"gender\": \"female\",\n      \"status\": \"active\"\n    },\n    {\n      \"id\": 3427,\n      \"name\": \"Dayaananda Dhawan\",\n      \"email\": \"dhawan_dayaananda@schaden-rolfson.co\",\n      \"gender\": \"male\",\n      \"status\": \"active\"\n    },\n    {\n      \"id\": 3426,\n      \"name\": \"Pres. Ramesh Mukhopadhyay\",\n      \"email\": \"ramesh_pres_mukhopadhyay@ohara-zemlak.biz\",\n      \"gender\": \"male\",\n      \"status\": \"active\"\n    }\n  ]\n}\n \n"},{"result":{"nanos":610700,"millis":0.6107,"status":"passed"},"step":{"line":11,"prefix":"*","index":6,"text":"def jsonResponse = response"}},{"result":{"nanos":3753500,"millis":3.7535,"status":"passed"},"step":{"line":12,"prefix":"*","index":7,"text":"print response"},"stepLog":"22:38:10.111 [print] {\n  \"meta\": {\n    \"pagination\": {\n      \"total\": 1711,\n      \"pages\": 172,\n      \"page\": 1,\n      \"limit\": 10,\n      \"links\": {\n        \"previous\": null,\n        \"current\": \"https:\/\/gorest.co.in\/public\/v1\/users?page=1\",\n        \"next\": \"https:\/\/gorest.co.in\/public\/v1\/users?page=2\"\n      }\n    }\n  },\n  \"data\": [\n    {\n      \"id\": 3442,\n      \"name\": \"Rev. Devika Pilla\",\n      \"email\": \"rev_devika_pilla@simonis-walsh.biz\",\n      \"gender\": \"male\",\n      \"status\": \"active\"\n    },\n    {\n      \"id\": 3438,\n      \"name\": \"Chandramauli Johar\",\n      \"email\": \"chandramauli_johar@beatty-graham.info\",\n      \"gender\": \"female\",\n      \"status\": \"active\"\n    },\n    {\n      \"id\": 3436,\n      \"name\": \"Chandra Khanna\",\n      \"email\": \"khanna_chandra@kilback.name\",\n      \"gender\": \"female\",\n      \"status\": \"active\"\n    },\n    {\n      \"id\": 3435,\n      \"name\": \"Kumuda Tandon DVM\",\n      \"email\": \"tandon_kumuda_dvm@williamson.co\",\n      \"gender\": \"male\",\n      \"status\": \"active\"\n    },\n    {\n      \"id\": 3433,\n      \"name\": \"Bhagwanti Devar\",\n      \"email\": \"devar_bhagwanti@hyatt-goodwin.info\",\n      \"gender\": \"male\",\n      \"status\": \"active\"\n    },\n    {\n      \"id\": 3432,\n      \"name\": \"Dwaipayan Nambeesan V\",\n      \"email\": \"dwaipayan_nambeesan_v@cummings-kertzmann.biz\",\n      \"gender\": \"male\",\n      \"status\": \"active\"\n    },\n    {\n      \"id\": 3431,\n      \"name\": \"Sukanya Mahajan\",\n      \"email\": \"sukanya_mahajan@yost.com\",\n      \"gender\": \"male\",\n      \"status\": \"active\"\n    },\n    {\n      \"id\": 3428,\n      \"name\": \"Param Nair DVM\",\n      \"email\": \"dvm_param_nair@wiza-vonrueden.org\",\n      \"gender\": \"female\",\n      \"status\": \"active\"\n    },\n    {\n      \"id\": 3427,\n      \"name\": \"Dayaananda Dhawan\",\n      \"email\": \"dhawan_dayaananda@schaden-rolfson.co\",\n      \"gender\": \"male\",\n      \"status\": \"active\"\n    },\n    {\n      \"id\": 3426,\n      \"name\": \"Pres. Ramesh Mukhopadhyay\",\n      \"email\": \"ramesh_pres_mukhopadhyay@ohara-zemlak.biz\",\n      \"gender\": \"male\",\n      \"status\": \"active\"\n    }\n  ]\n}\n \n"}],"executorName":"main","line":3,"name":"get all active user with qury","description":"","durationMillis":1826.1943,"startTime":1665196688259,"failed":false,"refId":"[1:3]","endTime":1665196690111,"exampleIndex":-1},{"sectionIndex":1,"stepResults":[{"result":{"nanos":1366600,"millis":1.3666,"status":"passed"},"step":{"line":16,"prefix":"*","index":0,"text":"def query = {status:'active'}"}},{"result":{"nanos":2102200,"millis":2.1022,"status":"passed"},"step":{"line":18,"prefix":"Given","index":1,"text":"url 'https:\/\/gorest.co.in\/public\/v1\/users'"}},{"result":{"nanos":323800,"millis":0.3238,"status":"passed"},"step":{"line":19,"prefix":"And","index":2,"text":"params query"}},{"result":{"nanos":425215600,"millis":425.2156,"status":"passed"},"step":{"line":20,"prefix":"When","index":3,"text":"method GET"},"stepLog":"22:38:10.132 request:\n1 > GET https:\/\/gorest.co.in\/public\/v1\/users?status=active\n1 > Host: gorest.co.in\n1 > Connection: Keep-Alive\n1 > User-Agent: Apache-HttpClient\/4.5.12 (Java\/17.0.4.1)\n1 > Accept-Encoding: gzip,deflate\n\n\n22:38:10.545 response time in milliseconds: 412\n1 < 200\n1 < Date: Sat, 08 Oct 2022 02:38:08 GMT\n1 < Content-Type: application\/json; charset=utf-8\n1 < Transfer-Encoding: chunked\n1 < Connection: keep-alive\n1 < Cache-Control: max-age=0, private, must-revalidate\n1 < etag: W\/\"b54935287b12c6c83982c6db33a976c7\"\n1 < referrer-policy: strict-origin-when-cross-origin\n1 < vary: Origin\n1 < x-content-type-options: nosniff\n1 < x-download-options: noopen\n1 < x-frame-options: SAMEORIGIN\n1 < x-permitted-cross-domain-policies: none\n1 < x-request-id: 11ac523e-2a80-4802-8ab3-d2d62e9a9ae6\n1 < x-runtime: 0.045560\n1 < x-xss-protection: 0\n1 < CF-Cache-Status: DYNAMIC\n1 < Report-To: {\"endpoints\":[{\"url\":\"https:\\\/\\\/a.nel.cloudflare.com\\\/report\\\/v3?s=KycWto0dwBlAWVIMHdToIdEPpfEXRtiQ%2F%2F1LH9cOh7IxhUUTI2kixVh3XqN%2Bsj2aNVyGt9cmNWXu2b%2Bdsm4Ik2XSNSXfW9gjvO3vCN7kJpkIHWq3o8z0zp3ny%2FvzEjY%3D\"}],\"group\":\"cf-nel\",\"max_age\":604800}\n1 < NEL: {\"success_fraction\":0,\"report_to\":\"cf-nel\",\"max_age\":604800}\n1 < Server: cloudflare\n1 < CF-RAY: 756b7fa5bd73185b-ATL\n1 < alt-svc: h3=\":443\"; ma=86400, h3-29=\":443\"; ma=86400\n{\"meta\":{\"pagination\":{\"total\":1711,\"pages\":172,\"page\":1,\"limit\":10,\"links\":{\"previous\":null,\"current\":\"https:\/\/gorest.co.in\/public\/v1\/users?page=1\",\"next\":\"https:\/\/gorest.co.in\/public\/v1\/users?page=2\"}}},\"data\":[{\"id\":3442,\"name\":\"Rev. Devika Pilla\",\"email\":\"rev_devika_pilla@simonis-walsh.biz\",\"gender\":\"male\",\"status\":\"active\"},{\"id\":3438,\"name\":\"Chandramauli Johar\",\"email\":\"chandramauli_johar@beatty-graham.info\",\"gender\":\"female\",\"status\":\"active\"},{\"id\":3436,\"name\":\"Chandra Khanna\",\"email\":\"khanna_chandra@kilback.name\",\"gender\":\"female\",\"status\":\"active\"},{\"id\":3435,\"name\":\"Kumuda Tandon DVM\",\"email\":\"tandon_kumuda_dvm@williamson.co\",\"gender\":\"male\",\"status\":\"active\"},{\"id\":3433,\"name\":\"Bhagwanti Devar\",\"email\":\"devar_bhagwanti@hyatt-goodwin.info\",\"gender\":\"male\",\"status\":\"active\"},{\"id\":3432,\"name\":\"Dwaipayan Nambeesan V\",\"email\":\"dwaipayan_nambeesan_v@cummings-kertzmann.biz\",\"gender\":\"male\",\"status\":\"active\"},{\"id\":3431,\"name\":\"Sukanya Mahajan\",\"email\":\"sukanya_mahajan@yost.com\",\"gender\":\"male\",\"status\":\"active\"},{\"id\":3428,\"name\":\"Param Nair DVM\",\"email\":\"dvm_param_nair@wiza-vonrueden.org\",\"gender\":\"female\",\"status\":\"active\"},{\"id\":3427,\"name\":\"Dayaananda Dhawan\",\"email\":\"dhawan_dayaananda@schaden-rolfson.co\",\"gender\":\"male\",\"status\":\"active\"},{\"id\":3426,\"name\":\"Pres. Ramesh Mukhopadhyay\",\"email\":\"ramesh_pres_mukhopadhyay@ohara-zemlak.biz\",\"gender\":\"male\",\"status\":\"active\"}]}\n\n"},{"result":{"nanos":42000,"millis":0.042,"status":"passed"},"step":{"line":21,"prefix":"Then","index":4,"text":"status 200"}},{"result":{"nanos":4381600,"millis":4.3816,"status":"passed"},"step":{"line":22,"prefix":"*","index":5,"text":"print response"},"stepLog":"22:38:10.557 [print] {\n  \"meta\": {\n    \"pagination\": {\n      \"total\": 1711,\n      \"pages\": 172,\n      \"page\": 1,\n      \"limit\": 10,\n      \"links\": {\n        \"previous\": null,\n        \"current\": \"https:\/\/gorest.co.in\/public\/v1\/users?page=1\",\n        \"next\": \"https:\/\/gorest.co.in\/public\/v1\/users?page=2\"\n      }\n    }\n  },\n  \"data\": [\n    {\n      \"id\": 3442,\n      \"name\": \"Rev. Devika Pilla\",\n      \"email\": \"rev_devika_pilla@simonis-walsh.biz\",\n      \"gender\": \"male\",\n      \"status\": \"active\"\n    },\n    {\n      \"id\": 3438,\n      \"name\": \"Chandramauli Johar\",\n      \"email\": \"chandramauli_johar@beatty-graham.info\",\n      \"gender\": \"female\",\n      \"status\": \"active\"\n    },\n    {\n      \"id\": 3436,\n      \"name\": \"Chandra Khanna\",\n      \"email\": \"khanna_chandra@kilback.name\",\n      \"gender\": \"female\",\n      \"status\": \"active\"\n    },\n    {\n      \"id\": 3435,\n      \"name\": \"Kumuda Tandon DVM\",\n      \"email\": \"tandon_kumuda_dvm@williamson.co\",\n      \"gender\": \"male\",\n      \"status\": \"active\"\n    },\n    {\n      \"id\": 3433,\n      \"name\": \"Bhagwanti Devar\",\n      \"email\": \"devar_bhagwanti@hyatt-goodwin.info\",\n      \"gender\": \"male\",\n      \"status\": \"active\"\n    },\n    {\n      \"id\": 3432,\n      \"name\": \"Dwaipayan Nambeesan V\",\n      \"email\": \"dwaipayan_nambeesan_v@cummings-kertzmann.biz\",\n      \"gender\": \"male\",\n      \"status\": \"active\"\n    },\n    {\n      \"id\": 3431,\n      \"name\": \"Sukanya Mahajan\",\n      \"email\": \"sukanya_mahajan@yost.com\",\n      \"gender\": \"male\",\n      \"status\": \"active\"\n    },\n    {\n      \"id\": 3428,\n      \"name\": \"Param Nair DVM\",\n      \"email\": \"dvm_param_nair@wiza-vonrueden.org\",\n      \"gender\": \"female\",\n      \"status\": \"active\"\n    },\n    {\n      \"id\": 3427,\n      \"name\": \"Dayaananda Dhawan\",\n      \"email\": \"dhawan_dayaananda@schaden-rolfson.co\",\n      \"gender\": \"male\",\n      \"status\": \"active\"\n    },\n    {\n      \"id\": 3426,\n      \"name\": \"Pres. Ramesh Mukhopadhyay\",\n      \"email\": \"ramesh_pres_mukhopadhyay@ohara-zemlak.biz\",\n      \"gender\": \"male\",\n      \"status\": \"active\"\n    }\n  ]\n}\n \n"},{"result":{"nanos":2089000,"millis":2.089,"status":"passed"},"step":{"line":23,"prefix":"*","index":6,"text":"def jsonResponse = response"}},{"result":{"nanos":4346900,"millis":4.3469,"status":"passed"},"step":{"line":24,"prefix":"*","index":7,"text":"print response"},"stepLog":"22:38:10.564 [print] {\n  \"meta\": {\n    \"pagination\": {\n      \"total\": 1711,\n      \"pages\": 172,\n      \"page\": 1,\n      \"limit\": 10,\n      \"links\": {\n        \"previous\": null,\n        \"current\": \"https:\/\/gorest.co.in\/public\/v1\/users?page=1\",\n        \"next\": \"https:\/\/gorest.co.in\/public\/v1\/users?page=2\"\n      }\n    }\n  },\n  \"data\": [\n    {\n      \"id\": 3442,\n      \"name\": \"Rev. Devika Pilla\",\n      \"email\": \"rev_devika_pilla@simonis-walsh.biz\",\n      \"gender\": \"male\",\n      \"status\": \"active\"\n    },\n    {\n      \"id\": 3438,\n      \"name\": \"Chandramauli Johar\",\n      \"email\": \"chandramauli_johar@beatty-graham.info\",\n      \"gender\": \"female\",\n      \"status\": \"active\"\n    },\n    {\n      \"id\": 3436,\n      \"name\": \"Chandra Khanna\",\n      \"email\": \"khanna_chandra@kilback.name\",\n      \"gender\": \"female\",\n      \"status\": \"active\"\n    },\n    {\n      \"id\": 3435,\n      \"name\": \"Kumuda Tandon DVM\",\n      \"email\": \"tandon_kumuda_dvm@williamson.co\",\n      \"gender\": \"male\",\n      \"status\": \"active\"\n    },\n    {\n      \"id\": 3433,\n      \"name\": \"Bhagwanti Devar\",\n      \"email\": \"devar_bhagwanti@hyatt-goodwin.info\",\n      \"gender\": \"male\",\n      \"status\": \"active\"\n    },\n    {\n      \"id\": 3432,\n      \"name\": \"Dwaipayan Nambeesan V\",\n      \"email\": \"dwaipayan_nambeesan_v@cummings-kertzmann.biz\",\n      \"gender\": \"male\",\n      \"status\": \"active\"\n    },\n    {\n      \"id\": 3431,\n      \"name\": \"Sukanya Mahajan\",\n      \"email\": \"sukanya_mahajan@yost.com\",\n      \"gender\": \"male\",\n      \"status\": \"active\"\n    },\n    {\n      \"id\": 3428,\n      \"name\": \"Param Nair DVM\",\n      \"email\": \"dvm_param_nair@wiza-vonrueden.org\",\n      \"gender\": \"female\",\n      \"status\": \"active\"\n    },\n    {\n      \"id\": 3427,\n      \"name\": \"Dayaananda Dhawan\",\n      \"email\": \"dhawan_dayaananda@schaden-rolfson.co\",\n      \"gender\": \"male\",\n      \"status\": \"active\"\n    },\n    {\n      \"id\": 3426,\n      \"name\": \"Pres. Ramesh Mukhopadhyay\",\n      \"email\": \"ramesh_pres_mukhopadhyay@ohara-zemlak.biz\",\n      \"gender\": \"male\",\n      \"status\": \"active\"\n    }\n  ]\n}\n \n"},{"result":{"nanos":8621100,"millis":8.6211,"status":"passed"},"step":{"line":25,"prefix":"*","index":8,"text":"def userCount = jsonResponse.data.length"}},{"result":{"nanos":5404700,"millis":5.4047,"status":"passed"},"step":{"line":26,"prefix":"*","index":9,"text":"print userCount"},"stepLog":"22:38:10.579 [print] 10 \n"},{"result":{"nanos":21784200,"millis":21.7842,"status":"passed"},"step":{"line":27,"prefix":"*","index":10,"text":"match userCount == 10"}}],"executorName":"main","line":15,"name":"get all active user with query parameters","description":"","durationMillis":475.6777,"startTime":1665196690123,"failed":false,"refId":"[2:15]","endTime":1665196690602,"exampleIndex":-1}],"callDepth":0,"name":"GET API with query Parameters","description":"","resultDate":"2022-10-07 10:38:10 pm","durationMillis":2301.872,"passedCount":2}