{"failedCount":0,"prefixedPath":"src\/test\/java\/Features\/GETapiquery.feature","packageQualifiedName":"src.test.java.Features.GETapiquery","loopIndex":-1,"relativePath":"src\/test\/java\/Features\/GETapiquery.feature","scenarioResults":[{"sectionIndex":0,"stepResults":[{"result":{"nanos":98572700,"millis":98.5727,"status":"passed"},"step":{"line":4,"prefix":"*","index":0,"text":"def query = {status:'active'}"}},{"result":{"nanos":182300800,"millis":182.3008,"status":"passed"},"step":{"line":5,"prefix":"Given","index":1,"text":"url 'https:\/\/gorest.co.in\/public\/v1\/users'"}},{"result":{"nanos":78994500,"millis":78.9945,"status":"passed"},"step":{"line":6,"prefix":"And","index":2,"text":"params query"}},{"result":{"nanos":1931022500,"millis":1931.0225,"status":"passed"},"step":{"line":7,"prefix":"When","index":3,"text":"method GET"},"stepLog":"07:55:47.262 request:\n1 > GET https:\/\/gorest.co.in\/public\/v1\/users?status=active\n1 > Host: gorest.co.in\n1 > Connection: Keep-Alive\n1 > User-Agent: Apache-HttpClient\/4.5.12 (Java\/17.0.4.1)\n1 > Accept-Encoding: gzip,deflate\n\n\n07:55:48.667 response time in milliseconds: 1401\n1 < 200\n1 < Date: Sat, 08 Oct 2022 11:55:45 GMT\n1 < Content-Type: application\/json; charset=utf-8\n1 < Transfer-Encoding: chunked\n1 < Connection: keep-alive\n1 < Cache-Control: max-age=0, private, must-revalidate\n1 < etag: W\/\"2d7269c0d5f9da5205ce657e476c7520\"\n1 < referrer-policy: strict-origin-when-cross-origin\n1 < vary: Origin\n1 < x-content-type-options: nosniff\n1 < x-download-options: noopen\n1 < x-frame-options: SAMEORIGIN\n1 < x-permitted-cross-domain-policies: none\n1 < x-request-id: 25fcbc9a-821d-4b60-b7c7-522fa9cc3702\n1 < x-runtime: 0.041347\n1 < x-xss-protection: 0\n1 < CF-Cache-Status: DYNAMIC\n1 < Report-To: {\"endpoints\":[{\"url\":\"https:\\\/\\\/a.nel.cloudflare.com\\\/report\\\/v3?s=LPucPy4V7qoMcdhWMcR6RghfU5q41H4w9FS1yfnb50oTJ8VOmZ4QtQUhG%2Bs6E8SVJwWE6ClDbxutdneoAu%2BTlF8J0f3FNh7jS%2B1WYbAfwBiS5tPchxsMvYCWrM1bRaU%3D\"}],\"group\":\"cf-nel\",\"max_age\":604800}\n1 < NEL: {\"success_fraction\":0,\"report_to\":\"cf-nel\",\"max_age\":604800}\n1 < Server: cloudflare\n1 < CF-RAY: 756eb075e9e8acef-ATL\n1 < alt-svc: h3=\":443\"; ma=86400, h3-29=\":443\"; ma=86400\n{\"meta\":{\"pagination\":{\"total\":1677,\"pages\":168,\"page\":1,\"limit\":10,\"links\":{\"previous\":null,\"current\":\"https:\/\/gorest.co.in\/public\/v1\/users?page=1\",\"next\":\"https:\/\/gorest.co.in\/public\/v1\/users?page=2\"}}},\"data\":[{\"id\":3403,\"name\":\"Chanda Dubashi JD\",\"email\":\"chanda_dubashi_jd@volkman.biz\",\"gender\":\"female\",\"status\":\"active\"},{\"id\":3402,\"name\":\"Kailash Ahluwalia\",\"email\":\"kailash_ahluwalia@reilly.info\",\"gender\":\"male\",\"status\":\"active\"},{\"id\":3397,\"name\":\"Charumati Patil\",\"email\":\"patil_charumati@herzog-altenwerth.com\",\"gender\":\"male\",\"status\":\"active\"},{\"id\":3395,\"name\":\"Amb. Himadri Mishra\",\"email\":\"amb_himadri_mishra@breitenberg-smith.name\",\"gender\":\"male\",\"status\":\"active\"},{\"id\":3392,\"name\":\"Shanti Kocchar\",\"email\":\"kocchar_shanti@wilderman.name\",\"gender\":\"male\",\"status\":\"active\"},{\"id\":3391,\"name\":\"Aadi Agarwal\",\"email\":\"agarwal_aadi@daniel.com\",\"gender\":\"male\",\"status\":\"active\"},{\"id\":3390,\"name\":\"Anurag Asan\",\"email\":\"anurag_asan@walter.co\",\"gender\":\"female\",\"status\":\"active\"},{\"id\":3389,\"name\":\"Gorakhanatha Shukla MD\",\"email\":\"gorakhanatha_shukla_md@tillman.name\",\"gender\":\"female\",\"status\":\"active\"},{\"id\":3386,\"name\":\"Vedang Shah\",\"email\":\"vedang_shah@jakubowski.com\",\"gender\":\"female\",\"status\":\"active\"},{\"id\":3385,\"name\":\"Baalaaditya Pilla\",\"email\":\"baalaaditya_pilla@romaguera.biz\",\"gender\":\"female\",\"status\":\"active\"}]}\n\n"},{"result":{"nanos":37700,"millis":0.0377,"status":"passed"},"step":{"line":8,"prefix":"Then","index":4,"text":"status 200"}},{"result":{"nanos":106083100,"millis":106.0831,"status":"passed"},"step":{"line":9,"prefix":"*","index":5,"text":"print response"},"stepLog":"07:55:48.780 [print] {\n  \"meta\": {\n    \"pagination\": {\n      \"total\": 1677,\n      \"pages\": 168,\n      \"page\": 1,\n      \"limit\": 10,\n      \"links\": {\n        \"previous\": null,\n        \"current\": \"https:\/\/gorest.co.in\/public\/v1\/users?page=1\",\n        \"next\": \"https:\/\/gorest.co.in\/public\/v1\/users?page=2\"\n      }\n    }\n  },\n  \"data\": [\n    {\n      \"id\": 3403,\n      \"name\": \"Chanda Dubashi JD\",\n      \"email\": \"chanda_dubashi_jd@volkman.biz\",\n      \"gender\": \"female\",\n      \"status\": \"active\"\n    },\n    {\n      \"id\": 3402,\n      \"name\": \"Kailash Ahluwalia\",\n      \"email\": \"kailash_ahluwalia@reilly.info\",\n      \"gender\": \"male\",\n      \"status\": \"active\"\n    },\n    {\n      \"id\": 3397,\n      \"name\": \"Charumati Patil\",\n      \"email\": \"patil_charumati@herzog-altenwerth.com\",\n      \"gender\": \"male\",\n      \"status\": \"active\"\n    },\n    {\n      \"id\": 3395,\n      \"name\": \"Amb. Himadri Mishra\",\n      \"email\": \"amb_himadri_mishra@breitenberg-smith.name\",\n      \"gender\": \"male\",\n      \"status\": \"active\"\n    },\n    {\n      \"id\": 3392,\n      \"name\": \"Shanti Kocchar\",\n      \"email\": \"kocchar_shanti@wilderman.name\",\n      \"gender\": \"male\",\n      \"status\": \"active\"\n    },\n    {\n      \"id\": 3391,\n      \"name\": \"Aadi Agarwal\",\n      \"email\": \"agarwal_aadi@daniel.com\",\n      \"gender\": \"male\",\n      \"status\": \"active\"\n    },\n    {\n      \"id\": 3390,\n      \"name\": \"Anurag Asan\",\n      \"email\": \"anurag_asan@walter.co\",\n      \"gender\": \"female\",\n      \"status\": \"active\"\n    },\n    {\n      \"id\": 3389,\n      \"name\": \"Gorakhanatha Shukla MD\",\n      \"email\": \"gorakhanatha_shukla_md@tillman.name\",\n      \"gender\": \"female\",\n      \"status\": \"active\"\n    },\n    {\n      \"id\": 3386,\n      \"name\": \"Vedang Shah\",\n      \"email\": \"vedang_shah@jakubowski.com\",\n      \"gender\": \"female\",\n      \"status\": \"active\"\n    },\n    {\n      \"id\": 3385,\n      \"name\": \"Baalaaditya Pilla\",\n      \"email\": \"baalaaditya_pilla@romaguera.biz\",\n      \"gender\": \"female\",\n      \"status\": \"active\"\n    }\n  ]\n}\n \n"}],"executorName":"main","line":3,"name":"get api active user","description":"","durationMillis":2397.0113,"startTime":1665230146355,"failed":false,"refId":"[1:3]","endTime":1665230148783,"exampleIndex":-1},{"sectionIndex":1,"stepResults":[{"result":{"nanos":3334200,"millis":3.3342,"status":"passed"},"step":{"line":15,"prefix":"*","index":0,"text":"def query = {status:'active'}"}},{"result":{"nanos":776600,"millis":0.7766,"status":"passed"},"step":{"line":16,"prefix":"Given","index":1,"text":"url 'https:\/\/gorest.co.in\/public\/v1\/users'"}},{"result":{"nanos":210600,"millis":0.2106,"status":"passed"},"step":{"line":17,"prefix":"And","index":2,"text":"params query"}},{"result":{"nanos":992196300,"millis":992.1963,"status":"passed"},"step":{"line":18,"prefix":"When","index":3,"text":"method GET"},"stepLog":"07:55:48.802 request:\n1 > GET https:\/\/gorest.co.in\/public\/v1\/users?status=active\n1 > Host: gorest.co.in\n1 > Connection: Keep-Alive\n1 > User-Agent: Apache-HttpClient\/4.5.12 (Java\/17.0.4.1)\n1 > Accept-Encoding: gzip,deflate\n\n\n07:55:49.786 response time in milliseconds: 982\n1 < 200\n1 < Date: Sat, 08 Oct 2022 11:55:46 GMT\n1 < Content-Type: application\/json; charset=utf-8\n1 < Transfer-Encoding: chunked\n1 < Connection: keep-alive\n1 < Cache-Control: max-age=0, private, must-revalidate\n1 < etag: W\/\"2d7269c0d5f9da5205ce657e476c7520\"\n1 < referrer-policy: strict-origin-when-cross-origin\n1 < vary: Origin\n1 < x-content-type-options: nosniff\n1 < x-download-options: noopen\n1 < x-frame-options: SAMEORIGIN\n1 < x-permitted-cross-domain-policies: none\n1 < x-request-id: c3456e23-48a8-4027-a9b2-63aa600cc66d\n1 < x-runtime: 0.038952\n1 < x-xss-protection: 0\n1 < CF-Cache-Status: DYNAMIC\n1 < Report-To: {\"endpoints\":[{\"url\":\"https:\\\/\\\/a.nel.cloudflare.com\\\/report\\\/v3?s=1ILkVGl0H4t4jLV7uOl4GEJY5kZ%2Bj8VD4HLa9k8Au4yKOrK2B9N8QdmI%2BT%2Fg3Hnc4XE74JL0PEBTIAk0cyjHbdKZyUUVWPL4n2R2QZpDCTXkBPwTkjFnLXul2sXMs74%3D\"}],\"group\":\"cf-nel\",\"max_age\":604800}\n1 < NEL: {\"success_fraction\":0,\"report_to\":\"cf-nel\",\"max_age\":604800}\n1 < Server: cloudflare\n1 < CF-RAY: 756eb07d0d79ad6b-ATL\n1 < alt-svc: h3=\":443\"; ma=86400, h3-29=\":443\"; ma=86400\n{\"meta\":{\"pagination\":{\"total\":1677,\"pages\":168,\"page\":1,\"limit\":10,\"links\":{\"previous\":null,\"current\":\"https:\/\/gorest.co.in\/public\/v1\/users?page=1\",\"next\":\"https:\/\/gorest.co.in\/public\/v1\/users?page=2\"}}},\"data\":[{\"id\":3403,\"name\":\"Chanda Dubashi JD\",\"email\":\"chanda_dubashi_jd@volkman.biz\",\"gender\":\"female\",\"status\":\"active\"},{\"id\":3402,\"name\":\"Kailash Ahluwalia\",\"email\":\"kailash_ahluwalia@reilly.info\",\"gender\":\"male\",\"status\":\"active\"},{\"id\":3397,\"name\":\"Charumati Patil\",\"email\":\"patil_charumati@herzog-altenwerth.com\",\"gender\":\"male\",\"status\":\"active\"},{\"id\":3395,\"name\":\"Amb. Himadri Mishra\",\"email\":\"amb_himadri_mishra@breitenberg-smith.name\",\"gender\":\"male\",\"status\":\"active\"},{\"id\":3392,\"name\":\"Shanti Kocchar\",\"email\":\"kocchar_shanti@wilderman.name\",\"gender\":\"male\",\"status\":\"active\"},{\"id\":3391,\"name\":\"Aadi Agarwal\",\"email\":\"agarwal_aadi@daniel.com\",\"gender\":\"male\",\"status\":\"active\"},{\"id\":3390,\"name\":\"Anurag Asan\",\"email\":\"anurag_asan@walter.co\",\"gender\":\"female\",\"status\":\"active\"},{\"id\":3389,\"name\":\"Gorakhanatha Shukla MD\",\"email\":\"gorakhanatha_shukla_md@tillman.name\",\"gender\":\"female\",\"status\":\"active\"},{\"id\":3386,\"name\":\"Vedang Shah\",\"email\":\"vedang_shah@jakubowski.com\",\"gender\":\"female\",\"status\":\"active\"},{\"id\":3385,\"name\":\"Baalaaditya Pilla\",\"email\":\"baalaaditya_pilla@romaguera.biz\",\"gender\":\"female\",\"status\":\"active\"}]}\n\n"},{"result":{"nanos":20300,"millis":0.0203,"status":"passed"},"step":{"line":19,"prefix":"Then","index":4,"text":"status 200"}},{"result":{"nanos":2223900,"millis":2.2239,"status":"passed"},"step":{"line":20,"prefix":"*","index":5,"text":"print response"},"stepLog":"07:55:49.795 [print] {\n  \"meta\": {\n    \"pagination\": {\n      \"total\": 1677,\n      \"pages\": 168,\n      \"page\": 1,\n      \"limit\": 10,\n      \"links\": {\n        \"previous\": null,\n        \"current\": \"https:\/\/gorest.co.in\/public\/v1\/users?page=1\",\n        \"next\": \"https:\/\/gorest.co.in\/public\/v1\/users?page=2\"\n      }\n    }\n  },\n  \"data\": [\n    {\n      \"id\": 3403,\n      \"name\": \"Chanda Dubashi JD\",\n      \"email\": \"chanda_dubashi_jd@volkman.biz\",\n      \"gender\": \"female\",\n      \"status\": \"active\"\n    },\n    {\n      \"id\": 3402,\n      \"name\": \"Kailash Ahluwalia\",\n      \"email\": \"kailash_ahluwalia@reilly.info\",\n      \"gender\": \"male\",\n      \"status\": \"active\"\n    },\n    {\n      \"id\": 3397,\n      \"name\": \"Charumati Patil\",\n      \"email\": \"patil_charumati@herzog-altenwerth.com\",\n      \"gender\": \"male\",\n      \"status\": \"active\"\n    },\n    {\n      \"id\": 3395,\n      \"name\": \"Amb. Himadri Mishra\",\n      \"email\": \"amb_himadri_mishra@breitenberg-smith.name\",\n      \"gender\": \"male\",\n      \"status\": \"active\"\n    },\n    {\n      \"id\": 3392,\n      \"name\": \"Shanti Kocchar\",\n      \"email\": \"kocchar_shanti@wilderman.name\",\n      \"gender\": \"male\",\n      \"status\": \"active\"\n    },\n    {\n      \"id\": 3391,\n      \"name\": \"Aadi Agarwal\",\n      \"email\": \"agarwal_aadi@daniel.com\",\n      \"gender\": \"male\",\n      \"status\": \"active\"\n    },\n    {\n      \"id\": 3390,\n      \"name\": \"Anurag Asan\",\n      \"email\": \"anurag_asan@walter.co\",\n      \"gender\": \"female\",\n      \"status\": \"active\"\n    },\n    {\n      \"id\": 3389,\n      \"name\": \"Gorakhanatha Shukla MD\",\n      \"email\": \"gorakhanatha_shukla_md@tillman.name\",\n      \"gender\": \"female\",\n      \"status\": \"active\"\n    },\n    {\n      \"id\": 3386,\n      \"name\": \"Vedang Shah\",\n      \"email\": \"vedang_shah@jakubowski.com\",\n      \"gender\": \"female\",\n      \"status\": \"active\"\n    },\n    {\n      \"id\": 3385,\n      \"name\": \"Baalaaditya Pilla\",\n      \"email\": \"baalaaditya_pilla@romaguera.biz\",\n      \"gender\": \"female\",\n      \"status\": \"active\"\n    }\n  ]\n}\n \n"},{"result":{"nanos":795000,"millis":0.795,"status":"passed"},"step":{"line":21,"prefix":"*","index":6,"text":"def jsonResponse =  response"}},{"result":{"nanos":2897500,"millis":2.8975,"status":"passed"},"step":{"line":22,"prefix":"*","index":7,"text":"print jsonResponse"},"stepLog":"07:55:49.799 [print] {\n  \"meta\": {\n    \"pagination\": {\n      \"total\": 1677,\n      \"pages\": 168,\n      \"page\": 1,\n      \"limit\": 10,\n      \"links\": {\n        \"previous\": null,\n        \"current\": \"https:\/\/gorest.co.in\/public\/v1\/users?page=1\",\n        \"next\": \"https:\/\/gorest.co.in\/public\/v1\/users?page=2\"\n      }\n    }\n  },\n  \"data\": [\n    {\n      \"id\": 3403,\n      \"name\": \"Chanda Dubashi JD\",\n      \"email\": \"chanda_dubashi_jd@volkman.biz\",\n      \"gender\": \"female\",\n      \"status\": \"active\"\n    },\n    {\n      \"id\": 3402,\n      \"name\": \"Kailash Ahluwalia\",\n      \"email\": \"kailash_ahluwalia@reilly.info\",\n      \"gender\": \"male\",\n      \"status\": \"active\"\n    },\n    {\n      \"id\": 3397,\n      \"name\": \"Charumati Patil\",\n      \"email\": \"patil_charumati@herzog-altenwerth.com\",\n      \"gender\": \"male\",\n      \"status\": \"active\"\n    },\n    {\n      \"id\": 3395,\n      \"name\": \"Amb. Himadri Mishra\",\n      \"email\": \"amb_himadri_mishra@breitenberg-smith.name\",\n      \"gender\": \"male\",\n      \"status\": \"active\"\n    },\n    {\n      \"id\": 3392,\n      \"name\": \"Shanti Kocchar\",\n      \"email\": \"kocchar_shanti@wilderman.name\",\n      \"gender\": \"male\",\n      \"status\": \"active\"\n    },\n    {\n      \"id\": 3391,\n      \"name\": \"Aadi Agarwal\",\n      \"email\": \"agarwal_aadi@daniel.com\",\n      \"gender\": \"male\",\n      \"status\": \"active\"\n    },\n    {\n      \"id\": 3390,\n      \"name\": \"Anurag Asan\",\n      \"email\": \"anurag_asan@walter.co\",\n      \"gender\": \"female\",\n      \"status\": \"active\"\n    },\n    {\n      \"id\": 3389,\n      \"name\": \"Gorakhanatha Shukla MD\",\n      \"email\": \"gorakhanatha_shukla_md@tillman.name\",\n      \"gender\": \"female\",\n      \"status\": \"active\"\n    },\n    {\n      \"id\": 3386,\n      \"name\": \"Vedang Shah\",\n      \"email\": \"vedang_shah@jakubowski.com\",\n      \"gender\": \"female\",\n      \"status\": \"active\"\n    },\n    {\n      \"id\": 3385,\n      \"name\": \"Baalaaditya Pilla\",\n      \"email\": \"baalaaditya_pilla@romaguera.biz\",\n      \"gender\": \"female\",\n      \"status\": \"active\"\n    }\n  ]\n}\n \n"},{"result":{"nanos":2794300,"millis":2.7943,"status":"passed"},"step":{"line":23,"prefix":"*","index":8,"text":"def userCount = jsonResponse.data.length"}},{"result":{"nanos":1614900,"millis":1.6149,"status":"passed"},"step":{"line":24,"prefix":"*","index":9,"text":"print userCount"},"stepLog":"07:55:49.803 [print] 10 \n"},{"result":{"nanos":13187700,"millis":13.1877,"status":"passed"},"step":{"line":25,"prefix":"*","index":10,"text":"match userCount == 10"}}],"executorName":"main","line":14,"name":"get api active user with active user","description":"","durationMillis":1020.0513,"startTime":1665230148795,"failed":false,"refId":"[2:14]","endTime":1665230149817,"exampleIndex":-1}],"callDepth":0,"name":"GET API query with parameters","description":"","resultDate":"2022-10-08 07:55:49 am","durationMillis":3417.0626,"passedCount":2}