{"failedCount":1,"prefixedPath":"src\/test\/java\/Features\/GETapiquery.feature","packageQualifiedName":"src.test.java.Features.GETapiquery","loopIndex":-1,"relativePath":"src\/test\/java\/Features\/GETapiquery.feature","scenarioResults":[{"sectionIndex":0,"stepResults":[{"result":{"nanos":122456900,"millis":122.4569,"status":"passed"},"step":{"line":4,"prefix":"*","index":0,"text":"def query = {status:'active', gender: 'male'}"}},{"result":{"nanos":196009300,"millis":196.0093,"status":"passed"},"step":{"line":5,"prefix":"Given","index":1,"text":"url 'https:\/\/gorest.co.in\/public\/v1\/users'"}},{"result":{"nanos":59756000,"millis":59.756,"status":"passed"},"step":{"line":6,"prefix":"And","index":2,"text":"params query"}},{"result":{"nanos":2063860100,"millis":2063.8601,"status":"passed"},"step":{"line":7,"prefix":"When","index":3,"text":"method GET"},"stepLog":"19:28:15.437 request:\n1 > GET https:\/\/gorest.co.in\/public\/v1\/users?gender=male&status=active\n1 > Host: gorest.co.in\n1 > Connection: Keep-Alive\n1 > User-Agent: Apache-HttpClient\/4.5.12 (Java\/17.0.4.1)\n1 > Accept-Encoding: gzip,deflate\n\n\n19:28:16.830 response time in milliseconds: 1385\n1 < 200\n1 < Date: Sun, 09 Oct 2022 23:28:17 GMT\n1 < Content-Type: application\/json; charset=utf-8\n1 < Transfer-Encoding: chunked\n1 < Connection: keep-alive\n1 < Cache-Control: max-age=0, private, must-revalidate\n1 < etag: W\/\"9ef17259aa8dae9fef29f79a7d40ef5a\"\n1 < referrer-policy: strict-origin-when-cross-origin\n1 < vary: Origin\n1 < x-content-type-options: nosniff\n1 < x-download-options: noopen\n1 < x-frame-options: SAMEORIGIN\n1 < x-permitted-cross-domain-policies: none\n1 < x-request-id: a834b369-7c2f-4e37-9fbe-a5d9f9e2dcdb\n1 < x-runtime: 0.017998\n1 < x-xss-protection: 0\n1 < CF-Cache-Status: DYNAMIC\n1 < Report-To: {\"endpoints\":[{\"url\":\"https:\\\/\\\/a.nel.cloudflare.com\\\/report\\\/v3?s=uHrtWHPDDL5b5rqoneA2p%2FelKaEORIOYveCPnV0pijSSWG0jRQG%2B7x6gjTj80uKHrVeOqdcxiQ5U3VQvXYChdytorCjtgLfCNtcvGH0IjNKzGQYR%2B9BjYcSOGKiKm6s%3D\"}],\"group\":\"cf-nel\",\"max_age\":604800}\n1 < NEL: {\"success_fraction\":0,\"report_to\":\"cf-nel\",\"max_age\":604800}\n1 < Server: cloudflare\n1 < CF-RAY: 757ae445ff4abe15-ATL\n1 < alt-svc: h3=\":443\"; ma=86400, h3-29=\":443\"; ma=86400\n{\"meta\":{\"pagination\":{\"total\":618,\"pages\":62,\"page\":1,\"limit\":10,\"links\":{\"previous\":null,\"current\":\"https:\/\/gorest.co.in\/public\/v1\/users?page=1\",\"next\":\"https:\/\/gorest.co.in\/public\/v1\/users?page=2\"}}},\"data\":[{\"id\":2419,\"name\":\"Subhasini Bandopadhyay\",\"email\":\"subhasini_bandopadhyay@schamberger.com\",\"gender\":\"male\",\"status\":\"active\"},{\"id\":2413,\"name\":\"Mrs. Balagovind Deshpande\",\"email\":\"mrs_balagovind_deshpande@larkin.co\",\"gender\":\"male\",\"status\":\"active\"},{\"id\":2409,\"name\":\"Prasad Panicker\",\"email\":\"panicker_prasad@williamson-barrows.co\",\"gender\":\"male\",\"status\":\"active\"},{\"id\":2405,\"name\":\"Gov. Aadidev Agarwal\",\"email\":\"aadidev_gov_agarwal@purdy-hartmann.io\",\"gender\":\"male\",\"status\":\"active\"},{\"id\":2404,\"name\":\"Chidambaram Agarwal\",\"email\":\"chidambaram_agarwal@stracke.io\",\"gender\":\"male\",\"status\":\"active\"},{\"id\":2403,\"name\":\"Bahula Ahuja\",\"email\":\"bahula_ahuja@hills.net\",\"gender\":\"male\",\"status\":\"active\"},{\"id\":2389,\"name\":\"Adinath Saini\",\"email\":\"adinath_saini@keeling.info\",\"gender\":\"male\",\"status\":\"active\"},{\"id\":2387,\"name\":\"Tanushree Butt\",\"email\":\"butt_tanushree@osinski-stracke.info\",\"gender\":\"male\",\"status\":\"active\"},{\"id\":2386,\"name\":\"Devani Kaur Esq.\",\"email\":\"devani_kaur_esq@gerlach.co\",\"gender\":\"male\",\"status\":\"active\"},{\"id\":2380,\"name\":\"Swara Sinha\",\"email\":\"sinha_swara@morar.co\",\"gender\":\"male\",\"status\":\"active\"}]}\n\n"},{"result":{"nanos":47500,"millis":0.0475,"status":"passed"},"step":{"line":8,"prefix":"Then","index":4,"text":"status 200"}},{"result":{"nanos":161401200,"millis":161.4012,"status":"passed"},"step":{"line":9,"prefix":"*","index":5,"text":"print response"},"stepLog":"19:28:17.007 [print] {\n  \"meta\": {\n    \"pagination\": {\n      \"total\": 618,\n      \"pages\": 62,\n      \"page\": 1,\n      \"limit\": 10,\n      \"links\": {\n        \"previous\": null,\n        \"current\": \"https:\/\/gorest.co.in\/public\/v1\/users?page=1\",\n        \"next\": \"https:\/\/gorest.co.in\/public\/v1\/users?page=2\"\n      }\n    }\n  },\n  \"data\": [\n    {\n      \"id\": 2419,\n      \"name\": \"Subhasini Bandopadhyay\",\n      \"email\": \"subhasini_bandopadhyay@schamberger.com\",\n      \"gender\": \"male\",\n      \"status\": \"active\"\n    },\n    {\n      \"id\": 2413,\n      \"name\": \"Mrs. Balagovind Deshpande\",\n      \"email\": \"mrs_balagovind_deshpande@larkin.co\",\n      \"gender\": \"male\",\n      \"status\": \"active\"\n    },\n    {\n      \"id\": 2409,\n      \"name\": \"Prasad Panicker\",\n      \"email\": \"panicker_prasad@williamson-barrows.co\",\n      \"gender\": \"male\",\n      \"status\": \"active\"\n    },\n    {\n      \"id\": 2405,\n      \"name\": \"Gov. Aadidev Agarwal\",\n      \"email\": \"aadidev_gov_agarwal@purdy-hartmann.io\",\n      \"gender\": \"male\",\n      \"status\": \"active\"\n    },\n    {\n      \"id\": 2404,\n      \"name\": \"Chidambaram Agarwal\",\n      \"email\": \"chidambaram_agarwal@stracke.io\",\n      \"gender\": \"male\",\n      \"status\": \"active\"\n    },\n    {\n      \"id\": 2403,\n      \"name\": \"Bahula Ahuja\",\n      \"email\": \"bahula_ahuja@hills.net\",\n      \"gender\": \"male\",\n      \"status\": \"active\"\n    },\n    {\n      \"id\": 2389,\n      \"name\": \"Adinath Saini\",\n      \"email\": \"adinath_saini@keeling.info\",\n      \"gender\": \"male\",\n      \"status\": \"active\"\n    },\n    {\n      \"id\": 2387,\n      \"name\": \"Tanushree Butt\",\n      \"email\": \"butt_tanushree@osinski-stracke.info\",\n      \"gender\": \"male\",\n      \"status\": \"active\"\n    },\n    {\n      \"id\": 2386,\n      \"name\": \"Devani Kaur Esq.\",\n      \"email\": \"devani_kaur_esq@gerlach.co\",\n      \"gender\": \"male\",\n      \"status\": \"active\"\n    },\n    {\n      \"id\": 2380,\n      \"name\": \"Swara Sinha\",\n      \"email\": \"sinha_swara@morar.co\",\n      \"gender\": \"male\",\n      \"status\": \"active\"\n    }\n  ]\n}\n \n"}],"executorName":"main","line":3,"name":"GET API with query params","description":"","durationMillis":2603.531,"startTime":1665358094374,"failed":false,"refId":"[1:3]","endTime":1665358097008,"exampleIndex":-1},{"sectionIndex":1,"stepResults":[{"result":{"nanos":1723700,"millis":1.7237,"status":"passed"},"step":{"line":12,"prefix":"*","index":0,"text":"def query = {status: 'actve'}"}},{"result":{"nanos":915700,"millis":0.9157,"status":"passed"},"step":{"line":13,"prefix":"Given","index":1,"text":"url 'https:\/\/gorest.co.in\/public\/v1\/users'"}},{"result":{"nanos":390000,"millis":0.39,"status":"passed"},"step":{"line":14,"prefix":"And","index":2,"text":"params query"}},{"result":{"nanos":951414600,"millis":951.4146,"status":"passed"},"step":{"line":15,"prefix":"When","index":3,"text":"method GET"},"stepLog":"19:28:17.027 request:\n1 > GET https:\/\/gorest.co.in\/public\/v1\/users?status=actve\n1 > Host: gorest.co.in\n1 > Connection: Keep-Alive\n1 > User-Agent: Apache-HttpClient\/4.5.12 (Java\/17.0.4.1)\n1 > Accept-Encoding: gzip,deflate\n\n\n19:28:17.972 response time in milliseconds: 939\n1 < 200\n1 < Date: Sun, 09 Oct 2022 23:28:18 GMT\n1 < Content-Type: application\/json; charset=utf-8\n1 < Transfer-Encoding: chunked\n1 < Connection: keep-alive\n1 < Cache-Control: max-age=0, private, must-revalidate\n1 < etag: W\/\"7d0fad3944b5884d753950e7824069d3\"\n1 < referrer-policy: strict-origin-when-cross-origin\n1 < vary: Origin\n1 < x-content-type-options: nosniff\n1 < x-download-options: noopen\n1 < x-frame-options: SAMEORIGIN\n1 < x-permitted-cross-domain-policies: none\n1 < x-request-id: f52d5f2c-6897-4c0f-81aa-2b18067accb6\n1 < x-runtime: 0.014405\n1 < x-xss-protection: 0\n1 < CF-Cache-Status: DYNAMIC\n1 < Report-To: {\"endpoints\":[{\"url\":\"https:\\\/\\\/a.nel.cloudflare.com\\\/report\\\/v3?s=8ge7ta7cWgvGw7CTu31iCDjlXPvTnTZJnznGFPos%2FTCkeDNs6CRkTe3MmY%2BRYC7T9NYEIYwT154vdpzK0T91EUb843SPEvsuNsRFGdNmd4Nee9bXzQQmg1yubHE%2FsYA%3D\"}],\"group\":\"cf-nel\",\"max_age\":604800}\n1 < NEL: {\"success_fraction\":0,\"report_to\":\"cf-nel\",\"max_age\":604800}\n1 < Server: cloudflare\n1 < CF-RAY: 757ae44d8bb3e3ae-ATL\n1 < alt-svc: h3=\":443\"; ma=86400, h3-29=\":443\"; ma=86400\n{\"meta\":{\"pagination\":{\"total\":0,\"pages\":0,\"page\":1,\"limit\":10,\"links\":{\"previous\":null,\"current\":null,\"next\":null}}},\"data\":[]}\n\n"},{"result":{"nanos":34900,"millis":0.0349,"status":"passed"},"step":{"line":16,"prefix":"Then","index":4,"text":"status 200"}},{"result":{"nanos":1551700,"millis":1.5517,"status":"passed"},"step":{"line":17,"prefix":"*","index":5,"text":"print response"},"stepLog":"19:28:17.978 [print] {\n  \"meta\": {\n    \"pagination\": {\n      \"total\": 0,\n      \"pages\": 0,\n      \"page\": 1,\n      \"limit\": 10,\n      \"links\": {\n        \"previous\": null,\n        \"current\": null,\n        \"next\": null\n      }\n    }\n  },\n  \"data\": [\n  ]\n}\n \n"},{"result":{"nanos":873800,"millis":0.8738,"status":"passed"},"step":{"line":18,"prefix":"*","index":6,"text":"def jsonResponse = response"}},{"result":{"nanos":3012700,"millis":3.0127,"status":"passed"},"step":{"line":19,"prefix":"*","index":7,"text":"print jsonResponse"},"stepLog":"19:28:17.982 [print] {\n  \"meta\": {\n    \"pagination\": {\n      \"total\": 0,\n      \"pages\": 0,\n      \"page\": 1,\n      \"limit\": 10,\n      \"links\": {\n        \"previous\": null,\n        \"current\": null,\n        \"next\": null\n      }\n    }\n  },\n  \"data\": [\n  ]\n}\n \n"},{"result":{"nanos":7138700,"millis":7.1387,"status":"passed"},"step":{"line":20,"prefix":"*","index":8,"text":"def actuserCount = jsonResponse.data.length"}},{"result":{"nanos":2353400,"millis":2.3534,"status":"passed"},"step":{"line":21,"prefix":"*","index":9,"text":"print actuserCount"},"stepLog":"19:28:17.992 [print] 0 \n"},{"result":{"nanos":28063600,"errorMessage":"match failed: EQUALS\n  $ | not equal (NUMBER:NUMBER)\n  0\n  10\n\nsrc\/test\/java\/Features\/GETapiquery.feature:22","millis":28.0636,"status":"failed"},"step":{"line":22,"prefix":"*","index":10,"text":"match actuserCount == 10"},"stepLog":"19:28:18.021 src\/test\/java\/Features\/GETapiquery.feature:22\n* match actuserCount == 10\nmatch failed: EQUALS\n  $ | not equal (NUMBER:NUMBER)\n  0\n  10\n\nsrc\/test\/java\/Features\/GETapiquery.feature:22\n"}],"line":11,"description":"","durationMillis":997.4728,"failed":true,"error":"match failed: EQUALS\n  $ | not equal (NUMBER:NUMBER)\n  0\n  10\n\nsrc\/test\/java\/Features\/GETapiquery.feature:22","executorName":"main","name":"GET API with user query","startTime":1665358097021,"refId":"[2:11]","endTime":1665358098021,"exampleIndex":-1}],"callDepth":0,"name":"GET API with query parametrs","description":"","resultDate":"2022-10-09 07:28:18 pm","durationMillis":3601.0038,"passedCount":1}