{"failedCount":0,"prefixedPath":"src\/test\/java\/Features\/GETapiquery.feature","packageQualifiedName":"src.test.java.Features.GETapiquery","loopIndex":-1,"relativePath":"src\/test\/java\/Features\/GETapiquery.feature","scenarioResults":[{"sectionIndex":0,"stepResults":[{"result":{"nanos":78809600,"millis":78.8096,"status":"passed"},"step":{"line":4,"prefix":"*","index":0,"text":"def query = {status: 'active',gender: 'male'}"}},{"result":{"nanos":144340400,"millis":144.3404,"status":"passed"},"step":{"line":5,"prefix":"Given","index":1,"text":"url  'https:\/\/gorest.co.in\/public\/v1\/users'"}},{"result":{"nanos":38693100,"millis":38.6931,"status":"passed"},"step":{"line":6,"prefix":"And","index":2,"text":"params query"}},{"result":{"nanos":1511668800,"millis":1511.6688,"status":"passed"},"step":{"line":7,"prefix":"When","index":3,"text":"method GET"},"stepLog":"19:00:07.232 request:\n1 > GET https:\/\/gorest.co.in\/public\/v1\/users?gender=male&status=active\n1 > Host: gorest.co.in\n1 > Connection: Keep-Alive\n1 > User-Agent: Apache-HttpClient\/4.5.12 (Java\/17.0.4.1)\n1 > Accept-Encoding: gzip,deflate\n\n\n19:00:08.125 response time in milliseconds: 888\n1 < 200\n1 < Date: Sat, 08 Oct 2022 23:00:08 GMT\n1 < Content-Type: application\/json; charset=utf-8\n1 < Transfer-Encoding: chunked\n1 < Connection: keep-alive\n1 < Cache-Control: max-age=0, private, must-revalidate\n1 < etag: W\/\"6b120e4679353469bfa7bd6f05ba6a2e\"\n1 < referrer-policy: strict-origin-when-cross-origin\n1 < vary: Origin\n1 < x-content-type-options: nosniff\n1 < x-download-options: noopen\n1 < x-frame-options: SAMEORIGIN\n1 < x-permitted-cross-domain-policies: none\n1 < x-request-id: 300def6b-6fcf-4ad2-8720-5afe323f3472\n1 < x-runtime: 0.019021\n1 < x-xss-protection: 0\n1 < CF-Cache-Status: DYNAMIC\n1 < Report-To: {\"endpoints\":[{\"url\":\"https:\\\/\\\/a.nel.cloudflare.com\\\/report\\\/v3?s=xCAQmqXcXXpl3mjwUSPrCFLACCghkuYNXUND%2Fu4XASZpEEJ7uqX6eLFl%2BXf1srsMkpiYXScqL1NvksoE7hIg7iG%2FvWJu6otwassjFwyLVn%2BxnkK9yx2A8%2BzeZkUvIZA%3D\"}],\"group\":\"cf-nel\",\"max_age\":604800}\n1 < NEL: {\"success_fraction\":0,\"report_to\":\"cf-nel\",\"max_age\":604800}\n1 < Server: cloudflare\n1 < CF-RAY: 75727dac7b91b0ed-ATL\n1 < alt-svc: h3=\":443\"; ma=86400, h3-29=\":443\"; ma=86400\n{\"meta\":{\"pagination\":{\"total\":833,\"pages\":84,\"page\":1,\"limit\":10,\"links\":{\"previous\":null,\"current\":\"https:\/\/gorest.co.in\/public\/v1\/users?page=1\",\"next\":\"https:\/\/gorest.co.in\/public\/v1\/users?page=2\"}}},\"data\":[{\"id\":3198,\"name\":\"Ekaling Ganaka Esq.\",\"email\":\"ganaka_ekaling_esq@oconner.biz\",\"gender\":\"male\",\"status\":\"active\"},{\"id\":3193,\"name\":\"Subhash Butt\",\"email\":\"subhash_butt@haag-flatley.info\",\"gender\":\"male\",\"status\":\"active\"},{\"id\":3192,\"name\":\"Amaranaath Kaur\",\"email\":\"amaranaath_kaur@schumm.org\",\"gender\":\"male\",\"status\":\"active\"},{\"id\":3189,\"name\":\"Baladitya Arora\",\"email\":\"baladitya_arora@koelpin.biz\",\"gender\":\"male\",\"status\":\"active\"},{\"id\":3187,\"name\":\"Anaadi Sethi DC\",\"email\":\"dc_sethi_anaadi@batz.net\",\"gender\":\"male\",\"status\":\"active\"},{\"id\":3174,\"name\":\"Mrs. Vishwamitra Shukla\",\"email\":\"mrs_shukla_vishwamitra@bosco.com\",\"gender\":\"male\",\"status\":\"active\"},{\"id\":3170,\"name\":\"Bala Kaul\",\"email\":\"bala_kaul@blick.biz\",\"gender\":\"male\",\"status\":\"active\"},{\"id\":3168,\"name\":\"Abhirath Malik\",\"email\":\"malik_abhirath@wisoky.org\",\"gender\":\"male\",\"status\":\"active\"},{\"id\":3159,\"name\":\"Chaitan Varrier\",\"email\":\"varrier_chaitan@rempel-jenkins.name\",\"gender\":\"male\",\"status\":\"active\"},{\"id\":3154,\"name\":\"Himani Somayaji\",\"email\":\"somayaji_himani@terry.org\",\"gender\":\"male\",\"status\":\"active\"}]}\n\n"},{"result":{"nanos":28500,"millis":0.0285,"status":"passed"},"step":{"line":8,"prefix":"Then","index":4,"text":"status 200"}},{"result":{"nanos":103079600,"millis":103.0796,"status":"passed"},"step":{"line":9,"prefix":"*","index":5,"text":"print response"},"stepLog":"19:00:08.231 [print] {\n  \"meta\": {\n    \"pagination\": {\n      \"total\": 833,\n      \"pages\": 84,\n      \"page\": 1,\n      \"limit\": 10,\n      \"links\": {\n        \"previous\": null,\n        \"current\": \"https:\/\/gorest.co.in\/public\/v1\/users?page=1\",\n        \"next\": \"https:\/\/gorest.co.in\/public\/v1\/users?page=2\"\n      }\n    }\n  },\n  \"data\": [\n    {\n      \"id\": 3198,\n      \"name\": \"Ekaling Ganaka Esq.\",\n      \"email\": \"ganaka_ekaling_esq@oconner.biz\",\n      \"gender\": \"male\",\n      \"status\": \"active\"\n    },\n    {\n      \"id\": 3193,\n      \"name\": \"Subhash Butt\",\n      \"email\": \"subhash_butt@haag-flatley.info\",\n      \"gender\": \"male\",\n      \"status\": \"active\"\n    },\n    {\n      \"id\": 3192,\n      \"name\": \"Amaranaath Kaur\",\n      \"email\": \"amaranaath_kaur@schumm.org\",\n      \"gender\": \"male\",\n      \"status\": \"active\"\n    },\n    {\n      \"id\": 3189,\n      \"name\": \"Baladitya Arora\",\n      \"email\": \"baladitya_arora@koelpin.biz\",\n      \"gender\": \"male\",\n      \"status\": \"active\"\n    },\n    {\n      \"id\": 3187,\n      \"name\": \"Anaadi Sethi DC\",\n      \"email\": \"dc_sethi_anaadi@batz.net\",\n      \"gender\": \"male\",\n      \"status\": \"active\"\n    },\n    {\n      \"id\": 3174,\n      \"name\": \"Mrs. Vishwamitra Shukla\",\n      \"email\": \"mrs_shukla_vishwamitra@bosco.com\",\n      \"gender\": \"male\",\n      \"status\": \"active\"\n    },\n    {\n      \"id\": 3170,\n      \"name\": \"Bala Kaul\",\n      \"email\": \"bala_kaul@blick.biz\",\n      \"gender\": \"male\",\n      \"status\": \"active\"\n    },\n    {\n      \"id\": 3168,\n      \"name\": \"Abhirath Malik\",\n      \"email\": \"malik_abhirath@wisoky.org\",\n      \"gender\": \"male\",\n      \"status\": \"active\"\n    },\n    {\n      \"id\": 3159,\n      \"name\": \"Chaitan Varrier\",\n      \"email\": \"varrier_chaitan@rempel-jenkins.name\",\n      \"gender\": \"male\",\n      \"status\": \"active\"\n    },\n    {\n      \"id\": 3154,\n      \"name\": \"Himani Somayaji\",\n      \"email\": \"somayaji_himani@terry.org\",\n      \"gender\": \"male\",\n      \"status\": \"active\"\n    }\n  ]\n}\n \n"}],"executorName":"main","line":3,"name":"GET API user details with query","description":"","durationMillis":1876.62,"startTime":1665270006337,"failed":false,"refId":"[1:3]","endTime":1665270008235,"exampleIndex":-1},{"sectionIndex":1,"stepResults":[{"result":{"nanos":753800,"millis":0.7538,"status":"passed"},"step":{"line":13,"prefix":"*","index":0,"text":"def query = {status: 'active'}"}},{"result":{"nanos":1900400,"millis":1.9004,"status":"passed"},"step":{"line":14,"prefix":"Given","index":1,"text":"url 'https:\/\/gorest.co.in\/public\/v1\/users'"}},{"result":{"nanos":290700,"millis":0.2907,"status":"passed"},"step":{"line":15,"prefix":"And","index":2,"text":"params query"}},{"result":{"nanos":446213700,"millis":446.2137,"status":"passed"},"step":{"line":16,"prefix":"When","index":3,"text":"method GET"},"stepLog":"19:00:08.259 request:\n1 > GET https:\/\/gorest.co.in\/public\/v1\/users?status=active\n1 > Host: gorest.co.in\n1 > Connection: Keep-Alive\n1 > User-Agent: Apache-HttpClient\/4.5.12 (Java\/17.0.4.1)\n1 > Accept-Encoding: gzip,deflate\n\n\n19:00:08.702 response time in milliseconds: 442\n1 < 200\n1 < Date: Sat, 08 Oct 2022 23:00:08 GMT\n1 < Content-Type: application\/json; charset=utf-8\n1 < Transfer-Encoding: chunked\n1 < Connection: keep-alive\n1 < Cache-Control: max-age=0, private, must-revalidate\n1 < etag: W\/\"d27d803885ecf6ed1a90bd37304aef46\"\n1 < referrer-policy: strict-origin-when-cross-origin\n1 < vary: Origin\n1 < x-content-type-options: nosniff\n1 < x-download-options: noopen\n1 < x-frame-options: SAMEORIGIN\n1 < x-permitted-cross-domain-policies: none\n1 < x-request-id: 1261ffda-b98f-46fa-b248-08ac38a41595\n1 < x-runtime: 0.045077\n1 < x-xss-protection: 0\n1 < CF-Cache-Status: DYNAMIC\n1 < Report-To: {\"endpoints\":[{\"url\":\"https:\\\/\\\/a.nel.cloudflare.com\\\/report\\\/v3?s=kQLNQej5tUvv4qFjeN7r0qpgarAmMfdvG6CoNBX6iSqkjtu3rSyaQ%2BfRTj74xyMVlhFJsWu5RFAlx6f4q08raCuaKGIAqiqon3P6ioG9WXO8ViREcwYAghJ6ikNQihg%3D\"}],\"group\":\"cf-nel\",\"max_age\":604800}\n1 < NEL: {\"success_fraction\":0,\"report_to\":\"cf-nel\",\"max_age\":604800}\n1 < Server: cloudflare\n1 < CF-RAY: 75727dafdb74b09f-ATL\n1 < alt-svc: h3=\":443\"; ma=86400, h3-29=\":443\"; ma=86400\n{\"meta\":{\"pagination\":{\"total\":1627,\"pages\":163,\"page\":1,\"limit\":10,\"links\":{\"previous\":null,\"current\":\"https:\/\/gorest.co.in\/public\/v1\/users?page=1\",\"next\":\"https:\/\/gorest.co.in\/public\/v1\/users?page=2\"}}},\"data\":[{\"id\":3198,\"name\":\"Ekaling Ganaka Esq.\",\"email\":\"ganaka_ekaling_esq@oconner.biz\",\"gender\":\"male\",\"status\":\"active\"},{\"id\":3196,\"name\":\"Aagneya Talwar\",\"email\":\"talwar_aagneya@hettinger.io\",\"gender\":\"female\",\"status\":\"active\"},{\"id\":3193,\"name\":\"Subhash Butt\",\"email\":\"subhash_butt@haag-flatley.info\",\"gender\":\"male\",\"status\":\"active\"},{\"id\":3192,\"name\":\"Amaranaath Kaur\",\"email\":\"amaranaath_kaur@schumm.org\",\"gender\":\"male\",\"status\":\"active\"},{\"id\":3189,\"name\":\"Baladitya Arora\",\"email\":\"baladitya_arora@koelpin.biz\",\"gender\":\"male\",\"status\":\"active\"},{\"id\":3188,\"name\":\"Ekdant Nair\",\"email\":\"ekdant_nair@wyman.org\",\"gender\":\"female\",\"status\":\"active\"},{\"id\":3187,\"name\":\"Anaadi Sethi DC\",\"email\":\"dc_sethi_anaadi@batz.net\",\"gender\":\"male\",\"status\":\"active\"},{\"id\":3183,\"name\":\"Aagney Nayar\",\"email\":\"aagney_nayar@dooley-moen.name\",\"gender\":\"female\",\"status\":\"active\"},{\"id\":3182,\"name\":\"Sanka Verma\",\"email\":\"sanka_verma@durgan-jast.name\",\"gender\":\"female\",\"status\":\"active\"},{\"id\":3180,\"name\":\"Trilok Nehru\",\"email\":\"trilok_nehru@murray.co\",\"gender\":\"female\",\"status\":\"active\"}]}\n\n"},{"result":{"nanos":21100,"millis":0.0211,"status":"passed"},"step":{"line":17,"prefix":"Then","index":4,"text":"status 200"}},{"result":{"nanos":3230200,"millis":3.2302,"status":"passed"},"step":{"line":18,"prefix":"*","index":5,"text":"print response"},"stepLog":"19:00:08.708 [print] {\n  \"meta\": {\n    \"pagination\": {\n      \"total\": 1627,\n      \"pages\": 163,\n      \"page\": 1,\n      \"limit\": 10,\n      \"links\": {\n        \"previous\": null,\n        \"current\": \"https:\/\/gorest.co.in\/public\/v1\/users?page=1\",\n        \"next\": \"https:\/\/gorest.co.in\/public\/v1\/users?page=2\"\n      }\n    }\n  },\n  \"data\": [\n    {\n      \"id\": 3198,\n      \"name\": \"Ekaling Ganaka Esq.\",\n      \"email\": \"ganaka_ekaling_esq@oconner.biz\",\n      \"gender\": \"male\",\n      \"status\": \"active\"\n    },\n    {\n      \"id\": 3196,\n      \"name\": \"Aagneya Talwar\",\n      \"email\": \"talwar_aagneya@hettinger.io\",\n      \"gender\": \"female\",\n      \"status\": \"active\"\n    },\n    {\n      \"id\": 3193,\n      \"name\": \"Subhash Butt\",\n      \"email\": \"subhash_butt@haag-flatley.info\",\n      \"gender\": \"male\",\n      \"status\": \"active\"\n    },\n    {\n      \"id\": 3192,\n      \"name\": \"Amaranaath Kaur\",\n      \"email\": \"amaranaath_kaur@schumm.org\",\n      \"gender\": \"male\",\n      \"status\": \"active\"\n    },\n    {\n      \"id\": 3189,\n      \"name\": \"Baladitya Arora\",\n      \"email\": \"baladitya_arora@koelpin.biz\",\n      \"gender\": \"male\",\n      \"status\": \"active\"\n    },\n    {\n      \"id\": 3188,\n      \"name\": \"Ekdant Nair\",\n      \"email\": \"ekdant_nair@wyman.org\",\n      \"gender\": \"female\",\n      \"status\": \"active\"\n    },\n    {\n      \"id\": 3187,\n      \"name\": \"Anaadi Sethi DC\",\n      \"email\": \"dc_sethi_anaadi@batz.net\",\n      \"gender\": \"male\",\n      \"status\": \"active\"\n    },\n    {\n      \"id\": 3183,\n      \"name\": \"Aagney Nayar\",\n      \"email\": \"aagney_nayar@dooley-moen.name\",\n      \"gender\": \"female\",\n      \"status\": \"active\"\n    },\n    {\n      \"id\": 3182,\n      \"name\": \"Sanka Verma\",\n      \"email\": \"sanka_verma@durgan-jast.name\",\n      \"gender\": \"female\",\n      \"status\": \"active\"\n    },\n    {\n      \"id\": 3180,\n      \"name\": \"Trilok Nehru\",\n      \"email\": \"trilok_nehru@murray.co\",\n      \"gender\": \"female\",\n      \"status\": \"active\"\n    }\n  ]\n}\n \n"},{"result":{"nanos":1133700,"millis":1.1337,"status":"passed"},"step":{"line":19,"prefix":"*","index":6,"text":"def jsonResponse = response"}},{"result":{"nanos":3408600,"millis":3.4086,"status":"passed"},"step":{"line":20,"prefix":"*","index":7,"text":"print jsonResponse"},"stepLog":"19:00:08.713 [print] {\n  \"meta\": {\n    \"pagination\": {\n      \"total\": 1627,\n      \"pages\": 163,\n      \"page\": 1,\n      \"limit\": 10,\n      \"links\": {\n        \"previous\": null,\n        \"current\": \"https:\/\/gorest.co.in\/public\/v1\/users?page=1\",\n        \"next\": \"https:\/\/gorest.co.in\/public\/v1\/users?page=2\"\n      }\n    }\n  },\n  \"data\": [\n    {\n      \"id\": 3198,\n      \"name\": \"Ekaling Ganaka Esq.\",\n      \"email\": \"ganaka_ekaling_esq@oconner.biz\",\n      \"gender\": \"male\",\n      \"status\": \"active\"\n    },\n    {\n      \"id\": 3196,\n      \"name\": \"Aagneya Talwar\",\n      \"email\": \"talwar_aagneya@hettinger.io\",\n      \"gender\": \"female\",\n      \"status\": \"active\"\n    },\n    {\n      \"id\": 3193,\n      \"name\": \"Subhash Butt\",\n      \"email\": \"subhash_butt@haag-flatley.info\",\n      \"gender\": \"male\",\n      \"status\": \"active\"\n    },\n    {\n      \"id\": 3192,\n      \"name\": \"Amaranaath Kaur\",\n      \"email\": \"amaranaath_kaur@schumm.org\",\n      \"gender\": \"male\",\n      \"status\": \"active\"\n    },\n    {\n      \"id\": 3189,\n      \"name\": \"Baladitya Arora\",\n      \"email\": \"baladitya_arora@koelpin.biz\",\n      \"gender\": \"male\",\n      \"status\": \"active\"\n    },\n    {\n      \"id\": 3188,\n      \"name\": \"Ekdant Nair\",\n      \"email\": \"ekdant_nair@wyman.org\",\n      \"gender\": \"female\",\n      \"status\": \"active\"\n    },\n    {\n      \"id\": 3187,\n      \"name\": \"Anaadi Sethi DC\",\n      \"email\": \"dc_sethi_anaadi@batz.net\",\n      \"gender\": \"male\",\n      \"status\": \"active\"\n    },\n    {\n      \"id\": 3183,\n      \"name\": \"Aagney Nayar\",\n      \"email\": \"aagney_nayar@dooley-moen.name\",\n      \"gender\": \"female\",\n      \"status\": \"active\"\n    },\n    {\n      \"id\": 3182,\n      \"name\": \"Sanka Verma\",\n      \"email\": \"sanka_verma@durgan-jast.name\",\n      \"gender\": \"female\",\n      \"status\": \"active\"\n    },\n    {\n      \"id\": 3180,\n      \"name\": \"Trilok Nehru\",\n      \"email\": \"trilok_nehru@murray.co\",\n      \"gender\": \"female\",\n      \"status\": \"active\"\n    }\n  ]\n}\n \n"},{"result":{"nanos":3721100,"millis":3.7211,"status":"passed"},"step":{"line":21,"prefix":"*","index":8,"text":"def userCount = jsonResponse.data.length"}},{"result":{"nanos":2426500,"millis":2.4265,"status":"passed"},"step":{"line":22,"prefix":"*","index":9,"text":"print userCount"},"stepLog":"19:00:08.719 [print] 10 \n"},{"result":{"nanos":16751900,"millis":16.7519,"status":"passed"},"step":{"line":23,"prefix":"*","index":10,"text":"match userCount == 10"}}],"executorName":"main","line":12,"name":"GET API user details","description":"","durationMillis":479.8517,"startTime":1665270008254,"failed":false,"refId":"[2:12]","endTime":1665270008737,"exampleIndex":-1}],"callDepth":0,"name":"GET API with query parameter","description":"","resultDate":"2022-10-08 07:00:08 pm","durationMillis":2356.4717,"passedCount":2}