{"failedCount":0,"prefixedPath":"src\/test\/java\/Features\/GETapiquery.feature","packageQualifiedName":"src.test.java.Features.GETapiquery","loopIndex":-1,"relativePath":"src\/test\/java\/Features\/GETapiquery.feature","scenarioResults":[{"sectionIndex":0,"stepResults":[{"result":{"nanos":75359300,"millis":75.3593,"status":"passed"},"step":{"line":4,"prefix":"*","index":0,"text":"def query = {status: 'active', gender: 'male'}"}},{"result":{"nanos":137047200,"millis":137.0472,"status":"passed"},"step":{"line":5,"prefix":"Given","index":1,"text":"url 'https:\/\/gorest.co.in\/public\/v1\/users'"}},{"result":{"nanos":1949414400,"millis":1949.4144,"status":"passed"},"step":{"line":6,"prefix":"When","index":2,"text":"method GET"},"stepLog":"12:58:51.941 request:\n1 > GET https:\/\/gorest.co.in\/public\/v1\/users\n1 > Host: gorest.co.in\n1 > Connection: Keep-Alive\n1 > User-Agent: Apache-HttpClient\/4.5.12 (Java\/17.0.4.1)\n1 > Accept-Encoding: gzip,deflate\n\n\n12:58:53.408 response time in milliseconds: 1460\n1 < 200\n1 < Date: Tue, 11 Oct 2022 16:58:53 GMT\n1 < Content-Type: application\/json; charset=utf-8\n1 < Transfer-Encoding: chunked\n1 < Connection: keep-alive\n1 < Cache-Control: max-age=0, private, must-revalidate\n1 < etag: W\/\"2ee12af133f21a8780d01e1b16f96d05\"\n1 < referrer-policy: strict-origin-when-cross-origin\n1 < vary: Origin\n1 < x-content-type-options: nosniff\n1 < x-download-options: noopen\n1 < x-frame-options: SAMEORIGIN\n1 < x-permitted-cross-domain-policies: none\n1 < x-request-id: e15bdefd-a734-4ea0-bbe0-cf9fe0f9a233\n1 < x-runtime: 0.033791\n1 < x-xss-protection: 0\n1 < CF-Cache-Status: DYNAMIC\n1 < Report-To: {\"endpoints\":[{\"url\":\"https:\\\/\\\/a.nel.cloudflare.com\\\/report\\\/v3?s=n7UQ6D9u8V6mjKbtSbW4ah%2BFGsXcaUW7afbddcV1hu4RVrZoSmIY5RJPcs4RpoTlrPvaxUseHCPI1R2MELe0oKXf7PZ5Ke3cgQHTrOJkvHQXxjO0QGX6ppnSFsjMh1Y%3D\"}],\"group\":\"cf-nel\",\"max_age\":604800}\n1 < NEL: {\"success_fraction\":0,\"report_to\":\"cf-nel\",\"max_age\":604800}\n1 < Server: cloudflare\n1 < CF-RAY: 7589249d99a217ef-ATL\n1 < alt-svc: h3=\":443\"; ma=86400, h3-29=\":443\"; ma=86400\n{\"meta\":{\"pagination\":{\"total\":2097,\"pages\":210,\"page\":1,\"limit\":10,\"links\":{\"previous\":null,\"current\":\"https:\/\/gorest.co.in\/public\/v1\/users?page=1\",\"next\":\"https:\/\/gorest.co.in\/public\/v1\/users?page=2\"}}},\"data\":[{\"id\":2164,\"name\":\"Nirbhay Bhattathiri DO\",\"email\":\"bhattathiri_nirbhay_do@ledner.io\",\"gender\":\"female\",\"status\":\"active\"},{\"id\":2163,\"name\":\"Uttam Mishra VM\",\"email\":\"vm_mishra_uttam@mayert-hartmann.com\",\"gender\":\"male\",\"status\":\"active\"},{\"id\":2161,\"name\":\"Chaaruchandra Kapoor PhD\",\"email\":\"chaaruchandra_kapoor_phd@borer.co\",\"gender\":\"male\",\"status\":\"active\"},{\"id\":2160,\"name\":\"Jaimini Tagore\",\"email\":\"jaimini_tagore@jacobson.net\",\"gender\":\"male\",\"status\":\"active\"},{\"id\":2159,\"name\":\"Darshan Namboothiri VM\",\"email\":\"darshan_vm_namboothiri@kilback-auer.net\",\"gender\":\"female\",\"status\":\"inactive\"},{\"id\":2158,\"name\":\"Aditya Sethi\",\"email\":\"aditya_sethi@mohr.org\",\"gender\":\"female\",\"status\":\"inactive\"},{\"id\":2157,\"name\":\"Swara Trivedi\",\"email\":\"swara_trivedi@wolf-orn.com\",\"gender\":\"female\",\"status\":\"active\"},{\"id\":2156,\"name\":\"Dhyanesh Mahajan\",\"email\":\"dhyanesh_mahajan@heller-stanton.biz\",\"gender\":\"female\",\"status\":\"active\"},{\"id\":2155,\"name\":\"Dipankar Shukla\",\"email\":\"shukla_dipankar@thompson.com\",\"gender\":\"male\",\"status\":\"active\"},{\"id\":2154,\"name\":\"Vidur Varman\",\"email\":\"vidur_varman@welch-schimmel.io\",\"gender\":\"female\",\"status\":\"active\"}]}\n\n"},{"result":{"nanos":40000,"millis":0.04,"status":"passed"},"step":{"line":7,"prefix":"Then","index":3,"text":"status 200"}},{"result":{"nanos":111937500,"millis":111.9375,"status":"passed"},"step":{"line":8,"prefix":"*","index":4,"text":"print response"},"stepLog":"12:58:53.525 [print] {\n  \"meta\": {\n    \"pagination\": {\n      \"total\": 2097,\n      \"pages\": 210,\n      \"page\": 1,\n      \"limit\": 10,\n      \"links\": {\n        \"previous\": null,\n        \"current\": \"https:\/\/gorest.co.in\/public\/v1\/users?page=1\",\n        \"next\": \"https:\/\/gorest.co.in\/public\/v1\/users?page=2\"\n      }\n    }\n  },\n  \"data\": [\n    {\n      \"id\": 2164,\n      \"name\": \"Nirbhay Bhattathiri DO\",\n      \"email\": \"bhattathiri_nirbhay_do@ledner.io\",\n      \"gender\": \"female\",\n      \"status\": \"active\"\n    },\n    {\n      \"id\": 2163,\n      \"name\": \"Uttam Mishra VM\",\n      \"email\": \"vm_mishra_uttam@mayert-hartmann.com\",\n      \"gender\": \"male\",\n      \"status\": \"active\"\n    },\n    {\n      \"id\": 2161,\n      \"name\": \"Chaaruchandra Kapoor PhD\",\n      \"email\": \"chaaruchandra_kapoor_phd@borer.co\",\n      \"gender\": \"male\",\n      \"status\": \"active\"\n    },\n    {\n      \"id\": 2160,\n      \"name\": \"Jaimini Tagore\",\n      \"email\": \"jaimini_tagore@jacobson.net\",\n      \"gender\": \"male\",\n      \"status\": \"active\"\n    },\n    {\n      \"id\": 2159,\n      \"name\": \"Darshan Namboothiri VM\",\n      \"email\": \"darshan_vm_namboothiri@kilback-auer.net\",\n      \"gender\": \"female\",\n      \"status\": \"inactive\"\n    },\n    {\n      \"id\": 2158,\n      \"name\": \"Aditya Sethi\",\n      \"email\": \"aditya_sethi@mohr.org\",\n      \"gender\": \"female\",\n      \"status\": \"inactive\"\n    },\n    {\n      \"id\": 2157,\n      \"name\": \"Swara Trivedi\",\n      \"email\": \"swara_trivedi@wolf-orn.com\",\n      \"gender\": \"female\",\n      \"status\": \"active\"\n    },\n    {\n      \"id\": 2156,\n      \"name\": \"Dhyanesh Mahajan\",\n      \"email\": \"dhyanesh_mahajan@heller-stanton.biz\",\n      \"gender\": \"female\",\n      \"status\": \"active\"\n    },\n    {\n      \"id\": 2155,\n      \"name\": \"Dipankar Shukla\",\n      \"email\": \"shukla_dipankar@thompson.com\",\n      \"gender\": \"male\",\n      \"status\": \"active\"\n    },\n    {\n      \"id\": 2154,\n      \"name\": \"Vidur Varman\",\n      \"email\": \"vidur_varman@welch-schimmel.io\",\n      \"gender\": \"female\",\n      \"status\": \"active\"\n    }\n  ]\n}\n \n"}],"executorName":"main","line":3,"name":"GET API user details with query paramerts","description":"","durationMillis":2273.7984,"startTime":1665507531230,"failed":false,"refId":"[1:3]","endTime":1665507533528,"exampleIndex":-1},{"sectionIndex":1,"stepResults":[{"result":{"nanos":1699900,"millis":1.6999,"status":"passed"},"step":{"line":11,"prefix":"*","index":0,"text":"def query = {status:'active'}"}},{"result":{"nanos":737300,"millis":0.7373,"status":"passed"},"step":{"line":12,"prefix":"Given","index":1,"text":"url 'https:\/\/gorest.co.in\/public\/v1\/users'"}},{"result":{"nanos":937826600,"millis":937.8266,"status":"passed"},"step":{"line":13,"prefix":"When","index":2,"text":"method GET"},"stepLog":"12:58:53.543 request:\n1 > GET https:\/\/gorest.co.in\/public\/v1\/users\n1 > Host: gorest.co.in\n1 > Connection: Keep-Alive\n1 > User-Agent: Apache-HttpClient\/4.5.12 (Java\/17.0.4.1)\n1 > Accept-Encoding: gzip,deflate\n\n\n12:58:54.476 response time in milliseconds: 932\n1 < 200\n1 < Date: Tue, 11 Oct 2022 16:58:54 GMT\n1 < Content-Type: application\/json; charset=utf-8\n1 < Transfer-Encoding: chunked\n1 < Connection: keep-alive\n1 < Cache-Control: max-age=0, private, must-revalidate\n1 < etag: W\/\"2ee12af133f21a8780d01e1b16f96d05\"\n1 < referrer-policy: strict-origin-when-cross-origin\n1 < vary: Origin\n1 < x-content-type-options: nosniff\n1 < x-download-options: noopen\n1 < x-frame-options: SAMEORIGIN\n1 < x-permitted-cross-domain-policies: none\n1 < x-request-id: dc24c26b-8afa-41dd-b1cf-bb6799c3c3f7\n1 < x-runtime: 0.023269\n1 < x-xss-protection: 0\n1 < CF-Cache-Status: DYNAMIC\n1 < Report-To: {\"endpoints\":[{\"url\":\"https:\\\/\\\/a.nel.cloudflare.com\\\/report\\\/v3?s=mKm%2B0TY%2FcG4gcIngksomCwqkYq1e1Zc0GMfZtechIPm2S55qQp0JMzIC8MvHnTgv83Ax6yxLzVeXmuhjIgXx0SQyufSO8tFKlJunT9mhTbpq8WdkqvFY4NBJrJCsy2Q%3D\"}],\"group\":\"cf-nel\",\"max_age\":604800}\n1 < NEL: {\"success_fraction\":0,\"report_to\":\"cf-nel\",\"max_age\":604800}\n1 < Server: cloudflare\n1 < CF-RAY: 758924a52aa2b16f-ATL\n1 < alt-svc: h3=\":443\"; ma=86400, h3-29=\":443\"; ma=86400\n{\"meta\":{\"pagination\":{\"total\":2097,\"pages\":210,\"page\":1,\"limit\":10,\"links\":{\"previous\":null,\"current\":\"https:\/\/gorest.co.in\/public\/v1\/users?page=1\",\"next\":\"https:\/\/gorest.co.in\/public\/v1\/users?page=2\"}}},\"data\":[{\"id\":2164,\"name\":\"Nirbhay Bhattathiri DO\",\"email\":\"bhattathiri_nirbhay_do@ledner.io\",\"gender\":\"female\",\"status\":\"active\"},{\"id\":2163,\"name\":\"Uttam Mishra VM\",\"email\":\"vm_mishra_uttam@mayert-hartmann.com\",\"gender\":\"male\",\"status\":\"active\"},{\"id\":2161,\"name\":\"Chaaruchandra Kapoor PhD\",\"email\":\"chaaruchandra_kapoor_phd@borer.co\",\"gender\":\"male\",\"status\":\"active\"},{\"id\":2160,\"name\":\"Jaimini Tagore\",\"email\":\"jaimini_tagore@jacobson.net\",\"gender\":\"male\",\"status\":\"active\"},{\"id\":2159,\"name\":\"Darshan Namboothiri VM\",\"email\":\"darshan_vm_namboothiri@kilback-auer.net\",\"gender\":\"female\",\"status\":\"inactive\"},{\"id\":2158,\"name\":\"Aditya Sethi\",\"email\":\"aditya_sethi@mohr.org\",\"gender\":\"female\",\"status\":\"inactive\"},{\"id\":2157,\"name\":\"Swara Trivedi\",\"email\":\"swara_trivedi@wolf-orn.com\",\"gender\":\"female\",\"status\":\"active\"},{\"id\":2156,\"name\":\"Dhyanesh Mahajan\",\"email\":\"dhyanesh_mahajan@heller-stanton.biz\",\"gender\":\"female\",\"status\":\"active\"},{\"id\":2155,\"name\":\"Dipankar Shukla\",\"email\":\"shukla_dipankar@thompson.com\",\"gender\":\"male\",\"status\":\"active\"},{\"id\":2154,\"name\":\"Vidur Varman\",\"email\":\"vidur_varman@welch-schimmel.io\",\"gender\":\"female\",\"status\":\"active\"}]}\n\n"},{"result":{"nanos":31600,"millis":0.0316,"status":"passed"},"step":{"line":14,"prefix":"Then","index":3,"text":"status 200"}},{"result":{"nanos":3820300,"millis":3.8203,"status":"passed"},"step":{"line":15,"prefix":"*","index":4,"text":"print response"},"stepLog":"12:58:54.483 [print] {\n  \"meta\": {\n    \"pagination\": {\n      \"total\": 2097,\n      \"pages\": 210,\n      \"page\": 1,\n      \"limit\": 10,\n      \"links\": {\n        \"previous\": null,\n        \"current\": \"https:\/\/gorest.co.in\/public\/v1\/users?page=1\",\n        \"next\": \"https:\/\/gorest.co.in\/public\/v1\/users?page=2\"\n      }\n    }\n  },\n  \"data\": [\n    {\n      \"id\": 2164,\n      \"name\": \"Nirbhay Bhattathiri DO\",\n      \"email\": \"bhattathiri_nirbhay_do@ledner.io\",\n      \"gender\": \"female\",\n      \"status\": \"active\"\n    },\n    {\n      \"id\": 2163,\n      \"name\": \"Uttam Mishra VM\",\n      \"email\": \"vm_mishra_uttam@mayert-hartmann.com\",\n      \"gender\": \"male\",\n      \"status\": \"active\"\n    },\n    {\n      \"id\": 2161,\n      \"name\": \"Chaaruchandra Kapoor PhD\",\n      \"email\": \"chaaruchandra_kapoor_phd@borer.co\",\n      \"gender\": \"male\",\n      \"status\": \"active\"\n    },\n    {\n      \"id\": 2160,\n      \"name\": \"Jaimini Tagore\",\n      \"email\": \"jaimini_tagore@jacobson.net\",\n      \"gender\": \"male\",\n      \"status\": \"active\"\n    },\n    {\n      \"id\": 2159,\n      \"name\": \"Darshan Namboothiri VM\",\n      \"email\": \"darshan_vm_namboothiri@kilback-auer.net\",\n      \"gender\": \"female\",\n      \"status\": \"inactive\"\n    },\n    {\n      \"id\": 2158,\n      \"name\": \"Aditya Sethi\",\n      \"email\": \"aditya_sethi@mohr.org\",\n      \"gender\": \"female\",\n      \"status\": \"inactive\"\n    },\n    {\n      \"id\": 2157,\n      \"name\": \"Swara Trivedi\",\n      \"email\": \"swara_trivedi@wolf-orn.com\",\n      \"gender\": \"female\",\n      \"status\": \"active\"\n    },\n    {\n      \"id\": 2156,\n      \"name\": \"Dhyanesh Mahajan\",\n      \"email\": \"dhyanesh_mahajan@heller-stanton.biz\",\n      \"gender\": \"female\",\n      \"status\": \"active\"\n    },\n    {\n      \"id\": 2155,\n      \"name\": \"Dipankar Shukla\",\n      \"email\": \"shukla_dipankar@thompson.com\",\n      \"gender\": \"male\",\n      \"status\": \"active\"\n    },\n    {\n      \"id\": 2154,\n      \"name\": \"Vidur Varman\",\n      \"email\": \"vidur_varman@welch-schimmel.io\",\n      \"gender\": \"female\",\n      \"status\": \"active\"\n    }\n  ]\n}\n \n"},{"result":{"nanos":16707900,"millis":16.7079,"status":"passed"},"step":{"line":16,"prefix":"*","index":5,"text":"def jsonResponse = response"}},{"result":{"nanos":2022400,"millis":2.0224,"status":"passed"},"step":{"line":17,"prefix":"*","index":6,"text":"print jsonResponse"},"stepLog":"12:58:54.502 [print] {\n  \"meta\": {\n    \"pagination\": {\n      \"total\": 2097,\n      \"pages\": 210,\n      \"page\": 1,\n      \"limit\": 10,\n      \"links\": {\n        \"previous\": null,\n        \"current\": \"https:\/\/gorest.co.in\/public\/v1\/users?page=1\",\n        \"next\": \"https:\/\/gorest.co.in\/public\/v1\/users?page=2\"\n      }\n    }\n  },\n  \"data\": [\n    {\n      \"id\": 2164,\n      \"name\": \"Nirbhay Bhattathiri DO\",\n      \"email\": \"bhattathiri_nirbhay_do@ledner.io\",\n      \"gender\": \"female\",\n      \"status\": \"active\"\n    },\n    {\n      \"id\": 2163,\n      \"name\": \"Uttam Mishra VM\",\n      \"email\": \"vm_mishra_uttam@mayert-hartmann.com\",\n      \"gender\": \"male\",\n      \"status\": \"active\"\n    },\n    {\n      \"id\": 2161,\n      \"name\": \"Chaaruchandra Kapoor PhD\",\n      \"email\": \"chaaruchandra_kapoor_phd@borer.co\",\n      \"gender\": \"male\",\n      \"status\": \"active\"\n    },\n    {\n      \"id\": 2160,\n      \"name\": \"Jaimini Tagore\",\n      \"email\": \"jaimini_tagore@jacobson.net\",\n      \"gender\": \"male\",\n      \"status\": \"active\"\n    },\n    {\n      \"id\": 2159,\n      \"name\": \"Darshan Namboothiri VM\",\n      \"email\": \"darshan_vm_namboothiri@kilback-auer.net\",\n      \"gender\": \"female\",\n      \"status\": \"inactive\"\n    },\n    {\n      \"id\": 2158,\n      \"name\": \"Aditya Sethi\",\n      \"email\": \"aditya_sethi@mohr.org\",\n      \"gender\": \"female\",\n      \"status\": \"inactive\"\n    },\n    {\n      \"id\": 2157,\n      \"name\": \"Swara Trivedi\",\n      \"email\": \"swara_trivedi@wolf-orn.com\",\n      \"gender\": \"female\",\n      \"status\": \"active\"\n    },\n    {\n      \"id\": 2156,\n      \"name\": \"Dhyanesh Mahajan\",\n      \"email\": \"dhyanesh_mahajan@heller-stanton.biz\",\n      \"gender\": \"female\",\n      \"status\": \"active\"\n    },\n    {\n      \"id\": 2155,\n      \"name\": \"Dipankar Shukla\",\n      \"email\": \"shukla_dipankar@thompson.com\",\n      \"gender\": \"male\",\n      \"status\": \"active\"\n    },\n    {\n      \"id\": 2154,\n      \"name\": \"Vidur Varman\",\n      \"email\": \"vidur_varman@welch-schimmel.io\",\n      \"gender\": \"female\",\n      \"status\": \"active\"\n    }\n  ]\n}\n \n"},{"result":{"nanos":10829500,"millis":10.8295,"status":"passed"},"step":{"line":18,"prefix":"*","index":7,"text":"def userCount = jsonResponse.data.userCount"}},{"result":{"nanos":1929900,"millis":1.9299,"status":"passed"},"step":{"line":19,"prefix":"*","index":8,"text":"print userCount"},"stepLog":"12:58:54.515 [print] null \n"}],"executorName":"main","line":10,"name":"GET API details with query","description":"","durationMillis":975.6054,"startTime":1665507533538,"failed":false,"refId":"[2:10]","endTime":1665507534515,"exampleIndex":-1}],"callDepth":0,"name":"GET API with query","description":"","resultDate":"2022-10-11 12:58:54 pm","durationMillis":3249.4038,"passedCount":2}