{"failedCount":0,"prefixedPath":"src\/test\/java\/Features\/GETapiquery.feature","packageQualifiedName":"src.test.java.Features.GETapiquery","loopIndex":-1,"relativePath":"src\/test\/java\/Features\/GETapiquery.feature","scenarioResults":[{"sectionIndex":0,"stepResults":[{"result":{"nanos":84130500,"millis":84.1305,"status":"passed"},"step":{"line":4,"prefix":"*","index":0,"text":"def query = {status:'active'}"}},{"result":{"nanos":164016500,"millis":164.0165,"status":"passed"},"step":{"line":5,"prefix":"Given","index":1,"text":"url 'https:\/\/gorest.co.in\/public\/v1\/users'"}},{"result":{"nanos":58397100,"millis":58.3971,"status":"passed"},"step":{"line":6,"prefix":"And","index":2,"text":"params query"}},{"result":{"nanos":1928444200,"millis":1928.4442,"status":"passed"},"step":{"line":7,"prefix":"When","index":3,"text":"method GET"},"stepLog":"12:02:23.079 request:\n1 > GET https:\/\/gorest.co.in\/public\/v1\/users?status=active\n1 > Host: gorest.co.in\n1 > Connection: Keep-Alive\n1 > User-Agent: Apache-HttpClient\/4.5.12 (Java\/17.0.4.1)\n1 > Accept-Encoding: gzip,deflate\n\n\n12:02:24.485 response time in milliseconds: 1401\n1 < 200\n1 < Date: Sat, 08 Oct 2022 16:02:24 GMT\n1 < Content-Type: application\/json; charset=utf-8\n1 < Transfer-Encoding: chunked\n1 < Connection: keep-alive\n1 < Cache-Control: max-age=0, private, must-revalidate\n1 < etag: W\/\"80b70218051831ef0fc41b3a260b8031\"\n1 < referrer-policy: strict-origin-when-cross-origin\n1 < vary: Origin\n1 < x-content-type-options: nosniff\n1 < x-download-options: noopen\n1 < x-frame-options: SAMEORIGIN\n1 < x-permitted-cross-domain-policies: none\n1 < x-request-id: 2fb810d8-7885-4643-b932-9024c3d29ad3\n1 < x-runtime: 0.019978\n1 < x-xss-protection: 0\n1 < CF-Cache-Status: DYNAMIC\n1 < Report-To: {\"endpoints\":[{\"url\":\"https:\\\/\\\/a.nel.cloudflare.com\\\/report\\\/v3?s=veKSRcZG1P9i9rQ7DOsFblQm%2BK%2BONXsVbyoMFW%2B%2FDU9qsvYnaCdSWX7SM6XqeiVH%2FVh5c%2BK5XLRhDDoBRENUK5VPdYL4pC%2B8BAm9vxTxdpocbWFEGB%2F%2B6pfyntPfvNg%3D\"}],\"group\":\"cf-nel\",\"max_age\":604800}\n1 < NEL: {\"success_fraction\":0,\"report_to\":\"cf-nel\",\"max_age\":604800}\n1 < Server: cloudflare\n1 < CF-RAY: 757019c0da4aad1f-ATL\n1 < alt-svc: h3=\":443\"; ma=86400, h3-29=\":443\"; ma=86400\n{\"meta\":{\"pagination\":{\"total\":1668,\"pages\":167,\"page\":1,\"limit\":10,\"links\":{\"previous\":null,\"current\":\"https:\/\/gorest.co.in\/public\/v1\/users?page=1\",\"next\":\"https:\/\/gorest.co.in\/public\/v1\/users?page=2\"}}},\"data\":[{\"id\":3397,\"name\":\"Charumati Patil\",\"email\":\"patil_charumati@herzog-altenwerth.com\",\"gender\":\"male\",\"status\":\"active\"},{\"id\":3392,\"name\":\"Shanti Kocchar\",\"email\":\"kocchar_shanti@wilderman.name\",\"gender\":\"male\",\"status\":\"active\"},{\"id\":3391,\"name\":\"Aadi Agarwal\",\"email\":\"agarwal_aadi@daniel.com\",\"gender\":\"male\",\"status\":\"active\"},{\"id\":3390,\"name\":\"Anurag Asan\",\"email\":\"anurag_asan@walter.co\",\"gender\":\"female\",\"status\":\"active\"},{\"id\":3389,\"name\":\"Gorakhanatha Shukla MD\",\"email\":\"gorakhanatha_shukla_md@tillman.name\",\"gender\":\"female\",\"status\":\"active\"},{\"id\":3386,\"name\":\"Vedang Shah\",\"email\":\"vedang_shah@jakubowski.com\",\"gender\":\"female\",\"status\":\"active\"},{\"id\":3385,\"name\":\"Baalaaditya Pilla\",\"email\":\"baalaaditya_pilla@romaguera.biz\",\"gender\":\"female\",\"status\":\"active\"},{\"id\":3384,\"name\":\"Hari Pillai\",\"email\":\"pillai_hari@johnston.org\",\"gender\":\"female\",\"status\":\"active\"},{\"id\":3383,\"name\":\"Niranjan Adiga\",\"email\":\"adiga_niranjan@halvorson.co\",\"gender\":\"female\",\"status\":\"active\"},{\"id\":3380,\"name\":\"Siddhi Banerjee\",\"email\":\"siddhi_banerjee@wolff.com\",\"gender\":\"male\",\"status\":\"active\"}]}\n\n"},{"result":{"nanos":28600,"millis":0.0286,"status":"passed"},"step":{"line":8,"prefix":"Then","index":4,"text":"status 200"}},{"result":{"nanos":105012500,"millis":105.0125,"status":"passed"},"step":{"line":9,"prefix":"*","index":5,"text":"print response"},"stepLog":"12:02:24.598 [print] {\n  \"meta\": {\n    \"pagination\": {\n      \"total\": 1668,\n      \"pages\": 167,\n      \"page\": 1,\n      \"limit\": 10,\n      \"links\": {\n        \"previous\": null,\n        \"current\": \"https:\/\/gorest.co.in\/public\/v1\/users?page=1\",\n        \"next\": \"https:\/\/gorest.co.in\/public\/v1\/users?page=2\"\n      }\n    }\n  },\n  \"data\": [\n    {\n      \"id\": 3397,\n      \"name\": \"Charumati Patil\",\n      \"email\": \"patil_charumati@herzog-altenwerth.com\",\n      \"gender\": \"male\",\n      \"status\": \"active\"\n    },\n    {\n      \"id\": 3392,\n      \"name\": \"Shanti Kocchar\",\n      \"email\": \"kocchar_shanti@wilderman.name\",\n      \"gender\": \"male\",\n      \"status\": \"active\"\n    },\n    {\n      \"id\": 3391,\n      \"name\": \"Aadi Agarwal\",\n      \"email\": \"agarwal_aadi@daniel.com\",\n      \"gender\": \"male\",\n      \"status\": \"active\"\n    },\n    {\n      \"id\": 3390,\n      \"name\": \"Anurag Asan\",\n      \"email\": \"anurag_asan@walter.co\",\n      \"gender\": \"female\",\n      \"status\": \"active\"\n    },\n    {\n      \"id\": 3389,\n      \"name\": \"Gorakhanatha Shukla MD\",\n      \"email\": \"gorakhanatha_shukla_md@tillman.name\",\n      \"gender\": \"female\",\n      \"status\": \"active\"\n    },\n    {\n      \"id\": 3386,\n      \"name\": \"Vedang Shah\",\n      \"email\": \"vedang_shah@jakubowski.com\",\n      \"gender\": \"female\",\n      \"status\": \"active\"\n    },\n    {\n      \"id\": 3385,\n      \"name\": \"Baalaaditya Pilla\",\n      \"email\": \"baalaaditya_pilla@romaguera.biz\",\n      \"gender\": \"female\",\n      \"status\": \"active\"\n    },\n    {\n      \"id\": 3384,\n      \"name\": \"Hari Pillai\",\n      \"email\": \"pillai_hari@johnston.org\",\n      \"gender\": \"female\",\n      \"status\": \"active\"\n    },\n    {\n      \"id\": 3383,\n      \"name\": \"Niranjan Adiga\",\n      \"email\": \"adiga_niranjan@halvorson.co\",\n      \"gender\": \"female\",\n      \"status\": \"active\"\n    },\n    {\n      \"id\": 3380,\n      \"name\": \"Siddhi Banerjee\",\n      \"email\": \"siddhi_banerjee@wolff.com\",\n      \"gender\": \"male\",\n      \"status\": \"active\"\n    }\n  ]\n}\n \n"}],"executorName":"main","line":3,"name":"GET api active user","description":"","durationMillis":2340.0294,"startTime":1665244942229,"failed":false,"refId":"[1:3]","endTime":1665244944599,"exampleIndex":-1}],"callDepth":0,"name":"GET api active user details","description":"","resultDate":"2022-10-08 12:02:24 pm","durationMillis":2340.0294,"passedCount":1}