{"failedCount":0,"prefixedPath":"src\/test\/java\/Features\/GETapiquery.feature","packageQualifiedName":"src.test.java.Features.GETapiquery","loopIndex":-1,"relativePath":"src\/test\/java\/Features\/GETapiquery.feature","scenarioResults":[{"sectionIndex":0,"stepResults":[{"result":{"nanos":110390300,"millis":110.3903,"status":"passed"},"step":{"line":4,"prefix":"*","index":0,"text":"def query = {status:'active'}"}},{"result":{"nanos":208630200,"millis":208.6302,"status":"passed"},"step":{"line":5,"prefix":"Given","index":1,"text":"url 'https:\/\/gorest.co.in\/public\/v1\/users'"}},{"result":{"nanos":60502100,"millis":60.5021,"status":"passed"},"step":{"line":6,"prefix":"And","index":2,"text":"params query"}},{"result":{"nanos":1402350300,"millis":1402.3503,"status":"passed"},"step":{"line":7,"prefix":"When","index":3,"text":"method GET"},"stepLog":"23:01:16.114 request:\n1 > GET https:\/\/gorest.co.in\/public\/v1\/users?status=active\n1 > Host: gorest.co.in\n1 > Connection: Keep-Alive\n1 > User-Agent: Apache-HttpClient\/4.5.12 (Java\/17.0.4.1)\n1 > Accept-Encoding: gzip,deflate\n\n\n23:01:16.975 response time in milliseconds: 855\n1 < 200\n1 < Date: Sat, 08 Oct 2022 03:01:15 GMT\n1 < Content-Type: application\/json; charset=utf-8\n1 < Transfer-Encoding: chunked\n1 < Connection: keep-alive\n1 < Cache-Control: max-age=0, private, must-revalidate\n1 < etag: W\/\"e99354ae2282249c2e50834218689954\"\n1 < referrer-policy: strict-origin-when-cross-origin\n1 < vary: Origin\n1 < x-content-type-options: nosniff\n1 < x-download-options: noopen\n1 < x-frame-options: SAMEORIGIN\n1 < x-permitted-cross-domain-policies: none\n1 < x-request-id: 1d383006-35cf-4b3b-bbdd-ecb022fc4bc7\n1 < x-runtime: 0.028008\n1 < x-xss-protection: 0\n1 < CF-Cache-Status: DYNAMIC\n1 < Report-To: {\"endpoints\":[{\"url\":\"https:\\\/\\\/a.nel.cloudflare.com\\\/report\\\/v3?s=zVz98NOOHRi7f0Q5dKCPgKaoIY7m1mwF%2B2aeLEQZ6Lk3Tcd3hGjsXvw0rYPcLpFvvjMnM2xSyzNRFjoDQXpwALNWcxbf1b%2FJBo8QjabfAKyRjY91baLU9tSroz19A2Y%3D\"}],\"group\":\"cf-nel\",\"max_age\":604800}\n1 < NEL: {\"success_fraction\":0,\"report_to\":\"cf-nel\",\"max_age\":604800}\n1 < Server: cloudflare\n1 < CF-RAY: 756ba17f0db1ad51-ATL\n1 < alt-svc: h3=\":443\"; ma=86400, h3-29=\":443\"; ma=86400\n{\"meta\":{\"pagination\":{\"total\":1708,\"pages\":171,\"page\":1,\"limit\":10,\"links\":{\"previous\":null,\"current\":\"https:\/\/gorest.co.in\/public\/v1\/users?page=1\",\"next\":\"https:\/\/gorest.co.in\/public\/v1\/users?page=2\"}}},\"data\":[{\"id\":3442,\"name\":\"Rev. Devika Pilla\",\"email\":\"rev_devika_pilla@simonis-walsh.biz\",\"gender\":\"male\",\"status\":\"active\"},{\"id\":3438,\"name\":\"Chandramauli Johar\",\"email\":\"chandramauli_johar@beatty-graham.info\",\"gender\":\"female\",\"status\":\"active\"},{\"id\":3436,\"name\":\"Chandra Khanna\",\"email\":\"khanna_chandra@kilback.name\",\"gender\":\"female\",\"status\":\"active\"},{\"id\":3435,\"name\":\"Kumuda Tandon DVM\",\"email\":\"tandon_kumuda_dvm@williamson.co\",\"gender\":\"male\",\"status\":\"active\"},{\"id\":3433,\"name\":\"Bhagwanti Devar\",\"email\":\"devar_bhagwanti@hyatt-goodwin.info\",\"gender\":\"male\",\"status\":\"active\"},{\"id\":3432,\"name\":\"Dwaipayan Nambeesan V\",\"email\":\"dwaipayan_nambeesan_v@cummings-kertzmann.biz\",\"gender\":\"male\",\"status\":\"active\"},{\"id\":3431,\"name\":\"Sukanya Mahajan\",\"email\":\"sukanya_mahajan@yost.com\",\"gender\":\"male\",\"status\":\"active\"},{\"id\":3428,\"name\":\"Param Nair DVM\",\"email\":\"dvm_param_nair@wiza-vonrueden.org\",\"gender\":\"female\",\"status\":\"active\"},{\"id\":3427,\"name\":\"Dayaananda Dhawan\",\"email\":\"dhawan_dayaananda@schaden-rolfson.co\",\"gender\":\"male\",\"status\":\"active\"},{\"id\":3426,\"name\":\"Pres. Ramesh Mukhopadhyay\",\"email\":\"ramesh_pres_mukhopadhyay@ohara-zemlak.biz\",\"gender\":\"male\",\"status\":\"active\"}]}\n\n"},{"result":{"nanos":38600,"millis":0.0386,"status":"passed"},"step":{"line":8,"prefix":"Then","index":4,"text":"status 200"}},{"result":{"nanos":106259300,"millis":106.2593,"status":"passed"},"step":{"line":9,"prefix":"*","index":5,"text":"print response"},"stepLog":"23:01:17.088 [print] {\n  \"meta\": {\n    \"pagination\": {\n      \"total\": 1708,\n      \"pages\": 171,\n      \"page\": 1,\n      \"limit\": 10,\n      \"links\": {\n        \"previous\": null,\n        \"current\": \"https:\/\/gorest.co.in\/public\/v1\/users?page=1\",\n        \"next\": \"https:\/\/gorest.co.in\/public\/v1\/users?page=2\"\n      }\n    }\n  },\n  \"data\": [\n    {\n      \"id\": 3442,\n      \"name\": \"Rev. Devika Pilla\",\n      \"email\": \"rev_devika_pilla@simonis-walsh.biz\",\n      \"gender\": \"male\",\n      \"status\": \"active\"\n    },\n    {\n      \"id\": 3438,\n      \"name\": \"Chandramauli Johar\",\n      \"email\": \"chandramauli_johar@beatty-graham.info\",\n      \"gender\": \"female\",\n      \"status\": \"active\"\n    },\n    {\n      \"id\": 3436,\n      \"name\": \"Chandra Khanna\",\n      \"email\": \"khanna_chandra@kilback.name\",\n      \"gender\": \"female\",\n      \"status\": \"active\"\n    },\n    {\n      \"id\": 3435,\n      \"name\": \"Kumuda Tandon DVM\",\n      \"email\": \"tandon_kumuda_dvm@williamson.co\",\n      \"gender\": \"male\",\n      \"status\": \"active\"\n    },\n    {\n      \"id\": 3433,\n      \"name\": \"Bhagwanti Devar\",\n      \"email\": \"devar_bhagwanti@hyatt-goodwin.info\",\n      \"gender\": \"male\",\n      \"status\": \"active\"\n    },\n    {\n      \"id\": 3432,\n      \"name\": \"Dwaipayan Nambeesan V\",\n      \"email\": \"dwaipayan_nambeesan_v@cummings-kertzmann.biz\",\n      \"gender\": \"male\",\n      \"status\": \"active\"\n    },\n    {\n      \"id\": 3431,\n      \"name\": \"Sukanya Mahajan\",\n      \"email\": \"sukanya_mahajan@yost.com\",\n      \"gender\": \"male\",\n      \"status\": \"active\"\n    },\n    {\n      \"id\": 3428,\n      \"name\": \"Param Nair DVM\",\n      \"email\": \"dvm_param_nair@wiza-vonrueden.org\",\n      \"gender\": \"female\",\n      \"status\": \"active\"\n    },\n    {\n      \"id\": 3427,\n      \"name\": \"Dayaananda Dhawan\",\n      \"email\": \"dhawan_dayaananda@schaden-rolfson.co\",\n      \"gender\": \"male\",\n      \"status\": \"active\"\n    },\n    {\n      \"id\": 3426,\n      \"name\": \"Pres. Ramesh Mukhopadhyay\",\n      \"email\": \"ramesh_pres_mukhopadhyay@ohara-zemlak.biz\",\n      \"gender\": \"male\",\n      \"status\": \"active\"\n    }\n  ]\n}\n \n"}],"executorName":"main","line":3,"name":"get active user with query","description":"","durationMillis":1888.1708,"startTime":1665198075170,"failed":false,"refId":"[1:3]","endTime":1665198077089,"exampleIndex":-1},{"sectionIndex":1,"stepResults":[{"result":{"nanos":0,"millis":0.0,"status":"passed"},"step":{"endLine":0,"line":11,"prefix":"*","index":-1,"text":"no steps executed"}}],"executorName":"main","line":11,"name":"GET active user with and get userCount","description":"","durationMillis":0.0,"startTime":1665198077102,"failed":false,"refId":"[2:11]","endTime":1665198077103,"exampleIndex":-1},{"sectionIndex":2,"stepResults":[{"result":{"nanos":1177300,"millis":1.1773,"status":"passed"},"step":{"line":14,"prefix":"*","index":0,"text":"def query = {status:'active'}"}},{"result":{"nanos":1504300,"millis":1.5043,"status":"passed"},"step":{"line":15,"prefix":"Given","index":1,"text":"url 'https:\/\/gorest.co.in\/public\/v1\/users'"}},{"result":{"nanos":333500,"millis":0.3335,"status":"passed"},"step":{"line":16,"prefix":"And","index":2,"text":"params query"}},{"result":{"nanos":468401200,"millis":468.4012,"status":"passed"},"step":{"line":17,"prefix":"When","index":3,"text":"method GET"},"stepLog":"23:01:17.117 request:\n1 > GET https:\/\/gorest.co.in\/public\/v1\/users?status=active\n1 > Host: gorest.co.in\n1 > Connection: Keep-Alive\n1 > User-Agent: Apache-HttpClient\/4.5.12 (Java\/17.0.4.1)\n1 > Accept-Encoding: gzip,deflate\n\n\n23:01:17.575 response time in milliseconds: 455\n1 < 200\n1 < Date: Sat, 08 Oct 2022 03:01:15 GMT\n1 < Content-Type: application\/json; charset=utf-8\n1 < Transfer-Encoding: chunked\n1 < Connection: keep-alive\n1 < Cache-Control: max-age=0, private, must-revalidate\n1 < etag: W\/\"e99354ae2282249c2e50834218689954\"\n1 < referrer-policy: strict-origin-when-cross-origin\n1 < vary: Origin\n1 < x-content-type-options: nosniff\n1 < x-download-options: noopen\n1 < x-frame-options: SAMEORIGIN\n1 < x-permitted-cross-domain-policies: none\n1 < x-request-id: 4d8aa3ea-efe4-4ea9-ae08-941906fd4a30\n1 < x-runtime: 0.056401\n1 < x-xss-protection: 0\n1 < CF-Cache-Status: DYNAMIC\n1 < Report-To: {\"endpoints\":[{\"url\":\"https:\\\/\\\/a.nel.cloudflare.com\\\/report\\\/v3?s=Vu59xcs4dGsxMJdqB40yiR7x%2BKAs3Fs5WCE%2FRMs2NU4bz8mmQJFcJkBGnTlq46TCEe54RYVlLfOKIuWAEORT%2FHs3k8GhHzSBgZYuM2Tcs76GBJrV1HVVkk83FASN%2BNg%3D\"}],\"group\":\"cf-nel\",\"max_age\":604800}\n1 < NEL: {\"success_fraction\":0,\"report_to\":\"cf-nel\",\"max_age\":604800}\n1 < Server: cloudflare\n1 < CF-RAY: 756ba182a882b105-ATL\n1 < alt-svc: h3=\":443\"; ma=86400, h3-29=\":443\"; ma=86400\n{\"meta\":{\"pagination\":{\"total\":1708,\"pages\":171,\"page\":1,\"limit\":10,\"links\":{\"previous\":null,\"current\":\"https:\/\/gorest.co.in\/public\/v1\/users?page=1\",\"next\":\"https:\/\/gorest.co.in\/public\/v1\/users?page=2\"}}},\"data\":[{\"id\":3442,\"name\":\"Rev. Devika Pilla\",\"email\":\"rev_devika_pilla@simonis-walsh.biz\",\"gender\":\"male\",\"status\":\"active\"},{\"id\":3438,\"name\":\"Chandramauli Johar\",\"email\":\"chandramauli_johar@beatty-graham.info\",\"gender\":\"female\",\"status\":\"active\"},{\"id\":3436,\"name\":\"Chandra Khanna\",\"email\":\"khanna_chandra@kilback.name\",\"gender\":\"female\",\"status\":\"active\"},{\"id\":3435,\"name\":\"Kumuda Tandon DVM\",\"email\":\"tandon_kumuda_dvm@williamson.co\",\"gender\":\"male\",\"status\":\"active\"},{\"id\":3433,\"name\":\"Bhagwanti Devar\",\"email\":\"devar_bhagwanti@hyatt-goodwin.info\",\"gender\":\"male\",\"status\":\"active\"},{\"id\":3432,\"name\":\"Dwaipayan Nambeesan V\",\"email\":\"dwaipayan_nambeesan_v@cummings-kertzmann.biz\",\"gender\":\"male\",\"status\":\"active\"},{\"id\":3431,\"name\":\"Sukanya Mahajan\",\"email\":\"sukanya_mahajan@yost.com\",\"gender\":\"male\",\"status\":\"active\"},{\"id\":3428,\"name\":\"Param Nair DVM\",\"email\":\"dvm_param_nair@wiza-vonrueden.org\",\"gender\":\"female\",\"status\":\"active\"},{\"id\":3427,\"name\":\"Dayaananda Dhawan\",\"email\":\"dhawan_dayaananda@schaden-rolfson.co\",\"gender\":\"male\",\"status\":\"active\"},{\"id\":3426,\"name\":\"Pres. Ramesh Mukhopadhyay\",\"email\":\"ramesh_pres_mukhopadhyay@ohara-zemlak.biz\",\"gender\":\"male\",\"status\":\"active\"}]}\n\n"},{"result":{"nanos":39400,"millis":0.0394,"status":"passed"},"step":{"line":18,"prefix":"Then","index":4,"text":"status 200"}},{"result":{"nanos":6655400,"millis":6.6554,"status":"passed"},"step":{"line":19,"prefix":"*","index":5,"text":"print response"},"stepLog":"23:01:17.590 [print] {\n  \"meta\": {\n    \"pagination\": {\n      \"total\": 1708,\n      \"pages\": 171,\n      \"page\": 1,\n      \"limit\": 10,\n      \"links\": {\n        \"previous\": null,\n        \"current\": \"https:\/\/gorest.co.in\/public\/v1\/users?page=1\",\n        \"next\": \"https:\/\/gorest.co.in\/public\/v1\/users?page=2\"\n      }\n    }\n  },\n  \"data\": [\n    {\n      \"id\": 3442,\n      \"name\": \"Rev. Devika Pilla\",\n      \"email\": \"rev_devika_pilla@simonis-walsh.biz\",\n      \"gender\": \"male\",\n      \"status\": \"active\"\n    },\n    {\n      \"id\": 3438,\n      \"name\": \"Chandramauli Johar\",\n      \"email\": \"chandramauli_johar@beatty-graham.info\",\n      \"gender\": \"female\",\n      \"status\": \"active\"\n    },\n    {\n      \"id\": 3436,\n      \"name\": \"Chandra Khanna\",\n      \"email\": \"khanna_chandra@kilback.name\",\n      \"gender\": \"female\",\n      \"status\": \"active\"\n    },\n    {\n      \"id\": 3435,\n      \"name\": \"Kumuda Tandon DVM\",\n      \"email\": \"tandon_kumuda_dvm@williamson.co\",\n      \"gender\": \"male\",\n      \"status\": \"active\"\n    },\n    {\n      \"id\": 3433,\n      \"name\": \"Bhagwanti Devar\",\n      \"email\": \"devar_bhagwanti@hyatt-goodwin.info\",\n      \"gender\": \"male\",\n      \"status\": \"active\"\n    },\n    {\n      \"id\": 3432,\n      \"name\": \"Dwaipayan Nambeesan V\",\n      \"email\": \"dwaipayan_nambeesan_v@cummings-kertzmann.biz\",\n      \"gender\": \"male\",\n      \"status\": \"active\"\n    },\n    {\n      \"id\": 3431,\n      \"name\": \"Sukanya Mahajan\",\n      \"email\": \"sukanya_mahajan@yost.com\",\n      \"gender\": \"male\",\n      \"status\": \"active\"\n    },\n    {\n      \"id\": 3428,\n      \"name\": \"Param Nair DVM\",\n      \"email\": \"dvm_param_nair@wiza-vonrueden.org\",\n      \"gender\": \"female\",\n      \"status\": \"active\"\n    },\n    {\n      \"id\": 3427,\n      \"name\": \"Dayaananda Dhawan\",\n      \"email\": \"dhawan_dayaananda@schaden-rolfson.co\",\n      \"gender\": \"male\",\n      \"status\": \"active\"\n    },\n    {\n      \"id\": 3426,\n      \"name\": \"Pres. Ramesh Mukhopadhyay\",\n      \"email\": \"ramesh_pres_mukhopadhyay@ohara-zemlak.biz\",\n      \"gender\": \"male\",\n      \"status\": \"active\"\n    }\n  ]\n}\n \n"},{"result":{"nanos":2201200,"millis":2.2012,"status":"passed"},"step":{"line":20,"prefix":"*","index":6,"text":"def jsonResponse = response"}},{"result":{"nanos":8581300,"millis":8.5813,"status":"passed"},"step":{"line":21,"prefix":"*","index":7,"text":"print response"},"stepLog":"23:01:17.601 [print] {\n  \"meta\": {\n    \"pagination\": {\n      \"total\": 1708,\n      \"pages\": 171,\n      \"page\": 1,\n      \"limit\": 10,\n      \"links\": {\n        \"previous\": null,\n        \"current\": \"https:\/\/gorest.co.in\/public\/v1\/users?page=1\",\n        \"next\": \"https:\/\/gorest.co.in\/public\/v1\/users?page=2\"\n      }\n    }\n  },\n  \"data\": [\n    {\n      \"id\": 3442,\n      \"name\": \"Rev. Devika Pilla\",\n      \"email\": \"rev_devika_pilla@simonis-walsh.biz\",\n      \"gender\": \"male\",\n      \"status\": \"active\"\n    },\n    {\n      \"id\": 3438,\n      \"name\": \"Chandramauli Johar\",\n      \"email\": \"chandramauli_johar@beatty-graham.info\",\n      \"gender\": \"female\",\n      \"status\": \"active\"\n    },\n    {\n      \"id\": 3436,\n      \"name\": \"Chandra Khanna\",\n      \"email\": \"khanna_chandra@kilback.name\",\n      \"gender\": \"female\",\n      \"status\": \"active\"\n    },\n    {\n      \"id\": 3435,\n      \"name\": \"Kumuda Tandon DVM\",\n      \"email\": \"tandon_kumuda_dvm@williamson.co\",\n      \"gender\": \"male\",\n      \"status\": \"active\"\n    },\n    {\n      \"id\": 3433,\n      \"name\": \"Bhagwanti Devar\",\n      \"email\": \"devar_bhagwanti@hyatt-goodwin.info\",\n      \"gender\": \"male\",\n      \"status\": \"active\"\n    },\n    {\n      \"id\": 3432,\n      \"name\": \"Dwaipayan Nambeesan V\",\n      \"email\": \"dwaipayan_nambeesan_v@cummings-kertzmann.biz\",\n      \"gender\": \"male\",\n      \"status\": \"active\"\n    },\n    {\n      \"id\": 3431,\n      \"name\": \"Sukanya Mahajan\",\n      \"email\": \"sukanya_mahajan@yost.com\",\n      \"gender\": \"male\",\n      \"status\": \"active\"\n    },\n    {\n      \"id\": 3428,\n      \"name\": \"Param Nair DVM\",\n      \"email\": \"dvm_param_nair@wiza-vonrueden.org\",\n      \"gender\": \"female\",\n      \"status\": \"active\"\n    },\n    {\n      \"id\": 3427,\n      \"name\": \"Dayaananda Dhawan\",\n      \"email\": \"dhawan_dayaananda@schaden-rolfson.co\",\n      \"gender\": \"male\",\n      \"status\": \"active\"\n    },\n    {\n      \"id\": 3426,\n      \"name\": \"Pres. Ramesh Mukhopadhyay\",\n      \"email\": \"ramesh_pres_mukhopadhyay@ohara-zemlak.biz\",\n      \"gender\": \"male\",\n      \"status\": \"active\"\n    }\n  ]\n}\n \n"},{"result":{"nanos":4294500,"millis":4.2945,"status":"passed"},"step":{"line":22,"prefix":"*","index":8,"text":"def userCount = jsonResponse.data.length"}},{"result":{"nanos":2090100,"millis":2.0901,"status":"passed"},"step":{"line":23,"prefix":"*","index":9,"text":"print userCount"},"stepLog":"23:01:17.608 [print] 10 \n"},{"result":{"nanos":26760600,"millis":26.7606,"status":"passed"},"step":{"line":24,"prefix":"*","index":10,"text":"match userCount == 10"}}],"executorName":"main","line":13,"name":"get active user with usercount","description":"","durationMillis":522.0388,"startTime":1665198077111,"failed":false,"refId":"[3:13]","endTime":1665198077635,"exampleIndex":-1}],"callDepth":0,"name":"GET api user with query parameters","description":"","resultDate":"2022-10-07 11:01:17 pm","durationMillis":2410.2096,"passedCount":3}