{"failedCount":0,"prefixedPath":"src\/test\/java\/Features\/GETAPI.feature","packageQualifiedName":"src.test.java.Features.GETAPI","loopIndex":-1,"relativePath":"src\/test\/java\/Features\/GETAPI.feature","scenarioResults":[{"sectionIndex":0,"stepResults":[{"result":{"nanos":147081500,"millis":147.0815,"status":"passed"},"step":{"line":4,"prefix":"Given","index":0,"text":"url 'https:\/\/gorest.co.in\/public\/v1\/users'"}},{"result":{"nanos":2075505000,"millis":2075.505,"status":"passed"},"step":{"line":5,"prefix":"When","index":1,"text":"method GET"},"stepLog":"09:47:21.235 request:\n1 > GET https:\/\/gorest.co.in\/public\/v1\/users\n1 > Host: gorest.co.in\n1 > Connection: Keep-Alive\n1 > User-Agent: Apache-HttpClient\/4.5.12 (Java\/17.0.4.1)\n1 > Accept-Encoding: gzip,deflate\n\n\n09:47:22.650 response time in milliseconds: 1406\n1 < 200\n1 < Date: Mon, 10 Oct 2022 13:47:21 GMT\n1 < Content-Type: application\/json; charset=utf-8\n1 < Transfer-Encoding: chunked\n1 < Connection: keep-alive\n1 < Cache-Control: max-age=0, private, must-revalidate\n1 < etag: W\/\"b51203f52ad3cd0480fe058e0189138f\"\n1 < referrer-policy: strict-origin-when-cross-origin\n1 < vary: Origin\n1 < x-content-type-options: nosniff\n1 < x-download-options: noopen\n1 < x-frame-options: SAMEORIGIN\n1 < x-permitted-cross-domain-policies: none\n1 < x-request-id: 7ee3ad35-96e9-45bd-9eb4-7c71cc9b6e23\n1 < x-runtime: 0.016992\n1 < x-xss-protection: 0\n1 < CF-Cache-Status: DYNAMIC\n1 < Report-To: {\"endpoints\":[{\"url\":\"https:\\\/\\\/a.nel.cloudflare.com\\\/report\\\/v3?s=pMhygmOCXuqNXIWCJwBPCPSqtk1vVrzecaLc3V%2FfWvOEFtodzqgK0EebFY4A1QpuncdPNGLAED3OCyruFxX7F7v017ePR%2FsoG6twFyewZ9xYTWilGcYTp92NA6G%2BTkI%3D\"}],\"group\":\"cf-nel\",\"max_age\":604800}\n1 < NEL: {\"success_fraction\":0,\"report_to\":\"cf-nel\",\"max_age\":604800}\n1 < Server: cloudflare\n1 < CF-RAY: 757fceadd9afb0d0-ATL\n1 < alt-svc: h3=\":443\"; ma=86400, h3-29=\":443\"; ma=86400\n{\"meta\":{\"pagination\":{\"total\":2301,\"pages\":231,\"page\":1,\"limit\":10,\"links\":{\"previous\":null,\"current\":\"https:\/\/gorest.co.in\/public\/v1\/users?page=1\",\"next\":\"https:\/\/gorest.co.in\/public\/v1\/users?page=2\"}}},\"data\":[{\"id\":2356,\"name\":\"Ekaksh Talwar IV\",\"email\":\"talwar_ekaksh_iv@lubowitz-windler.biz\",\"gender\":\"female\",\"status\":\"active\"},{\"id\":2355,\"name\":\"Dhanapati Kocchar\",\"email\":\"kocchar_dhanapati@hahn.name\",\"gender\":\"male\",\"status\":\"active\"},{\"id\":2354,\"name\":\"Ankal Tandon\",\"email\":\"ankal_tandon@ferry.io\",\"gender\":\"male\",\"status\":\"inactive\"},{\"id\":2353,\"name\":\"Buddhana Tandon\",\"email\":\"tandon_buddhana@larson-rice.name\",\"gender\":\"female\",\"status\":\"inactive\"},{\"id\":2352,\"name\":\"Trilochan Somayaji\",\"email\":\"trilochan_somayaji@sauer-predovic.info\",\"gender\":\"female\",\"status\":\"inactive\"},{\"id\":2351,\"name\":\"Mr. Amaresh Adiga\",\"email\":\"adiga_amaresh_mr@strosin-larson.name\",\"gender\":\"male\",\"status\":\"active\"},{\"id\":2350,\"name\":\"Vijay Kaur\",\"email\":\"kaur_vijay@prohaska-zieme.co\",\"gender\":\"male\",\"status\":\"active\"},{\"id\":2344,\"name\":\"Gopaal Marar CPA\",\"email\":\"marar_cpa_gopaal@gulgowski.co\",\"gender\":\"male\",\"status\":\"inactive\"},{\"id\":2343,\"name\":\"Chinmayanand Shah DVM\",\"email\":\"shah_chinmayanand_dvm@hoeger-bosco.io\",\"gender\":\"male\",\"status\":\"active\"},{\"id\":2342,\"name\":\"Purnima Johar Sr.\",\"email\":\"purnima_johar_sr@schiller.io\",\"gender\":\"female\",\"status\":\"active\"}]}\n\n"},{"result":{"nanos":40100,"millis":0.0401,"status":"passed"},"step":{"line":6,"prefix":"Then","index":2,"text":"status 200"}},{"result":{"nanos":125327300,"millis":125.3273,"status":"passed"},"step":{"line":7,"prefix":"*","index":3,"text":"print response"},"stepLog":"09:47:22.877 [print] {\n  \"meta\": {\n    \"pagination\": {\n      \"total\": 2301,\n      \"pages\": 231,\n      \"page\": 1,\n      \"limit\": 10,\n      \"links\": {\n        \"previous\": null,\n        \"current\": \"https:\/\/gorest.co.in\/public\/v1\/users?page=1\",\n        \"next\": \"https:\/\/gorest.co.in\/public\/v1\/users?page=2\"\n      }\n    }\n  },\n  \"data\": [\n    {\n      \"id\": 2356,\n      \"name\": \"Ekaksh Talwar IV\",\n      \"email\": \"talwar_ekaksh_iv@lubowitz-windler.biz\",\n      \"gender\": \"female\",\n      \"status\": \"active\"\n    },\n    {\n      \"id\": 2355,\n      \"name\": \"Dhanapati Kocchar\",\n      \"email\": \"kocchar_dhanapati@hahn.name\",\n      \"gender\": \"male\",\n      \"status\": \"active\"\n    },\n    {\n      \"id\": 2354,\n      \"name\": \"Ankal Tandon\",\n      \"email\": \"ankal_tandon@ferry.io\",\n      \"gender\": \"male\",\n      \"status\": \"inactive\"\n    },\n    {\n      \"id\": 2353,\n      \"name\": \"Buddhana Tandon\",\n      \"email\": \"tandon_buddhana@larson-rice.name\",\n      \"gender\": \"female\",\n      \"status\": \"inactive\"\n    },\n    {\n      \"id\": 2352,\n      \"name\": \"Trilochan Somayaji\",\n      \"email\": \"trilochan_somayaji@sauer-predovic.info\",\n      \"gender\": \"female\",\n      \"status\": \"inactive\"\n    },\n    {\n      \"id\": 2351,\n      \"name\": \"Mr. Amaresh Adiga\",\n      \"email\": \"adiga_amaresh_mr@strosin-larson.name\",\n      \"gender\": \"male\",\n      \"status\": \"active\"\n    },\n    {\n      \"id\": 2350,\n      \"name\": \"Vijay Kaur\",\n      \"email\": \"kaur_vijay@prohaska-zieme.co\",\n      \"gender\": \"male\",\n      \"status\": \"active\"\n    },\n    {\n      \"id\": 2344,\n      \"name\": \"Gopaal Marar CPA\",\n      \"email\": \"marar_cpa_gopaal@gulgowski.co\",\n      \"gender\": \"male\",\n      \"status\": \"inactive\"\n    },\n    {\n      \"id\": 2343,\n      \"name\": \"Chinmayanand Shah DVM\",\n      \"email\": \"shah_chinmayanand_dvm@hoeger-bosco.io\",\n      \"gender\": \"male\",\n      \"status\": \"active\"\n    },\n    {\n      \"id\": 2342,\n      \"name\": \"Purnima Johar Sr.\",\n      \"email\": \"purnima_johar_sr@schiller.io\",\n      \"gender\": \"female\",\n      \"status\": \"active\"\n    }\n  ]\n}\n \n"}],"executorName":"main","line":3,"name":"GET API user details","description":"","durationMillis":2347.9539,"startTime":1665409640505,"failed":false,"refId":"[1:3]","endTime":1665409642881,"exampleIndex":-1}],"callDepth":0,"name":"GET API user details","description":"","resultDate":"2022-10-10 09:47:22 am","durationMillis":2347.9539,"passedCount":1}