{"failedCount":0,"prefixedPath":"src\/test\/java\/Features\/GETapiquery.feature","packageQualifiedName":"src.test.java.Features.GETapiquery","loopIndex":-1,"relativePath":"src\/test\/java\/Features\/GETapiquery.feature","scenarioResults":[{"sectionIndex":0,"stepResults":[{"result":{"nanos":112846200,"millis":112.8462,"status":"passed"},"step":{"line":4,"prefix":"*","index":0,"text":"def query = {status:'active', gender:'male'}"}},{"result":{"nanos":180969400,"millis":180.9694,"status":"passed"},"step":{"line":6,"prefix":"Given","index":1,"text":"url 'https:\/\/gorest.co.in\/public\/v1\/users'"}},{"result":{"nanos":53227300,"millis":53.2273,"status":"passed"},"step":{"line":7,"prefix":"And","index":2,"text":"params query"}},{"result":{"nanos":2027857500,"millis":2027.8575,"status":"passed"},"step":{"line":8,"prefix":"When","index":3,"text":"method GET"},"stepLog":"09:13:50.096 request:\n1 > GET https:\/\/gorest.co.in\/public\/v1\/users?gender=male&status=active\n1 > Host: gorest.co.in\n1 > Connection: Keep-Alive\n1 > User-Agent: Apache-HttpClient\/4.5.12 (Java\/17.0.4.1)\n1 > Accept-Encoding: gzip,deflate\n\n\n09:13:51.567 response time in milliseconds: 1466\n1 < 200\n1 < Date: Sun, 09 Oct 2022 13:13:50 GMT\n1 < Content-Type: application\/json; charset=utf-8\n1 < Transfer-Encoding: chunked\n1 < Connection: keep-alive\n1 < Cache-Control: max-age=0, private, must-revalidate\n1 < etag: W\/\"27b2f335238614a50a137caf13529b30\"\n1 < referrer-policy: strict-origin-when-cross-origin\n1 < vary: Origin\n1 < x-content-type-options: nosniff\n1 < x-download-options: noopen\n1 < x-frame-options: SAMEORIGIN\n1 < x-permitted-cross-domain-policies: none\n1 < x-request-id: 50ce81c2-4994-4404-8627-d10c35149f14\n1 < x-runtime: 0.022905\n1 < x-xss-protection: 0\n1 < CF-Cache-Status: DYNAMIC\n1 < Report-To: {\"endpoints\":[{\"url\":\"https:\\\/\\\/a.nel.cloudflare.com\\\/report\\\/v3?s=F3aMEUSc%2BQsYbHIDAXjvOw0z0K898Sqxh01nxwznd%2Bh734SlfezZnHduQq8%2FvaR%2B0p%2FT9g%2BE2w9akNi7c6W%2BHpA9Go6GlNuEb54vvWDh%2FYRHmQAIaSM2RQOG74OF6H4%3D\"}],\"group\":\"cf-nel\",\"max_age\":604800}\n1 < NEL: {\"success_fraction\":0,\"report_to\":\"cf-nel\",\"max_age\":604800}\n1 < Server: cloudflare\n1 < CF-RAY: 757760369ae5b10b-ATL\n1 < alt-svc: h3=\":443\"; ma=86400, h3-29=\":443\"; ma=86400\n{\"meta\":{\"pagination\":{\"total\":819,\"pages\":82,\"page\":1,\"limit\":10,\"links\":{\"previous\":null,\"current\":\"https:\/\/gorest.co.in\/public\/v1\/users?page=1\",\"next\":\"https:\/\/gorest.co.in\/public\/v1\/users?page=2\"}}},\"data\":[{\"id\":3159,\"name\":\"Chaitan Varrier\",\"email\":\"varrier_chaitan@rempel-jenkins.name\",\"gender\":\"male\",\"status\":\"active\"},{\"id\":3154,\"name\":\"Himani Somayaji\",\"email\":\"somayaji_himani@terry.org\",\"gender\":\"male\",\"status\":\"active\"},{\"id\":3150,\"name\":\"Agrata Verma\",\"email\":\"agrata_verma@ullrich.net\",\"gender\":\"male\",\"status\":\"active\"},{\"id\":3143,\"name\":\"Lai Khan\",\"email\":\"lai_khan@schinner-mayer.name\",\"gender\":\"male\",\"status\":\"active\"},{\"id\":3142,\"name\":\"Bhima Mahajan\",\"email\":\"bhima_mahajan@homenick.org\",\"gender\":\"male\",\"status\":\"active\"},{\"id\":3135,\"name\":\"Bhadrak Joshi\",\"email\":\"joshi_bhadrak@breitenberg.com\",\"gender\":\"male\",\"status\":\"active\"},{\"id\":3124,\"name\":\"Ms. Bishnu Chaturvedi\",\"email\":\"chaturvedi_ms_bishnu@weimann.name\",\"gender\":\"male\",\"status\":\"active\"},{\"id\":3121,\"name\":\"Anila Naik\",\"email\":\"anila_naik@franecki.biz\",\"gender\":\"male\",\"status\":\"active\"},{\"id\":3114,\"name\":\"Basanti Menon\",\"email\":\"basanti_menon@rempel.co\",\"gender\":\"male\",\"status\":\"active\"},{\"id\":3113,\"name\":\"Miss Udai Marar\",\"email\":\"marar_miss_udai@braun.co\",\"gender\":\"male\",\"status\":\"active\"}]}\n\n"},{"result":{"nanos":44100,"millis":0.0441,"status":"passed"},"step":{"line":9,"prefix":"Then","index":4,"text":"status 200"}},{"result":{"nanos":170426300,"millis":170.4263,"status":"passed"},"step":{"line":10,"prefix":"*","index":5,"text":"print response"},"stepLog":"09:13:51.751 [print] {\n  \"meta\": {\n    \"pagination\": {\n      \"total\": 819,\n      \"pages\": 82,\n      \"page\": 1,\n      \"limit\": 10,\n      \"links\": {\n        \"previous\": null,\n        \"current\": \"https:\/\/gorest.co.in\/public\/v1\/users?page=1\",\n        \"next\": \"https:\/\/gorest.co.in\/public\/v1\/users?page=2\"\n      }\n    }\n  },\n  \"data\": [\n    {\n      \"id\": 3159,\n      \"name\": \"Chaitan Varrier\",\n      \"email\": \"varrier_chaitan@rempel-jenkins.name\",\n      \"gender\": \"male\",\n      \"status\": \"active\"\n    },\n    {\n      \"id\": 3154,\n      \"name\": \"Himani Somayaji\",\n      \"email\": \"somayaji_himani@terry.org\",\n      \"gender\": \"male\",\n      \"status\": \"active\"\n    },\n    {\n      \"id\": 3150,\n      \"name\": \"Agrata Verma\",\n      \"email\": \"agrata_verma@ullrich.net\",\n      \"gender\": \"male\",\n      \"status\": \"active\"\n    },\n    {\n      \"id\": 3143,\n      \"name\": \"Lai Khan\",\n      \"email\": \"lai_khan@schinner-mayer.name\",\n      \"gender\": \"male\",\n      \"status\": \"active\"\n    },\n    {\n      \"id\": 3142,\n      \"name\": \"Bhima Mahajan\",\n      \"email\": \"bhima_mahajan@homenick.org\",\n      \"gender\": \"male\",\n      \"status\": \"active\"\n    },\n    {\n      \"id\": 3135,\n      \"name\": \"Bhadrak Joshi\",\n      \"email\": \"joshi_bhadrak@breitenberg.com\",\n      \"gender\": \"male\",\n      \"status\": \"active\"\n    },\n    {\n      \"id\": 3124,\n      \"name\": \"Ms. Bishnu Chaturvedi\",\n      \"email\": \"chaturvedi_ms_bishnu@weimann.name\",\n      \"gender\": \"male\",\n      \"status\": \"active\"\n    },\n    {\n      \"id\": 3121,\n      \"name\": \"Anila Naik\",\n      \"email\": \"anila_naik@franecki.biz\",\n      \"gender\": \"male\",\n      \"status\": \"active\"\n    },\n    {\n      \"id\": 3114,\n      \"name\": \"Basanti Menon\",\n      \"email\": \"basanti_menon@rempel.co\",\n      \"gender\": \"male\",\n      \"status\": \"active\"\n    },\n    {\n      \"id\": 3113,\n      \"name\": \"Miss Udai Marar\",\n      \"email\": \"marar_miss_udai@braun.co\",\n      \"gender\": \"male\",\n      \"status\": \"active\"\n    }\n  ]\n}\n \n"}],"executorName":"main","line":3,"name":"GET API user detail with query","description":"","durationMillis":2545.3708,"startTime":1665321229158,"failed":false,"refId":"[1:3]","endTime":1665321231752,"exampleIndex":-1},{"sectionIndex":1,"stepResults":[{"result":{"nanos":784700,"millis":0.7847,"status":"passed"},"step":{"line":14,"prefix":"*","index":0,"text":"def query = {status:'active'}"}},{"result":{"nanos":820500,"millis":0.8205,"status":"passed"},"step":{"line":16,"prefix":"Given","index":1,"text":"url 'https:\/\/gorest.co.in\/public\/v1\/users'"}},{"result":{"nanos":351200,"millis":0.3512,"status":"passed"},"step":{"line":17,"prefix":"And","index":2,"text":"params query"}},{"result":{"nanos":971512200,"millis":971.5122,"status":"passed"},"step":{"line":18,"prefix":"When","index":3,"text":"method GET"},"stepLog":"09:13:51.771 request:\n1 > GET https:\/\/gorest.co.in\/public\/v1\/users?status=active\n1 > Host: gorest.co.in\n1 > Connection: Keep-Alive\n1 > User-Agent: Apache-HttpClient\/4.5.12 (Java\/17.0.4.1)\n1 > Accept-Encoding: gzip,deflate\n\n\n09:13:52.734 response time in milliseconds: 962\n1 < 200\n1 < Date: Sun, 09 Oct 2022 13:13:51 GMT\n1 < Content-Type: application\/json; charset=utf-8\n1 < Transfer-Encoding: chunked\n1 < Connection: keep-alive\n1 < Cache-Control: max-age=0, private, must-revalidate\n1 < etag: W\/\"eb47c8c39c133c75bacf4af220cb8c23\"\n1 < referrer-policy: strict-origin-when-cross-origin\n1 < vary: Origin\n1 < x-content-type-options: nosniff\n1 < x-download-options: noopen\n1 < x-frame-options: SAMEORIGIN\n1 < x-permitted-cross-domain-policies: none\n1 < x-request-id: 2820f2cf-7bc0-487f-bcdd-4eac966d19da\n1 < x-runtime: 0.020374\n1 < x-xss-protection: 0\n1 < CF-Cache-Status: DYNAMIC\n1 < Report-To: {\"endpoints\":[{\"url\":\"https:\\\/\\\/a.nel.cloudflare.com\\\/report\\\/v3?s=uTq8b6SykogHu3QVHGTrj9GhL%2F7Q4A1eCz0ITyCGEIoGwHYOTy8j3ss59zO4kLnEtbpUXDndaijE2zBu%2FLLaWci9hr5hB0kmd15l5HkHQ1iRYmnoLIo7FLce12JCumQ%3D\"}],\"group\":\"cf-nel\",\"max_age\":604800}\n1 < NEL: {\"success_fraction\":0,\"report_to\":\"cf-nel\",\"max_age\":604800}\n1 < Server: cloudflare\n1 < CF-RAY: 7577603dc982acd1-ATL\n1 < alt-svc: h3=\":443\"; ma=86400, h3-29=\":443\"; ma=86400\n{\"meta\":{\"pagination\":{\"total\":1601,\"pages\":161,\"page\":1,\"limit\":10,\"links\":{\"previous\":null,\"current\":\"https:\/\/gorest.co.in\/public\/v1\/users?page=1\",\"next\":\"https:\/\/gorest.co.in\/public\/v1\/users?page=2\"}}},\"data\":[{\"id\":3176,\"name\":\"Guru Nehru\",\"email\":\"guru_nehru@daniel-wiegand.net\",\"gender\":\"female\",\"status\":\"active\"},{\"id\":3175,\"name\":\"Paramartha Arora\",\"email\":\"paramartha_arora@haag.info\",\"gender\":\"female\",\"status\":\"active\"},{\"id\":3169,\"name\":\"Nagabhushanam Agarwal\",\"email\":\"nagabhushanam_agarwal@beer.io\",\"gender\":\"female\",\"status\":\"active\"},{\"id\":3162,\"name\":\"Arjun Jain\",\"email\":\"arjun_jain@thompson.info\",\"gender\":\"female\",\"status\":\"active\"},{\"id\":3160,\"name\":\"Devi Dwivedi\",\"email\":\"dwivedi_devi@collins-rippin.org\",\"gender\":\"female\",\"status\":\"active\"},{\"id\":3159,\"name\":\"Chaitan Varrier\",\"email\":\"varrier_chaitan@rempel-jenkins.name\",\"gender\":\"male\",\"status\":\"active\"},{\"id\":3155,\"name\":\"Daevi Rana VM\",\"email\":\"daevi_rana_vm@turcotte.name\",\"gender\":\"female\",\"status\":\"active\"},{\"id\":3154,\"name\":\"Himani Somayaji\",\"email\":\"somayaji_himani@terry.org\",\"gender\":\"male\",\"status\":\"active\"},{\"id\":3153,\"name\":\"Sen. Bhooshit Varman\",\"email\":\"sen_varman_bhooshit@wolff-zulauf.info\",\"gender\":\"female\",\"status\":\"active\"},{\"id\":3151,\"name\":\"Suma Gill\",\"email\":\"gill_suma@cronin.com\",\"gender\":\"female\",\"status\":\"active\"}]}\n\n"},{"result":{"nanos":38900,"millis":0.0389,"status":"passed"},"step":{"line":19,"prefix":"Then","index":4,"text":"status 200"}},{"result":{"nanos":4648700,"millis":4.6487,"status":"passed"},"step":{"line":20,"prefix":"*","index":5,"text":"print response"},"stepLog":"09:13:52.751 [print] {\n  \"meta\": {\n    \"pagination\": {\n      \"total\": 1601,\n      \"pages\": 161,\n      \"page\": 1,\n      \"limit\": 10,\n      \"links\": {\n        \"previous\": null,\n        \"current\": \"https:\/\/gorest.co.in\/public\/v1\/users?page=1\",\n        \"next\": \"https:\/\/gorest.co.in\/public\/v1\/users?page=2\"\n      }\n    }\n  },\n  \"data\": [\n    {\n      \"id\": 3176,\n      \"name\": \"Guru Nehru\",\n      \"email\": \"guru_nehru@daniel-wiegand.net\",\n      \"gender\": \"female\",\n      \"status\": \"active\"\n    },\n    {\n      \"id\": 3175,\n      \"name\": \"Paramartha Arora\",\n      \"email\": \"paramartha_arora@haag.info\",\n      \"gender\": \"female\",\n      \"status\": \"active\"\n    },\n    {\n      \"id\": 3169,\n      \"name\": \"Nagabhushanam Agarwal\",\n      \"email\": \"nagabhushanam_agarwal@beer.io\",\n      \"gender\": \"female\",\n      \"status\": \"active\"\n    },\n    {\n      \"id\": 3162,\n      \"name\": \"Arjun Jain\",\n      \"email\": \"arjun_jain@thompson.info\",\n      \"gender\": \"female\",\n      \"status\": \"active\"\n    },\n    {\n      \"id\": 3160,\n      \"name\": \"Devi Dwivedi\",\n      \"email\": \"dwivedi_devi@collins-rippin.org\",\n      \"gender\": \"female\",\n      \"status\": \"active\"\n    },\n    {\n      \"id\": 3159,\n      \"name\": \"Chaitan Varrier\",\n      \"email\": \"varrier_chaitan@rempel-jenkins.name\",\n      \"gender\": \"male\",\n      \"status\": \"active\"\n    },\n    {\n      \"id\": 3155,\n      \"name\": \"Daevi Rana VM\",\n      \"email\": \"daevi_rana_vm@turcotte.name\",\n      \"gender\": \"female\",\n      \"status\": \"active\"\n    },\n    {\n      \"id\": 3154,\n      \"name\": \"Himani Somayaji\",\n      \"email\": \"somayaji_himani@terry.org\",\n      \"gender\": \"male\",\n      \"status\": \"active\"\n    },\n    {\n      \"id\": 3153,\n      \"name\": \"Sen. Bhooshit Varman\",\n      \"email\": \"sen_varman_bhooshit@wolff-zulauf.info\",\n      \"gender\": \"female\",\n      \"status\": \"active\"\n    },\n    {\n      \"id\": 3151,\n      \"name\": \"Suma Gill\",\n      \"email\": \"gill_suma@cronin.com\",\n      \"gender\": \"female\",\n      \"status\": \"active\"\n    }\n  ]\n}\n \n"},{"result":{"nanos":1345300,"millis":1.3453,"status":"passed"},"step":{"line":21,"prefix":"*","index":6,"text":"def jsonResponse = response"}},{"result":{"nanos":4571300,"millis":4.5713,"status":"passed"},"step":{"line":22,"prefix":"*","index":7,"text":"print jsonResponse"},"stepLog":"09:13:52.757 [print] {\n  \"meta\": {\n    \"pagination\": {\n      \"total\": 1601,\n      \"pages\": 161,\n      \"page\": 1,\n      \"limit\": 10,\n      \"links\": {\n        \"previous\": null,\n        \"current\": \"https:\/\/gorest.co.in\/public\/v1\/users?page=1\",\n        \"next\": \"https:\/\/gorest.co.in\/public\/v1\/users?page=2\"\n      }\n    }\n  },\n  \"data\": [\n    {\n      \"id\": 3176,\n      \"name\": \"Guru Nehru\",\n      \"email\": \"guru_nehru@daniel-wiegand.net\",\n      \"gender\": \"female\",\n      \"status\": \"active\"\n    },\n    {\n      \"id\": 3175,\n      \"name\": \"Paramartha Arora\",\n      \"email\": \"paramartha_arora@haag.info\",\n      \"gender\": \"female\",\n      \"status\": \"active\"\n    },\n    {\n      \"id\": 3169,\n      \"name\": \"Nagabhushanam Agarwal\",\n      \"email\": \"nagabhushanam_agarwal@beer.io\",\n      \"gender\": \"female\",\n      \"status\": \"active\"\n    },\n    {\n      \"id\": 3162,\n      \"name\": \"Arjun Jain\",\n      \"email\": \"arjun_jain@thompson.info\",\n      \"gender\": \"female\",\n      \"status\": \"active\"\n    },\n    {\n      \"id\": 3160,\n      \"name\": \"Devi Dwivedi\",\n      \"email\": \"dwivedi_devi@collins-rippin.org\",\n      \"gender\": \"female\",\n      \"status\": \"active\"\n    },\n    {\n      \"id\": 3159,\n      \"name\": \"Chaitan Varrier\",\n      \"email\": \"varrier_chaitan@rempel-jenkins.name\",\n      \"gender\": \"male\",\n      \"status\": \"active\"\n    },\n    {\n      \"id\": 3155,\n      \"name\": \"Daevi Rana VM\",\n      \"email\": \"daevi_rana_vm@turcotte.name\",\n      \"gender\": \"female\",\n      \"status\": \"active\"\n    },\n    {\n      \"id\": 3154,\n      \"name\": \"Himani Somayaji\",\n      \"email\": \"somayaji_himani@terry.org\",\n      \"gender\": \"male\",\n      \"status\": \"active\"\n    },\n    {\n      \"id\": 3153,\n      \"name\": \"Sen. Bhooshit Varman\",\n      \"email\": \"sen_varman_bhooshit@wolff-zulauf.info\",\n      \"gender\": \"female\",\n      \"status\": \"active\"\n    },\n    {\n      \"id\": 3151,\n      \"name\": \"Suma Gill\",\n      \"email\": \"gill_suma@cronin.com\",\n      \"gender\": \"female\",\n      \"status\": \"active\"\n    }\n  ]\n}\n \n"},{"result":{"nanos":6557200,"millis":6.5572,"status":"passed"},"step":{"line":23,"prefix":"*","index":8,"text":"def actuserCount = jsonResponse.data.length"}},{"result":{"nanos":2626600,"millis":2.6266,"status":"passed"},"step":{"line":24,"prefix":"*","index":9,"text":"print actuserCount"},"stepLog":"09:13:52.767 [print] 10 \n"},{"result":{"nanos":22893800,"millis":22.8938,"status":"passed"},"step":{"line":25,"prefix":"*","index":10,"text":"match actuserCount == 10"}}],"executorName":"main","line":13,"name":"GET API user details","description":"","durationMillis":1016.1504,"startTime":1665321231765,"failed":false,"refId":"[2:13]","endTime":1665321232791,"exampleIndex":-1}],"callDepth":0,"name":"GET API query with parameters","description":"","resultDate":"2022-10-09 09:13:52 am","durationMillis":3561.5212,"passedCount":2}