{"failedCount":0,"prefixedPath":"src\/test\/java\/Features\/GETapiquery.feature","packageQualifiedName":"src.test.java.Features.GETapiquery","loopIndex":-1,"relativePath":"src\/test\/java\/Features\/GETapiquery.feature","scenarioResults":[{"sectionIndex":0,"stepResults":[{"result":{"nanos":78959400,"millis":78.9594,"status":"passed"},"step":{"line":4,"prefix":"*","index":0,"text":"def query = {status: 'active'}"}},{"result":{"nanos":149914100,"millis":149.9141,"status":"passed"},"step":{"line":5,"prefix":"Given","index":1,"text":"url  'https:\/\/gorest.co.in\/public\/v1\/users'"}},{"result":{"nanos":34904400,"millis":34.9044,"status":"passed"},"step":{"line":6,"prefix":"And","index":2,"text":"params query"}},{"result":{"nanos":2171621500,"millis":2171.6215,"status":"passed"},"step":{"line":7,"prefix":"When","index":3,"text":"method GET"},"stepLog":"18:58:43.754 request:\n1 > GET https:\/\/gorest.co.in\/public\/v1\/users?status=active\n1 > Host: gorest.co.in\n1 > Connection: Keep-Alive\n1 > User-Agent: Apache-HttpClient\/4.5.12 (Java\/17.0.4.1)\n1 > Accept-Encoding: gzip,deflate\n\n\n18:58:45.338 response time in milliseconds: 1579\n1 < 200\n1 < Date: Sat, 08 Oct 2022 22:58:45 GMT\n1 < Content-Type: application\/json; charset=utf-8\n1 < Transfer-Encoding: chunked\n1 < Connection: keep-alive\n1 < Cache-Control: max-age=0, private, must-revalidate\n1 < etag: W\/\"d27d803885ecf6ed1a90bd37304aef46\"\n1 < referrer-policy: strict-origin-when-cross-origin\n1 < vary: Origin\n1 < x-content-type-options: nosniff\n1 < x-download-options: noopen\n1 < x-frame-options: SAMEORIGIN\n1 < x-permitted-cross-domain-policies: none\n1 < x-request-id: 1dbd6739-920a-4ca0-a97b-34bd240ab798\n1 < x-runtime: 0.028375\n1 < x-xss-protection: 0\n1 < CF-Cache-Status: DYNAMIC\n1 < Report-To: {\"endpoints\":[{\"url\":\"https:\\\/\\\/a.nel.cloudflare.com\\\/report\\\/v3?s=%2F1czWIIz7LesPdyoo1v4eMFQbFuxW4VJ9%2FYw%2BvP5N5RFfXCo5o7jrliCRverXS%2Flw47lP3sX9bfHkuT0zNrxHnfA9nyYdBBEDdCGi0CKkkwJBzLTXEFUsRGYjgyCRsE%3D\"}],\"group\":\"cf-nel\",\"max_age\":604800}\n1 < NEL: {\"success_fraction\":0,\"report_to\":\"cf-nel\",\"max_age\":604800}\n1 < Server: cloudflare\n1 < CF-RAY: 75727ba38d80b0c4-ATL\n1 < alt-svc: h3=\":443\"; ma=86400, h3-29=\":443\"; ma=86400\n{\"meta\":{\"pagination\":{\"total\":1627,\"pages\":163,\"page\":1,\"limit\":10,\"links\":{\"previous\":null,\"current\":\"https:\/\/gorest.co.in\/public\/v1\/users?page=1\",\"next\":\"https:\/\/gorest.co.in\/public\/v1\/users?page=2\"}}},\"data\":[{\"id\":3198,\"name\":\"Ekaling Ganaka Esq.\",\"email\":\"ganaka_ekaling_esq@oconner.biz\",\"gender\":\"male\",\"status\":\"active\"},{\"id\":3196,\"name\":\"Aagneya Talwar\",\"email\":\"talwar_aagneya@hettinger.io\",\"gender\":\"female\",\"status\":\"active\"},{\"id\":3193,\"name\":\"Subhash Butt\",\"email\":\"subhash_butt@haag-flatley.info\",\"gender\":\"male\",\"status\":\"active\"},{\"id\":3192,\"name\":\"Amaranaath Kaur\",\"email\":\"amaranaath_kaur@schumm.org\",\"gender\":\"male\",\"status\":\"active\"},{\"id\":3189,\"name\":\"Baladitya Arora\",\"email\":\"baladitya_arora@koelpin.biz\",\"gender\":\"male\",\"status\":\"active\"},{\"id\":3188,\"name\":\"Ekdant Nair\",\"email\":\"ekdant_nair@wyman.org\",\"gender\":\"female\",\"status\":\"active\"},{\"id\":3187,\"name\":\"Anaadi Sethi DC\",\"email\":\"dc_sethi_anaadi@batz.net\",\"gender\":\"male\",\"status\":\"active\"},{\"id\":3183,\"name\":\"Aagney Nayar\",\"email\":\"aagney_nayar@dooley-moen.name\",\"gender\":\"female\",\"status\":\"active\"},{\"id\":3182,\"name\":\"Sanka Verma\",\"email\":\"sanka_verma@durgan-jast.name\",\"gender\":\"female\",\"status\":\"active\"},{\"id\":3180,\"name\":\"Trilok Nehru\",\"email\":\"trilok_nehru@murray.co\",\"gender\":\"female\",\"status\":\"active\"}]}\n\n"},{"result":{"nanos":34900,"millis":0.0349,"status":"passed"},"step":{"line":8,"prefix":"Then","index":4,"text":"status 200"}},{"result":{"nanos":99423700,"millis":99.4237,"status":"passed"},"step":{"line":9,"prefix":"*","index":5,"text":"print response"},"stepLog":"18:58:45.446 [print] {\n  \"meta\": {\n    \"pagination\": {\n      \"total\": 1627,\n      \"pages\": 163,\n      \"page\": 1,\n      \"limit\": 10,\n      \"links\": {\n        \"previous\": null,\n        \"current\": \"https:\/\/gorest.co.in\/public\/v1\/users?page=1\",\n        \"next\": \"https:\/\/gorest.co.in\/public\/v1\/users?page=2\"\n      }\n    }\n  },\n  \"data\": [\n    {\n      \"id\": 3198,\n      \"name\": \"Ekaling Ganaka Esq.\",\n      \"email\": \"ganaka_ekaling_esq@oconner.biz\",\n      \"gender\": \"male\",\n      \"status\": \"active\"\n    },\n    {\n      \"id\": 3196,\n      \"name\": \"Aagneya Talwar\",\n      \"email\": \"talwar_aagneya@hettinger.io\",\n      \"gender\": \"female\",\n      \"status\": \"active\"\n    },\n    {\n      \"id\": 3193,\n      \"name\": \"Subhash Butt\",\n      \"email\": \"subhash_butt@haag-flatley.info\",\n      \"gender\": \"male\",\n      \"status\": \"active\"\n    },\n    {\n      \"id\": 3192,\n      \"name\": \"Amaranaath Kaur\",\n      \"email\": \"amaranaath_kaur@schumm.org\",\n      \"gender\": \"male\",\n      \"status\": \"active\"\n    },\n    {\n      \"id\": 3189,\n      \"name\": \"Baladitya Arora\",\n      \"email\": \"baladitya_arora@koelpin.biz\",\n      \"gender\": \"male\",\n      \"status\": \"active\"\n    },\n    {\n      \"id\": 3188,\n      \"name\": \"Ekdant Nair\",\n      \"email\": \"ekdant_nair@wyman.org\",\n      \"gender\": \"female\",\n      \"status\": \"active\"\n    },\n    {\n      \"id\": 3187,\n      \"name\": \"Anaadi Sethi DC\",\n      \"email\": \"dc_sethi_anaadi@batz.net\",\n      \"gender\": \"male\",\n      \"status\": \"active\"\n    },\n    {\n      \"id\": 3183,\n      \"name\": \"Aagney Nayar\",\n      \"email\": \"aagney_nayar@dooley-moen.name\",\n      \"gender\": \"female\",\n      \"status\": \"active\"\n    },\n    {\n      \"id\": 3182,\n      \"name\": \"Sanka Verma\",\n      \"email\": \"sanka_verma@durgan-jast.name\",\n      \"gender\": \"female\",\n      \"status\": \"active\"\n    },\n    {\n      \"id\": 3180,\n      \"name\": \"Trilok Nehru\",\n      \"email\": \"trilok_nehru@murray.co\",\n      \"gender\": \"female\",\n      \"status\": \"active\"\n    }\n  ]\n}\n \n"}],"executorName":"main","line":3,"name":"GET API user details with query","description":"","durationMillis":2534.858,"startTime":1665269922890,"failed":false,"refId":"[1:3]","endTime":1665269925448,"exampleIndex":-1},{"sectionIndex":1,"stepResults":[{"result":{"nanos":1267300,"millis":1.2673,"status":"passed"},"step":{"line":13,"prefix":"*","index":0,"text":"def query = {status: 'active'}"}},{"result":{"nanos":1479600,"millis":1.4796,"status":"passed"},"step":{"line":14,"prefix":"Given","index":1,"text":"url 'https:\/\/gorest.co.in\/public\/v1\/users'"}},{"result":{"nanos":246400,"millis":0.2464,"status":"passed"},"step":{"line":15,"prefix":"And","index":2,"text":"params query"}},{"result":{"nanos":990864800,"millis":990.8648,"status":"passed"},"step":{"line":16,"prefix":"When","index":3,"text":"method GET"},"stepLog":"18:58:45.466 request:\n1 > GET https:\/\/gorest.co.in\/public\/v1\/users?status=active\n1 > Host: gorest.co.in\n1 > Connection: Keep-Alive\n1 > User-Agent: Apache-HttpClient\/4.5.12 (Java\/17.0.4.1)\n1 > Accept-Encoding: gzip,deflate\n\n\n18:58:46.448 response time in milliseconds: 980\n1 < 200\n1 < Date: Sat, 08 Oct 2022 22:58:46 GMT\n1 < Content-Type: application\/json; charset=utf-8\n1 < Transfer-Encoding: chunked\n1 < Connection: keep-alive\n1 < Cache-Control: max-age=0, private, must-revalidate\n1 < etag: W\/\"d27d803885ecf6ed1a90bd37304aef46\"\n1 < referrer-policy: strict-origin-when-cross-origin\n1 < vary: Origin\n1 < x-content-type-options: nosniff\n1 < x-download-options: noopen\n1 < x-frame-options: SAMEORIGIN\n1 < x-permitted-cross-domain-policies: none\n1 < x-request-id: 98e7e526-6e31-43d9-81ab-00af13954c02\n1 < x-runtime: 0.019657\n1 < x-xss-protection: 0\n1 < CF-Cache-Status: DYNAMIC\n1 < Report-To: {\"endpoints\":[{\"url\":\"https:\\\/\\\/a.nel.cloudflare.com\\\/report\\\/v3?s=GB%2FkaFU0y2kVqrfUCVIRzcmU9xIBtPLahvEBrmm57w8Ny4rCTttdqojR4w79ZCtcY8iHNCdYshdHE2%2BZL4W1TceS0HIHe4m3rQzqMbFaf9%2FWYCEdnh%2Fsn3Ya4qDvLMo%3D\"}],\"group\":\"cf-nel\",\"max_age\":604800}\n1 < NEL: {\"success_fraction\":0,\"report_to\":\"cf-nel\",\"max_age\":604800}\n1 < Server: cloudflare\n1 < CF-RAY: 75727baa682facf7-ATL\n1 < alt-svc: h3=\":443\"; ma=86400, h3-29=\":443\"; ma=86400\n{\"meta\":{\"pagination\":{\"total\":1627,\"pages\":163,\"page\":1,\"limit\":10,\"links\":{\"previous\":null,\"current\":\"https:\/\/gorest.co.in\/public\/v1\/users?page=1\",\"next\":\"https:\/\/gorest.co.in\/public\/v1\/users?page=2\"}}},\"data\":[{\"id\":3198,\"name\":\"Ekaling Ganaka Esq.\",\"email\":\"ganaka_ekaling_esq@oconner.biz\",\"gender\":\"male\",\"status\":\"active\"},{\"id\":3196,\"name\":\"Aagneya Talwar\",\"email\":\"talwar_aagneya@hettinger.io\",\"gender\":\"female\",\"status\":\"active\"},{\"id\":3193,\"name\":\"Subhash Butt\",\"email\":\"subhash_butt@haag-flatley.info\",\"gender\":\"male\",\"status\":\"active\"},{\"id\":3192,\"name\":\"Amaranaath Kaur\",\"email\":\"amaranaath_kaur@schumm.org\",\"gender\":\"male\",\"status\":\"active\"},{\"id\":3189,\"name\":\"Baladitya Arora\",\"email\":\"baladitya_arora@koelpin.biz\",\"gender\":\"male\",\"status\":\"active\"},{\"id\":3188,\"name\":\"Ekdant Nair\",\"email\":\"ekdant_nair@wyman.org\",\"gender\":\"female\",\"status\":\"active\"},{\"id\":3187,\"name\":\"Anaadi Sethi DC\",\"email\":\"dc_sethi_anaadi@batz.net\",\"gender\":\"male\",\"status\":\"active\"},{\"id\":3183,\"name\":\"Aagney Nayar\",\"email\":\"aagney_nayar@dooley-moen.name\",\"gender\":\"female\",\"status\":\"active\"},{\"id\":3182,\"name\":\"Sanka Verma\",\"email\":\"sanka_verma@durgan-jast.name\",\"gender\":\"female\",\"status\":\"active\"},{\"id\":3180,\"name\":\"Trilok Nehru\",\"email\":\"trilok_nehru@murray.co\",\"gender\":\"female\",\"status\":\"active\"}]}\n\n"},{"result":{"nanos":43100,"millis":0.0431,"status":"passed"},"step":{"line":17,"prefix":"Then","index":4,"text":"status 200"}},{"result":{"nanos":7092300,"millis":7.0923,"status":"passed"},"step":{"line":18,"prefix":"*","index":5,"text":"print response"},"stepLog":"18:58:46.462 [print] {\n  \"meta\": {\n    \"pagination\": {\n      \"total\": 1627,\n      \"pages\": 163,\n      \"page\": 1,\n      \"limit\": 10,\n      \"links\": {\n        \"previous\": null,\n        \"current\": \"https:\/\/gorest.co.in\/public\/v1\/users?page=1\",\n        \"next\": \"https:\/\/gorest.co.in\/public\/v1\/users?page=2\"\n      }\n    }\n  },\n  \"data\": [\n    {\n      \"id\": 3198,\n      \"name\": \"Ekaling Ganaka Esq.\",\n      \"email\": \"ganaka_ekaling_esq@oconner.biz\",\n      \"gender\": \"male\",\n      \"status\": \"active\"\n    },\n    {\n      \"id\": 3196,\n      \"name\": \"Aagneya Talwar\",\n      \"email\": \"talwar_aagneya@hettinger.io\",\n      \"gender\": \"female\",\n      \"status\": \"active\"\n    },\n    {\n      \"id\": 3193,\n      \"name\": \"Subhash Butt\",\n      \"email\": \"subhash_butt@haag-flatley.info\",\n      \"gender\": \"male\",\n      \"status\": \"active\"\n    },\n    {\n      \"id\": 3192,\n      \"name\": \"Amaranaath Kaur\",\n      \"email\": \"amaranaath_kaur@schumm.org\",\n      \"gender\": \"male\",\n      \"status\": \"active\"\n    },\n    {\n      \"id\": 3189,\n      \"name\": \"Baladitya Arora\",\n      \"email\": \"baladitya_arora@koelpin.biz\",\n      \"gender\": \"male\",\n      \"status\": \"active\"\n    },\n    {\n      \"id\": 3188,\n      \"name\": \"Ekdant Nair\",\n      \"email\": \"ekdant_nair@wyman.org\",\n      \"gender\": \"female\",\n      \"status\": \"active\"\n    },\n    {\n      \"id\": 3187,\n      \"name\": \"Anaadi Sethi DC\",\n      \"email\": \"dc_sethi_anaadi@batz.net\",\n      \"gender\": \"male\",\n      \"status\": \"active\"\n    },\n    {\n      \"id\": 3183,\n      \"name\": \"Aagney Nayar\",\n      \"email\": \"aagney_nayar@dooley-moen.name\",\n      \"gender\": \"female\",\n      \"status\": \"active\"\n    },\n    {\n      \"id\": 3182,\n      \"name\": \"Sanka Verma\",\n      \"email\": \"sanka_verma@durgan-jast.name\",\n      \"gender\": \"female\",\n      \"status\": \"active\"\n    },\n    {\n      \"id\": 3180,\n      \"name\": \"Trilok Nehru\",\n      \"email\": \"trilok_nehru@murray.co\",\n      \"gender\": \"female\",\n      \"status\": \"active\"\n    }\n  ]\n}\n \n"},{"result":{"nanos":704900,"millis":0.7049,"status":"passed"},"step":{"line":19,"prefix":"*","index":6,"text":"def jsonResponse = response"}},{"result":{"nanos":2895000,"millis":2.895,"status":"passed"},"step":{"line":20,"prefix":"*","index":7,"text":"print jsonResponse"},"stepLog":"18:58:46.466 [print] {\n  \"meta\": {\n    \"pagination\": {\n      \"total\": 1627,\n      \"pages\": 163,\n      \"page\": 1,\n      \"limit\": 10,\n      \"links\": {\n        \"previous\": null,\n        \"current\": \"https:\/\/gorest.co.in\/public\/v1\/users?page=1\",\n        \"next\": \"https:\/\/gorest.co.in\/public\/v1\/users?page=2\"\n      }\n    }\n  },\n  \"data\": [\n    {\n      \"id\": 3198,\n      \"name\": \"Ekaling Ganaka Esq.\",\n      \"email\": \"ganaka_ekaling_esq@oconner.biz\",\n      \"gender\": \"male\",\n      \"status\": \"active\"\n    },\n    {\n      \"id\": 3196,\n      \"name\": \"Aagneya Talwar\",\n      \"email\": \"talwar_aagneya@hettinger.io\",\n      \"gender\": \"female\",\n      \"status\": \"active\"\n    },\n    {\n      \"id\": 3193,\n      \"name\": \"Subhash Butt\",\n      \"email\": \"subhash_butt@haag-flatley.info\",\n      \"gender\": \"male\",\n      \"status\": \"active\"\n    },\n    {\n      \"id\": 3192,\n      \"name\": \"Amaranaath Kaur\",\n      \"email\": \"amaranaath_kaur@schumm.org\",\n      \"gender\": \"male\",\n      \"status\": \"active\"\n    },\n    {\n      \"id\": 3189,\n      \"name\": \"Baladitya Arora\",\n      \"email\": \"baladitya_arora@koelpin.biz\",\n      \"gender\": \"male\",\n      \"status\": \"active\"\n    },\n    {\n      \"id\": 3188,\n      \"name\": \"Ekdant Nair\",\n      \"email\": \"ekdant_nair@wyman.org\",\n      \"gender\": \"female\",\n      \"status\": \"active\"\n    },\n    {\n      \"id\": 3187,\n      \"name\": \"Anaadi Sethi DC\",\n      \"email\": \"dc_sethi_anaadi@batz.net\",\n      \"gender\": \"male\",\n      \"status\": \"active\"\n    },\n    {\n      \"id\": 3183,\n      \"name\": \"Aagney Nayar\",\n      \"email\": \"aagney_nayar@dooley-moen.name\",\n      \"gender\": \"female\",\n      \"status\": \"active\"\n    },\n    {\n      \"id\": 3182,\n      \"name\": \"Sanka Verma\",\n      \"email\": \"sanka_verma@durgan-jast.name\",\n      \"gender\": \"female\",\n      \"status\": \"active\"\n    },\n    {\n      \"id\": 3180,\n      \"name\": \"Trilok Nehru\",\n      \"email\": \"trilok_nehru@murray.co\",\n      \"gender\": \"female\",\n      \"status\": \"active\"\n    }\n  ]\n}\n \n"},{"result":{"nanos":3083100,"millis":3.0831,"status":"passed"},"step":{"line":21,"prefix":"*","index":8,"text":"def userCount = jsonResponse.data.length"}},{"result":{"nanos":1850100,"millis":1.8501,"status":"passed"},"step":{"line":22,"prefix":"*","index":9,"text":"print userCount"},"stepLog":"18:58:46.471 [print] 10 \n"}],"executorName":"main","line":12,"name":"GET API user details","description":"","durationMillis":1009.5266,"startTime":1665269925460,"failed":false,"refId":"[2:12]","endTime":1665269926471,"exampleIndex":-1}],"callDepth":0,"name":"GET API with query parameter","description":"","resultDate":"2022-10-08 06:58:46 pm","durationMillis":3544.3846,"passedCount":2}