{"failedCount":1,"prefixedPath":"src\/test\/java\/Features\/GETapiquery.feature","packageQualifiedName":"src.test.java.Features.GETapiquery","loopIndex":-1,"relativePath":"src\/test\/java\/Features\/GETapiquery.feature","scenarioResults":[{"sectionIndex":0,"stepResults":[{"result":{"nanos":87692100,"millis":87.6921,"status":"passed"},"step":{"line":4,"prefix":"*","index":0,"text":"def query = {status:'active'}"}},{"result":{"nanos":160093500,"millis":160.0935,"status":"passed"},"step":{"line":5,"prefix":"Given","index":1,"text":"url 'https:\/\/gorest.co.in\/public\/v1\/users'"}},{"result":{"nanos":55043500,"millis":55.0435,"status":"passed"},"step":{"line":6,"prefix":"And","index":2,"text":"params query"}},{"result":{"nanos":1968689500,"millis":1968.6895,"status":"passed"},"step":{"line":7,"prefix":"When","index":3,"text":"method GET"},"stepLog":"12:06:28.666 request:\n1 > GET https:\/\/gorest.co.in\/public\/v1\/users?status=active\n1 > Host: gorest.co.in\n1 > Connection: Keep-Alive\n1 > User-Agent: Apache-HttpClient\/4.5.12 (Java\/17.0.4.1)\n1 > Accept-Encoding: gzip,deflate\n\n\n12:06:30.082 response time in milliseconds: 1408\n1 < 200\n1 < Date: Sat, 08 Oct 2022 16:06:29 GMT\n1 < Content-Type: application\/json; charset=utf-8\n1 < Transfer-Encoding: chunked\n1 < Connection: keep-alive\n1 < Cache-Control: max-age=0, private, must-revalidate\n1 < etag: W\/\"cd9fe4f4bdadc4e3cf4652fe765e4f31\"\n1 < referrer-policy: strict-origin-when-cross-origin\n1 < vary: Origin\n1 < x-content-type-options: nosniff\n1 < x-download-options: noopen\n1 < x-frame-options: SAMEORIGIN\n1 < x-permitted-cross-domain-policies: none\n1 < x-request-id: 31d05574-b274-49b5-9f80-1fea550ebc29\n1 < x-runtime: 0.050502\n1 < x-xss-protection: 0\n1 < CF-Cache-Status: DYNAMIC\n1 < Report-To: {\"endpoints\":[{\"url\":\"https:\\\/\\\/a.nel.cloudflare.com\\\/report\\\/v3?s=Q%2FjB0Y9UDFtaCWlkkbT5hYfUjA72UWLREcjaV%2F%2FGmKPXd%2BLSb8l3jF%2BFqwKWaoaqeKKCVl4xchd8xjWcM9bLrGvzekRgvUgRSGxPDZGbXhExOf3k3AOlIFmC0kAqdKw%3D\"}],\"group\":\"cf-nel\",\"max_age\":604800}\n1 < NEL: {\"success_fraction\":0,\"report_to\":\"cf-nel\",\"max_age\":604800}\n1 < Server: cloudflare\n1 < CF-RAY: 75701fbf9e66ec29-ATL\n1 < alt-svc: h3=\":443\"; ma=86400, h3-29=\":443\"; ma=86400\n{\"meta\":{\"pagination\":{\"total\":1667,\"pages\":167,\"page\":1,\"limit\":10,\"links\":{\"previous\":null,\"current\":\"https:\/\/gorest.co.in\/public\/v1\/users?page=1\",\"next\":\"https:\/\/gorest.co.in\/public\/v1\/users?page=2\"}}},\"data\":[{\"id\":3397,\"name\":\"Charumati Patil\",\"email\":\"patil_charumati@herzog-altenwerth.com\",\"gender\":\"male\",\"status\":\"active\"},{\"id\":3392,\"name\":\"Shanti Kocchar\",\"email\":\"kocchar_shanti@wilderman.name\",\"gender\":\"male\",\"status\":\"active\"},{\"id\":3391,\"name\":\"Aadi Agarwal\",\"email\":\"agarwal_aadi@daniel.com\",\"gender\":\"male\",\"status\":\"active\"},{\"id\":3390,\"name\":\"Anurag Asan\",\"email\":\"anurag_asan@walter.co\",\"gender\":\"female\",\"status\":\"active\"},{\"id\":3389,\"name\":\"Gorakhanatha Shukla MD\",\"email\":\"gorakhanatha_shukla_md@tillman.name\",\"gender\":\"female\",\"status\":\"active\"},{\"id\":3386,\"name\":\"Vedang Shah\",\"email\":\"vedang_shah@jakubowski.com\",\"gender\":\"female\",\"status\":\"active\"},{\"id\":3385,\"name\":\"Baalaaditya Pilla\",\"email\":\"baalaaditya_pilla@romaguera.biz\",\"gender\":\"female\",\"status\":\"active\"},{\"id\":3384,\"name\":\"Hari Pillai\",\"email\":\"pillai_hari@johnston.org\",\"gender\":\"female\",\"status\":\"active\"},{\"id\":3383,\"name\":\"Niranjan Adiga\",\"email\":\"adiga_niranjan@halvorson.co\",\"gender\":\"female\",\"status\":\"active\"},{\"id\":3380,\"name\":\"Siddhi Banerjee\",\"email\":\"siddhi_banerjee@wolff.com\",\"gender\":\"male\",\"status\":\"active\"}]}\n\n"},{"result":{"nanos":46300,"millis":0.0463,"status":"passed"},"step":{"line":8,"prefix":"Then","index":4,"text":"status 200"}},{"result":{"nanos":181136400,"millis":181.1364,"status":"passed"},"step":{"line":9,"prefix":"*","index":5,"text":"print response"},"stepLog":"12:06:30.276 [print] {\n  \"meta\": {\n    \"pagination\": {\n      \"total\": 1667,\n      \"pages\": 167,\n      \"page\": 1,\n      \"limit\": 10,\n      \"links\": {\n        \"previous\": null,\n        \"current\": \"https:\/\/gorest.co.in\/public\/v1\/users?page=1\",\n        \"next\": \"https:\/\/gorest.co.in\/public\/v1\/users?page=2\"\n      }\n    }\n  },\n  \"data\": [\n    {\n      \"id\": 3397,\n      \"name\": \"Charumati Patil\",\n      \"email\": \"patil_charumati@herzog-altenwerth.com\",\n      \"gender\": \"male\",\n      \"status\": \"active\"\n    },\n    {\n      \"id\": 3392,\n      \"name\": \"Shanti Kocchar\",\n      \"email\": \"kocchar_shanti@wilderman.name\",\n      \"gender\": \"male\",\n      \"status\": \"active\"\n    },\n    {\n      \"id\": 3391,\n      \"name\": \"Aadi Agarwal\",\n      \"email\": \"agarwal_aadi@daniel.com\",\n      \"gender\": \"male\",\n      \"status\": \"active\"\n    },\n    {\n      \"id\": 3390,\n      \"name\": \"Anurag Asan\",\n      \"email\": \"anurag_asan@walter.co\",\n      \"gender\": \"female\",\n      \"status\": \"active\"\n    },\n    {\n      \"id\": 3389,\n      \"name\": \"Gorakhanatha Shukla MD\",\n      \"email\": \"gorakhanatha_shukla_md@tillman.name\",\n      \"gender\": \"female\",\n      \"status\": \"active\"\n    },\n    {\n      \"id\": 3386,\n      \"name\": \"Vedang Shah\",\n      \"email\": \"vedang_shah@jakubowski.com\",\n      \"gender\": \"female\",\n      \"status\": \"active\"\n    },\n    {\n      \"id\": 3385,\n      \"name\": \"Baalaaditya Pilla\",\n      \"email\": \"baalaaditya_pilla@romaguera.biz\",\n      \"gender\": \"female\",\n      \"status\": \"active\"\n    },\n    {\n      \"id\": 3384,\n      \"name\": \"Hari Pillai\",\n      \"email\": \"pillai_hari@johnston.org\",\n      \"gender\": \"female\",\n      \"status\": \"active\"\n    },\n    {\n      \"id\": 3383,\n      \"name\": \"Niranjan Adiga\",\n      \"email\": \"adiga_niranjan@halvorson.co\",\n      \"gender\": \"female\",\n      \"status\": \"active\"\n    },\n    {\n      \"id\": 3380,\n      \"name\": \"Siddhi Banerjee\",\n      \"email\": \"siddhi_banerjee@wolff.com\",\n      \"gender\": \"male\",\n      \"status\": \"active\"\n    }\n  ]\n}\n \n"}],"executorName":"main","line":3,"name":"GET api active user details","description":"","durationMillis":2452.7013,"startTime":1665245187798,"failed":false,"refId":"[1:3]","endTime":1665245190278,"exampleIndex":-1},{"sectionIndex":1,"stepResults":[{"result":{"nanos":2598200,"millis":2.5982,"status":"passed"},"step":{"line":14,"prefix":"*","index":0,"text":"def query = {status:'active'}"}},{"result":{"nanos":1901900,"millis":1.9019,"status":"passed"},"step":{"line":15,"prefix":"Given","index":1,"text":"url 'https:\/\/gorest.co.in\/public\/v1\/users'"}},{"result":{"nanos":306100,"millis":0.3061,"status":"passed"},"step":{"line":16,"prefix":"And","index":2,"text":"params query"}},{"result":{"nanos":982816200,"millis":982.8162,"status":"passed"},"step":{"line":17,"prefix":"When","index":3,"text":"method GET"},"stepLog":"12:06:30.309 request:\n1 > GET https:\/\/gorest.co.in\/public\/v1\/users?status=active\n1 > Host: gorest.co.in\n1 > Connection: Keep-Alive\n1 > User-Agent: Apache-HttpClient\/4.5.12 (Java\/17.0.4.1)\n1 > Accept-Encoding: gzip,deflate\n\n\n12:06:31.282 response time in milliseconds: 971\n1 < 200\n1 < Date: Sat, 08 Oct 2022 16:06:31 GMT\n1 < Content-Type: application\/json; charset=utf-8\n1 < Transfer-Encoding: chunked\n1 < Connection: keep-alive\n1 < Cache-Control: max-age=0, private, must-revalidate\n1 < etag: W\/\"cd9fe4f4bdadc4e3cf4652fe765e4f31\"\n1 < referrer-policy: strict-origin-when-cross-origin\n1 < vary: Origin\n1 < x-content-type-options: nosniff\n1 < x-download-options: noopen\n1 < x-frame-options: SAMEORIGIN\n1 < x-permitted-cross-domain-policies: none\n1 < x-request-id: 363321c4-dc99-4b0a-aca3-5d5fd2a45547\n1 < x-runtime: 0.030947\n1 < x-xss-protection: 0\n1 < CF-Cache-Status: DYNAMIC\n1 < Report-To: {\"endpoints\":[{\"url\":\"https:\\\/\\\/a.nel.cloudflare.com\\\/report\\\/v3?s=7KCbeVyUPFFvgToVW1d%2FuOsInqxx3jRBGann3FTqFjyVIT8woqw5xQpKdIe7ZBaWB6ukR%2FqK0aXP7tYf95UNaLIaTiaTrT6ONCxVFyXfn9Ky2m21A4C7ZjPgixJEu1k%3D\"}],\"group\":\"cf-nel\",\"max_age\":604800}\n1 < NEL: {\"success_fraction\":0,\"report_to\":\"cf-nel\",\"max_age\":604800}\n1 < Server: cloudflare\n1 < CF-RAY: 75701fc78e65ade7-ATL\n1 < alt-svc: h3=\":443\"; ma=86400, h3-29=\":443\"; ma=86400\n{\"meta\":{\"pagination\":{\"total\":1667,\"pages\":167,\"page\":1,\"limit\":10,\"links\":{\"previous\":null,\"current\":\"https:\/\/gorest.co.in\/public\/v1\/users?page=1\",\"next\":\"https:\/\/gorest.co.in\/public\/v1\/users?page=2\"}}},\"data\":[{\"id\":3397,\"name\":\"Charumati Patil\",\"email\":\"patil_charumati@herzog-altenwerth.com\",\"gender\":\"male\",\"status\":\"active\"},{\"id\":3392,\"name\":\"Shanti Kocchar\",\"email\":\"kocchar_shanti@wilderman.name\",\"gender\":\"male\",\"status\":\"active\"},{\"id\":3391,\"name\":\"Aadi Agarwal\",\"email\":\"agarwal_aadi@daniel.com\",\"gender\":\"male\",\"status\":\"active\"},{\"id\":3390,\"name\":\"Anurag Asan\",\"email\":\"anurag_asan@walter.co\",\"gender\":\"female\",\"status\":\"active\"},{\"id\":3389,\"name\":\"Gorakhanatha Shukla MD\",\"email\":\"gorakhanatha_shukla_md@tillman.name\",\"gender\":\"female\",\"status\":\"active\"},{\"id\":3386,\"name\":\"Vedang Shah\",\"email\":\"vedang_shah@jakubowski.com\",\"gender\":\"female\",\"status\":\"active\"},{\"id\":3385,\"name\":\"Baalaaditya Pilla\",\"email\":\"baalaaditya_pilla@romaguera.biz\",\"gender\":\"female\",\"status\":\"active\"},{\"id\":3384,\"name\":\"Hari Pillai\",\"email\":\"pillai_hari@johnston.org\",\"gender\":\"female\",\"status\":\"active\"},{\"id\":3383,\"name\":\"Niranjan Adiga\",\"email\":\"adiga_niranjan@halvorson.co\",\"gender\":\"female\",\"status\":\"active\"},{\"id\":3380,\"name\":\"Siddhi Banerjee\",\"email\":\"siddhi_banerjee@wolff.com\",\"gender\":\"male\",\"status\":\"active\"}]}\n\n"},{"result":{"nanos":25700,"millis":0.0257,"status":"passed"},"step":{"line":18,"prefix":"Then","index":4,"text":"status 200"}},{"result":{"nanos":3436700,"millis":3.4367,"status":"passed"},"step":{"line":19,"prefix":"*","index":5,"text":"print response"},"stepLog":"12:06:31.293 [print] {\n  \"meta\": {\n    \"pagination\": {\n      \"total\": 1667,\n      \"pages\": 167,\n      \"page\": 1,\n      \"limit\": 10,\n      \"links\": {\n        \"previous\": null,\n        \"current\": \"https:\/\/gorest.co.in\/public\/v1\/users?page=1\",\n        \"next\": \"https:\/\/gorest.co.in\/public\/v1\/users?page=2\"\n      }\n    }\n  },\n  \"data\": [\n    {\n      \"id\": 3397,\n      \"name\": \"Charumati Patil\",\n      \"email\": \"patil_charumati@herzog-altenwerth.com\",\n      \"gender\": \"male\",\n      \"status\": \"active\"\n    },\n    {\n      \"id\": 3392,\n      \"name\": \"Shanti Kocchar\",\n      \"email\": \"kocchar_shanti@wilderman.name\",\n      \"gender\": \"male\",\n      \"status\": \"active\"\n    },\n    {\n      \"id\": 3391,\n      \"name\": \"Aadi Agarwal\",\n      \"email\": \"agarwal_aadi@daniel.com\",\n      \"gender\": \"male\",\n      \"status\": \"active\"\n    },\n    {\n      \"id\": 3390,\n      \"name\": \"Anurag Asan\",\n      \"email\": \"anurag_asan@walter.co\",\n      \"gender\": \"female\",\n      \"status\": \"active\"\n    },\n    {\n      \"id\": 3389,\n      \"name\": \"Gorakhanatha Shukla MD\",\n      \"email\": \"gorakhanatha_shukla_md@tillman.name\",\n      \"gender\": \"female\",\n      \"status\": \"active\"\n    },\n    {\n      \"id\": 3386,\n      \"name\": \"Vedang Shah\",\n      \"email\": \"vedang_shah@jakubowski.com\",\n      \"gender\": \"female\",\n      \"status\": \"active\"\n    },\n    {\n      \"id\": 3385,\n      \"name\": \"Baalaaditya Pilla\",\n      \"email\": \"baalaaditya_pilla@romaguera.biz\",\n      \"gender\": \"female\",\n      \"status\": \"active\"\n    },\n    {\n      \"id\": 3384,\n      \"name\": \"Hari Pillai\",\n      \"email\": \"pillai_hari@johnston.org\",\n      \"gender\": \"female\",\n      \"status\": \"active\"\n    },\n    {\n      \"id\": 3383,\n      \"name\": \"Niranjan Adiga\",\n      \"email\": \"adiga_niranjan@halvorson.co\",\n      \"gender\": \"female\",\n      \"status\": \"active\"\n    },\n    {\n      \"id\": 3380,\n      \"name\": \"Siddhi Banerjee\",\n      \"email\": \"siddhi_banerjee@wolff.com\",\n      \"gender\": \"male\",\n      \"status\": \"active\"\n    }\n  ]\n}\n \n"},{"result":{"nanos":854900,"millis":0.8549,"status":"passed"},"step":{"line":20,"prefix":"*","index":6,"text":"def jsonResponse = response"}},{"result":{"nanos":4801400,"millis":4.8014,"status":"passed"},"step":{"line":21,"prefix":"*","index":7,"text":"print jsonResponse"},"stepLog":"12:06:31.299 [print] {\n  \"meta\": {\n    \"pagination\": {\n      \"total\": 1667,\n      \"pages\": 167,\n      \"page\": 1,\n      \"limit\": 10,\n      \"links\": {\n        \"previous\": null,\n        \"current\": \"https:\/\/gorest.co.in\/public\/v1\/users?page=1\",\n        \"next\": \"https:\/\/gorest.co.in\/public\/v1\/users?page=2\"\n      }\n    }\n  },\n  \"data\": [\n    {\n      \"id\": 3397,\n      \"name\": \"Charumati Patil\",\n      \"email\": \"patil_charumati@herzog-altenwerth.com\",\n      \"gender\": \"male\",\n      \"status\": \"active\"\n    },\n    {\n      \"id\": 3392,\n      \"name\": \"Shanti Kocchar\",\n      \"email\": \"kocchar_shanti@wilderman.name\",\n      \"gender\": \"male\",\n      \"status\": \"active\"\n    },\n    {\n      \"id\": 3391,\n      \"name\": \"Aadi Agarwal\",\n      \"email\": \"agarwal_aadi@daniel.com\",\n      \"gender\": \"male\",\n      \"status\": \"active\"\n    },\n    {\n      \"id\": 3390,\n      \"name\": \"Anurag Asan\",\n      \"email\": \"anurag_asan@walter.co\",\n      \"gender\": \"female\",\n      \"status\": \"active\"\n    },\n    {\n      \"id\": 3389,\n      \"name\": \"Gorakhanatha Shukla MD\",\n      \"email\": \"gorakhanatha_shukla_md@tillman.name\",\n      \"gender\": \"female\",\n      \"status\": \"active\"\n    },\n    {\n      \"id\": 3386,\n      \"name\": \"Vedang Shah\",\n      \"email\": \"vedang_shah@jakubowski.com\",\n      \"gender\": \"female\",\n      \"status\": \"active\"\n    },\n    {\n      \"id\": 3385,\n      \"name\": \"Baalaaditya Pilla\",\n      \"email\": \"baalaaditya_pilla@romaguera.biz\",\n      \"gender\": \"female\",\n      \"status\": \"active\"\n    },\n    {\n      \"id\": 3384,\n      \"name\": \"Hari Pillai\",\n      \"email\": \"pillai_hari@johnston.org\",\n      \"gender\": \"female\",\n      \"status\": \"active\"\n    },\n    {\n      \"id\": 3383,\n      \"name\": \"Niranjan Adiga\",\n      \"email\": \"adiga_niranjan@halvorson.co\",\n      \"gender\": \"female\",\n      \"status\": \"active\"\n    },\n    {\n      \"id\": 3380,\n      \"name\": \"Siddhi Banerjee\",\n      \"email\": \"siddhi_banerjee@wolff.com\",\n      \"gender\": \"male\",\n      \"status\": \"active\"\n    }\n  ]\n}\n \n"},{"result":{"nanos":7104400,"millis":7.1044,"status":"passed"},"step":{"line":22,"prefix":"*","index":8,"text":"def userCout = jsonResponse.data.length"}},{"result":{"nanos":23508500,"errorMessage":"js failed:\n>>>>\n01: karate.log('[print]',userCount)\n<<<<\norg.graalvm.polyglot.PolyglotException: ReferenceError: \"userCount\" is not defined\n- <js>.:program(Unnamed:1)\n\nsrc\/test\/java\/Features\/GETapiquery.feature:23","millis":23.5085,"status":"failed"},"step":{"line":23,"prefix":"*","index":9,"text":"print userCount"},"stepLog":"12:06:31.331 src\/test\/java\/Features\/GETapiquery.feature:23\n* print userCount\njs failed:\n>>>>\n01: karate.log('[print]',userCount)\n<<<<\norg.graalvm.polyglot.PolyglotException: ReferenceError: \"userCount\" is not defined\n- <js>.:program(Unnamed:1)\n\nsrc\/test\/java\/Features\/GETapiquery.feature:23\n"}],"line":13,"description":"","durationMillis":1027.354,"failed":true,"error":"js failed:\n>>>>\n01: karate.log('[print]',userCount)\n<<<<\norg.graalvm.polyglot.PolyglotException: ReferenceError: \"userCount\" is not defined\n- <js>.:program(Unnamed:1)\n\nsrc\/test\/java\/Features\/GETapiquery.feature:23","executorName":"main","name":"GET api active userCount","startTime":1665245190300,"refId":"[2:13]","endTime":1665245191331,"exampleIndex":-1}],"callDepth":0,"name":"GET api active user query paramaters","description":"","resultDate":"2022-10-08 12:06:31 pm","durationMillis":3480.0553,"passedCount":1}