{"failedCount":0,"prefixedPath":"src\/test\/java\/Features\/GETapiquery.feature","packageQualifiedName":"src.test.java.Features.GETapiquery","loopIndex":-1,"relativePath":"src\/test\/java\/Features\/GETapiquery.feature","scenarioResults":[{"sectionIndex":0,"stepResults":[{"result":{"nanos":89582300,"millis":89.5823,"status":"passed"},"step":{"line":4,"prefix":"*","index":0,"text":"def query = {status: 'active', gender: 'male'}"}},{"result":{"nanos":137324600,"millis":137.3246,"status":"passed"},"step":{"line":5,"prefix":"Given","index":1,"text":"url 'https:\/\/gorest.co.in\/public\/v1\/users'"}},{"result":{"nanos":1892420900,"millis":1892.4209,"status":"passed"},"step":{"line":6,"prefix":"When","index":2,"text":"method GET"},"stepLog":"12:53:38.956 request:\n1 > GET https:\/\/gorest.co.in\/public\/v1\/users\n1 > Host: gorest.co.in\n1 > Connection: Keep-Alive\n1 > User-Agent: Apache-HttpClient\/4.5.12 (Java\/17.0.4.1)\n1 > Accept-Encoding: gzip,deflate\n\n\n12:53:40.341 response time in milliseconds: 1379\n1 < 200\n1 < Date: Tue, 11 Oct 2022 16:53:40 GMT\n1 < Content-Type: application\/json; charset=utf-8\n1 < Transfer-Encoding: chunked\n1 < Connection: keep-alive\n1 < Cache-Control: max-age=0, private, must-revalidate\n1 < etag: W\/\"0f6badc5c0f68e475401627124d69036\"\n1 < referrer-policy: strict-origin-when-cross-origin\n1 < vary: Origin\n1 < x-content-type-options: nosniff\n1 < x-download-options: noopen\n1 < x-frame-options: SAMEORIGIN\n1 < x-permitted-cross-domain-policies: none\n1 < x-request-id: 211e5602-5edf-451d-aba7-42eef723a1f4\n1 < x-runtime: 0.017602\n1 < x-xss-protection: 0\n1 < CF-Cache-Status: DYNAMIC\n1 < Report-To: {\"endpoints\":[{\"url\":\"https:\\\/\\\/a.nel.cloudflare.com\\\/report\\\/v3?s=e8gISmPQt3MJvC6DE3t9vvXBIkBi%2Be4Gedk5HTRjfAISv8datVZW9wGbHowSKDDSImQeIT21n2EuQKB0WUIrt2zKsfwMqgWh0tIC%2Bgr%2BV%2F5myB5pFrqbxjt%2Bb%2FdG%2BjA%3D\"}],\"group\":\"cf-nel\",\"max_age\":604800}\n1 < NEL: {\"success_fraction\":0,\"report_to\":\"cf-nel\",\"max_age\":604800}\n1 < Server: cloudflare\n1 < CF-RAY: 75891cf94a63b136-ATL\n1 < alt-svc: h3=\":443\"; ma=86400, h3-29=\":443\"; ma=86400\n{\"meta\":{\"pagination\":{\"total\":2098,\"pages\":210,\"page\":1,\"limit\":10,\"links\":{\"previous\":null,\"current\":\"https:\/\/gorest.co.in\/public\/v1\/users?page=1\",\"next\":\"https:\/\/gorest.co.in\/public\/v1\/users?page=2\"}}},\"data\":[{\"id\":2164,\"name\":\"Nirbhay Bhattathiri DO\",\"email\":\"bhattathiri_nirbhay_do@ledner.io\",\"gender\":\"female\",\"status\":\"active\"},{\"id\":2163,\"name\":\"Uttam Mishra VM\",\"email\":\"vm_mishra_uttam@mayert-hartmann.com\",\"gender\":\"male\",\"status\":\"active\"},{\"id\":2161,\"name\":\"Chaaruchandra Kapoor PhD\",\"email\":\"chaaruchandra_kapoor_phd@borer.co\",\"gender\":\"male\",\"status\":\"active\"},{\"id\":2160,\"name\":\"Jaimini Tagore\",\"email\":\"jaimini_tagore@jacobson.net\",\"gender\":\"male\",\"status\":\"active\"},{\"id\":2159,\"name\":\"Darshan Namboothiri VM\",\"email\":\"darshan_vm_namboothiri@kilback-auer.net\",\"gender\":\"female\",\"status\":\"inactive\"},{\"id\":2158,\"name\":\"Aditya Sethi\",\"email\":\"aditya_sethi@mohr.org\",\"gender\":\"female\",\"status\":\"inactive\"},{\"id\":2157,\"name\":\"Swara Trivedi\",\"email\":\"swara_trivedi@wolf-orn.com\",\"gender\":\"female\",\"status\":\"active\"},{\"id\":2156,\"name\":\"Dhyanesh Mahajan\",\"email\":\"dhyanesh_mahajan@heller-stanton.biz\",\"gender\":\"female\",\"status\":\"active\"},{\"id\":2155,\"name\":\"Dipankar Shukla\",\"email\":\"shukla_dipankar@thompson.com\",\"gender\":\"male\",\"status\":\"active\"},{\"id\":2154,\"name\":\"Vidur Varman\",\"email\":\"vidur_varman@welch-schimmel.io\",\"gender\":\"female\",\"status\":\"active\"}]}\n\n"},{"result":{"nanos":37300,"millis":0.0373,"status":"passed"},"step":{"line":7,"prefix":"Then","index":3,"text":"status 200"}},{"result":{"nanos":116970800,"millis":116.9708,"status":"passed"},"step":{"line":8,"prefix":"*","index":4,"text":"print response"},"stepLog":"12:53:40.462 [print] {\n  \"meta\": {\n    \"pagination\": {\n      \"total\": 2098,\n      \"pages\": 210,\n      \"page\": 1,\n      \"limit\": 10,\n      \"links\": {\n        \"previous\": null,\n        \"current\": \"https:\/\/gorest.co.in\/public\/v1\/users?page=1\",\n        \"next\": \"https:\/\/gorest.co.in\/public\/v1\/users?page=2\"\n      }\n    }\n  },\n  \"data\": [\n    {\n      \"id\": 2164,\n      \"name\": \"Nirbhay Bhattathiri DO\",\n      \"email\": \"bhattathiri_nirbhay_do@ledner.io\",\n      \"gender\": \"female\",\n      \"status\": \"active\"\n    },\n    {\n      \"id\": 2163,\n      \"name\": \"Uttam Mishra VM\",\n      \"email\": \"vm_mishra_uttam@mayert-hartmann.com\",\n      \"gender\": \"male\",\n      \"status\": \"active\"\n    },\n    {\n      \"id\": 2161,\n      \"name\": \"Chaaruchandra Kapoor PhD\",\n      \"email\": \"chaaruchandra_kapoor_phd@borer.co\",\n      \"gender\": \"male\",\n      \"status\": \"active\"\n    },\n    {\n      \"id\": 2160,\n      \"name\": \"Jaimini Tagore\",\n      \"email\": \"jaimini_tagore@jacobson.net\",\n      \"gender\": \"male\",\n      \"status\": \"active\"\n    },\n    {\n      \"id\": 2159,\n      \"name\": \"Darshan Namboothiri VM\",\n      \"email\": \"darshan_vm_namboothiri@kilback-auer.net\",\n      \"gender\": \"female\",\n      \"status\": \"inactive\"\n    },\n    {\n      \"id\": 2158,\n      \"name\": \"Aditya Sethi\",\n      \"email\": \"aditya_sethi@mohr.org\",\n      \"gender\": \"female\",\n      \"status\": \"inactive\"\n    },\n    {\n      \"id\": 2157,\n      \"name\": \"Swara Trivedi\",\n      \"email\": \"swara_trivedi@wolf-orn.com\",\n      \"gender\": \"female\",\n      \"status\": \"active\"\n    },\n    {\n      \"id\": 2156,\n      \"name\": \"Dhyanesh Mahajan\",\n      \"email\": \"dhyanesh_mahajan@heller-stanton.biz\",\n      \"gender\": \"female\",\n      \"status\": \"active\"\n    },\n    {\n      \"id\": 2155,\n      \"name\": \"Dipankar Shukla\",\n      \"email\": \"shukla_dipankar@thompson.com\",\n      \"gender\": \"male\",\n      \"status\": \"active\"\n    },\n    {\n      \"id\": 2154,\n      \"name\": \"Vidur Varman\",\n      \"email\": \"vidur_varman@welch-schimmel.io\",\n      \"gender\": \"female\",\n      \"status\": \"active\"\n    }\n  ]\n}\n \n"}],"executorName":"main","line":3,"name":"GET API user details with query paramerts","description":"","durationMillis":2236.3359,"startTime":1665507218202,"failed":false,"refId":"[1:3]","endTime":1665507220465,"exampleIndex":-1}],"callDepth":0,"name":"GET API with query","description":"","resultDate":"2022-10-11 12:53:40 pm","durationMillis":2236.3359,"passedCount":1}