{"failedCount":0,"prefixedPath":"src\/test\/java\/Features\/GETapiquery.feature","packageQualifiedName":"src.test.java.Features.GETapiquery","loopIndex":-1,"relativePath":"src\/test\/java\/Features\/GETapiquery.feature","scenarioResults":[{"sectionIndex":0,"stepResults":[{"result":{"nanos":150865700,"millis":150.8657,"status":"passed"},"step":{"line":4,"prefix":"*","index":0,"text":"def query = {status:'active', gender:'male', id:3450}"}},{"result":{"nanos":272395400,"millis":272.3954,"status":"passed"},"step":{"line":6,"prefix":"Given","index":1,"text":"url 'https:\/\/gorest.co.in\/public\/v1\/users'"}},{"result":{"nanos":73235600,"millis":73.2356,"status":"passed"},"step":{"line":7,"prefix":"And","index":2,"text":"params query"}},{"result":{"nanos":1667209100,"millis":1667.2091,"status":"passed"},"step":{"line":8,"prefix":"When","index":3,"text":"method GET"},"stepLog":"22:26:23.251 request:\n1 > GET https:\/\/gorest.co.in\/public\/v1\/users?gender=male&id=3450&status=active\n1 > Host: gorest.co.in\n1 > Connection: Keep-Alive\n1 > User-Agent: Apache-HttpClient\/4.5.12 (Java\/17.0.4.1)\n1 > Accept-Encoding: gzip,deflate\n\n\n22:26:24.176 response time in milliseconds: 920\n1 < 200\n1 < Date: Sat, 08 Oct 2022 02:26:22 GMT\n1 < Content-Type: application\/json; charset=utf-8\n1 < Transfer-Encoding: chunked\n1 < Connection: keep-alive\n1 < Cache-Control: max-age=0, private, must-revalidate\n1 < etag: W\/\"7d0fad3944b5884d753950e7824069d3\"\n1 < referrer-policy: strict-origin-when-cross-origin\n1 < vary: Origin\n1 < x-content-type-options: nosniff\n1 < x-download-options: noopen\n1 < x-frame-options: SAMEORIGIN\n1 < x-permitted-cross-domain-policies: none\n1 < x-request-id: 46c472ac-bdac-486c-a4f3-03fbc0583c35\n1 < x-runtime: 0.038187\n1 < x-xss-protection: 0\n1 < CF-Cache-Status: DYNAMIC\n1 < Report-To: {\"endpoints\":[{\"url\":\"https:\\\/\\\/a.nel.cloudflare.com\\\/report\\\/v3?s=S4U7JjwxWxH9NYXSMWkitynhqyxoywIH93YA1WO52mkrngQjoYy2Qrj8sgI4WIWWLWIK9WHLt5kytLTAU9UE2XjOO3kvx3urzMDenSG3Zxf%2B6nT%2FfuTgvgCs%2FoDyyIc%3D\"}],\"group\":\"cf-nel\",\"max_age\":604800}\n1 < NEL: {\"success_fraction\":0,\"report_to\":\"cf-nel\",\"max_age\":604800}\n1 < Server: cloudflare\n1 < CF-RAY: 756b6e667ac8b184-ATL\n1 < alt-svc: h3=\":443\"; ma=86400, h3-29=\":443\"; ma=86400\n{\"meta\":{\"pagination\":{\"total\":0,\"pages\":0,\"page\":1,\"limit\":10,\"links\":{\"previous\":null,\"current\":null,\"next\":null}}},\"data\":[]}\n\n"},{"result":{"nanos":29400,"millis":0.0294,"status":"passed"},"step":{"line":9,"prefix":"Then","index":4,"text":"status 200"}},{"result":{"nanos":128004800,"millis":128.0048,"status":"passed"},"step":{"line":10,"prefix":"*","index":5,"text":"print response"},"stepLog":"22:26:24.310 [print] {\n  \"meta\": {\n    \"pagination\": {\n      \"total\": 0,\n      \"pages\": 0,\n      \"page\": 1,\n      \"limit\": 10,\n      \"links\": {\n        \"previous\": null,\n        \"current\": null,\n        \"next\": null\n      }\n    }\n  },\n  \"data\": [\n  ]\n}\n \n"}],"executorName":"main","line":3,"name":"get all active user","description":"","durationMillis":2291.74,"startTime":1665195981974,"failed":false,"refId":"[1:3]","endTime":1665195984311,"exampleIndex":-1},{"sectionIndex":1,"stepResults":[{"result":{"nanos":629100,"millis":0.6291,"status":"passed"},"step":{"line":13,"prefix":"*","index":0,"text":"def query = {status:'active'}"}},{"result":{"nanos":552700,"millis":0.5527,"status":"passed"},"step":{"line":14,"prefix":"Given","index":1,"text":"url 'https:\/\/gorest.co.in\/public\/v1\/users'"}},{"result":{"nanos":203500,"millis":0.2035,"status":"passed"},"step":{"line":15,"prefix":"And","index":2,"text":"params query"}},{"result":{"nanos":438673300,"millis":438.6733,"status":"passed"},"step":{"line":16,"prefix":"When","index":3,"text":"method GET"},"stepLog":"22:26:24.337 request:\n1 > GET https:\/\/gorest.co.in\/public\/v1\/users?status=active\n1 > Host: gorest.co.in\n1 > Connection: Keep-Alive\n1 > User-Agent: Apache-HttpClient\/4.5.12 (Java\/17.0.4.1)\n1 > Accept-Encoding: gzip,deflate\n\n\n22:26:24.770 response time in milliseconds: 430\n1 < 200\n1 < Date: Sat, 08 Oct 2022 02:26:22 GMT\n1 < Content-Type: application\/json; charset=utf-8\n1 < Transfer-Encoding: chunked\n1 < Connection: keep-alive\n1 < Cache-Control: max-age=0, private, must-revalidate\n1 < etag: W\/\"5da455bb6caf30cfc8f6c8fa02f8848c\"\n1 < referrer-policy: strict-origin-when-cross-origin\n1 < vary: Origin\n1 < x-content-type-options: nosniff\n1 < x-download-options: noopen\n1 < x-frame-options: SAMEORIGIN\n1 < x-permitted-cross-domain-policies: none\n1 < x-request-id: 2adce18e-ae06-4c55-822f-9fd1c0d34d7d\n1 < x-runtime: 0.037628\n1 < x-xss-protection: 0\n1 < CF-Cache-Status: DYNAMIC\n1 < Report-To: {\"endpoints\":[{\"url\":\"https:\\\/\\\/a.nel.cloudflare.com\\\/report\\\/v3?s=IgFAOaKtpj%2BBwEcF3jeL%2FXRUpPyCEHur9bFVMajyInhYfUee3Aw4RYbja59Q52LCBdW474FmjK6qjoYyXwhj%2FWpaS2T5hyP%2FnInwCnXSKfvbgeHYCUbosKpLXJ5vxOg%3D\"}],\"group\":\"cf-nel\",\"max_age\":604800}\n1 < NEL: {\"success_fraction\":0,\"report_to\":\"cf-nel\",\"max_age\":604800}\n1 < Server: cloudflare\n1 < CF-RAY: 756b6e6a780f0807-ATL\n1 < alt-svc: h3=\":443\"; ma=86400, h3-29=\":443\"; ma=86400\n{\"meta\":{\"pagination\":{\"total\":1715,\"pages\":172,\"page\":1,\"limit\":10,\"links\":{\"previous\":null,\"current\":\"https:\/\/gorest.co.in\/public\/v1\/users?page=1\",\"next\":\"https:\/\/gorest.co.in\/public\/v1\/users?page=2\"}}},\"data\":[{\"id\":3453,\"name\":\"Shrishti Malik\",\"email\":\"malik_shrishti@kemmer-beer.com\",\"gender\":\"female\",\"status\":\"active\"},{\"id\":3451,\"name\":\"Brahmanandam Ahluwalia\",\"email\":\"ahluwalia_brahmanandam@veum.biz\",\"gender\":\"male\",\"status\":\"active\"},{\"id\":3450,\"name\":\"Suryakant Panicker\",\"email\":\"panicker_suryakant@becker.com\",\"gender\":\"female\",\"status\":\"active\"},{\"id\":3444,\"name\":\"Swara Guneta\",\"email\":\"guneta_swara@ondricka.org\",\"gender\":\"male\",\"status\":\"active\"},{\"id\":3442,\"name\":\"Rev. Devika Pilla\",\"email\":\"rev_devika_pilla@simonis-walsh.biz\",\"gender\":\"male\",\"status\":\"active\"},{\"id\":3438,\"name\":\"Chandramauli Johar\",\"email\":\"chandramauli_johar@beatty-graham.info\",\"gender\":\"female\",\"status\":\"active\"},{\"id\":3436,\"name\":\"Chandra Khanna\",\"email\":\"khanna_chandra@kilback.name\",\"gender\":\"female\",\"status\":\"active\"},{\"id\":3435,\"name\":\"Kumuda Tandon DVM\",\"email\":\"tandon_kumuda_dvm@williamson.co\",\"gender\":\"male\",\"status\":\"active\"},{\"id\":3433,\"name\":\"Bhagwanti Devar\",\"email\":\"devar_bhagwanti@hyatt-goodwin.info\",\"gender\":\"male\",\"status\":\"active\"},{\"id\":3432,\"name\":\"Dwaipayan Nambeesan V\",\"email\":\"dwaipayan_nambeesan_v@cummings-kertzmann.biz\",\"gender\":\"male\",\"status\":\"active\"}]}\n\n"},{"result":{"nanos":23600,"millis":0.0236,"status":"passed"},"step":{"line":17,"prefix":"Then","index":4,"text":"status 200"}},{"result":{"nanos":1353700,"millis":1.3537,"status":"passed"},"step":{"line":18,"prefix":"*","index":5,"text":"def jsonResponse = response"}},{"result":{"nanos":7151600,"millis":7.1516,"status":"passed"},"step":{"line":19,"prefix":"*","index":6,"text":"print jsonResponse"},"stepLog":"22:26:24.781 [print] {\n  \"meta\": {\n    \"pagination\": {\n      \"total\": 1715,\n      \"pages\": 172,\n      \"page\": 1,\n      \"limit\": 10,\n      \"links\": {\n        \"previous\": null,\n        \"current\": \"https:\/\/gorest.co.in\/public\/v1\/users?page=1\",\n        \"next\": \"https:\/\/gorest.co.in\/public\/v1\/users?page=2\"\n      }\n    }\n  },\n  \"data\": [\n    {\n      \"id\": 3453,\n      \"name\": \"Shrishti Malik\",\n      \"email\": \"malik_shrishti@kemmer-beer.com\",\n      \"gender\": \"female\",\n      \"status\": \"active\"\n    },\n    {\n      \"id\": 3451,\n      \"name\": \"Brahmanandam Ahluwalia\",\n      \"email\": \"ahluwalia_brahmanandam@veum.biz\",\n      \"gender\": \"male\",\n      \"status\": \"active\"\n    },\n    {\n      \"id\": 3450,\n      \"name\": \"Suryakant Panicker\",\n      \"email\": \"panicker_suryakant@becker.com\",\n      \"gender\": \"female\",\n      \"status\": \"active\"\n    },\n    {\n      \"id\": 3444,\n      \"name\": \"Swara Guneta\",\n      \"email\": \"guneta_swara@ondricka.org\",\n      \"gender\": \"male\",\n      \"status\": \"active\"\n    },\n    {\n      \"id\": 3442,\n      \"name\": \"Rev. Devika Pilla\",\n      \"email\": \"rev_devika_pilla@simonis-walsh.biz\",\n      \"gender\": \"male\",\n      \"status\": \"active\"\n    },\n    {\n      \"id\": 3438,\n      \"name\": \"Chandramauli Johar\",\n      \"email\": \"chandramauli_johar@beatty-graham.info\",\n      \"gender\": \"female\",\n      \"status\": \"active\"\n    },\n    {\n      \"id\": 3436,\n      \"name\": \"Chandra Khanna\",\n      \"email\": \"khanna_chandra@kilback.name\",\n      \"gender\": \"female\",\n      \"status\": \"active\"\n    },\n    {\n      \"id\": 3435,\n      \"name\": \"Kumuda Tandon DVM\",\n      \"email\": \"tandon_kumuda_dvm@williamson.co\",\n      \"gender\": \"male\",\n      \"status\": \"active\"\n    },\n    {\n      \"id\": 3433,\n      \"name\": \"Bhagwanti Devar\",\n      \"email\": \"devar_bhagwanti@hyatt-goodwin.info\",\n      \"gender\": \"male\",\n      \"status\": \"active\"\n    },\n    {\n      \"id\": 3432,\n      \"name\": \"Dwaipayan Nambeesan V\",\n      \"email\": \"dwaipayan_nambeesan_v@cummings-kertzmann.biz\",\n      \"gender\": \"male\",\n      \"status\": \"active\"\n    }\n  ]\n}\n \n"},{"result":{"nanos":9546400,"millis":9.5464,"status":"passed"},"step":{"line":20,"prefix":"*","index":7,"text":"def userCount = jsonResponse.data.length"}},{"result":{"nanos":3691400,"millis":3.6914,"status":"passed"},"step":{"line":21,"prefix":"*","index":8,"text":"print userCount"},"stepLog":"22:26:24.795 [print] 10 \n"}],"executorName":"main","line":12,"name":"get all active user","description":"","durationMillis":461.8253,"startTime":1665195984332,"failed":false,"refId":"[2:12]","endTime":1665195984796,"exampleIndex":-1}],"callDepth":0,"name":"GET API with query Parameters","description":"","resultDate":"2022-10-07 10:26:24 pm","durationMillis":2753.5653,"passedCount":2}