{"failedCount":0,"prefixedPath":"src\/test\/java\/Features\/GETapiquery.feature","packageQualifiedName":"src.test.java.Features.GETapiquery","loopIndex":-1,"relativePath":"src\/test\/java\/Features\/GETapiquery.feature","scenarioResults":[{"sectionIndex":0,"stepResults":[{"result":{"nanos":69924700,"millis":69.9247,"status":"passed"},"step":{"line":4,"prefix":"*","index":0,"text":"def query = {status:'active', gender:'male'}"}},{"result":{"nanos":168638600,"millis":168.6386,"status":"passed"},"step":{"line":6,"prefix":"Given","index":1,"text":"url 'https:\/\/gorest.co.in\/public\/v1\/users'"}},{"result":{"nanos":72027000,"millis":72.027,"status":"passed"},"step":{"line":7,"prefix":"And","index":2,"text":"params query"}},{"result":{"nanos":1968691300,"millis":1968.6913,"status":"passed"},"step":{"line":8,"prefix":"When","index":3,"text":"method GET"},"stepLog":"09:19:58.839 request:\n1 > GET https:\/\/gorest.co.in\/public\/v1\/users?gender=male&status=active\n1 > Host: gorest.co.in\n1 > Connection: Keep-Alive\n1 > User-Agent: Apache-HttpClient\/4.5.12 (Java\/17.0.4.1)\n1 > Accept-Encoding: gzip,deflate\n\n\n09:20:00.230 response time in milliseconds: 1383\n1 < 200\n1 < Date: Sun, 09 Oct 2022 13:19:59 GMT\n1 < Content-Type: application\/json; charset=utf-8\n1 < Transfer-Encoding: chunked\n1 < Connection: keep-alive\n1 < Cache-Control: max-age=0, private, must-revalidate\n1 < etag: W\/\"27b2f335238614a50a137caf13529b30\"\n1 < referrer-policy: strict-origin-when-cross-origin\n1 < vary: Origin\n1 < x-content-type-options: nosniff\n1 < x-download-options: noopen\n1 < x-frame-options: SAMEORIGIN\n1 < x-permitted-cross-domain-policies: none\n1 < x-request-id: f0e307e3-a798-4c2c-81ea-c83a4a381dca\n1 < x-runtime: 0.042526\n1 < x-xss-protection: 0\n1 < CF-Cache-Status: DYNAMIC\n1 < Report-To: {\"endpoints\":[{\"url\":\"https:\\\/\\\/a.nel.cloudflare.com\\\/report\\\/v3?s=P6awKaACHjiFWucVridm1J88qVA44fun2d2XBoVPt51Vk7SS%2B1N3oJoyOvLaMbr5OqY8j8uPQzdhx7KuXgWPSSg%2FvSVne%2FUovMpHv8v4%2Btp5eha5L1hhsyOZ01UfHIY%3D\"}],\"group\":\"cf-nel\",\"max_age\":604800}\n1 < NEL: {\"success_fraction\":0,\"report_to\":\"cf-nel\",\"max_age\":604800}\n1 < Server: cloudflare\n1 < CF-RAY: 757769365e391873-ATL\n1 < alt-svc: h3=\":443\"; ma=86400, h3-29=\":443\"; ma=86400\n{\"meta\":{\"pagination\":{\"total\":819,\"pages\":82,\"page\":1,\"limit\":10,\"links\":{\"previous\":null,\"current\":\"https:\/\/gorest.co.in\/public\/v1\/users?page=1\",\"next\":\"https:\/\/gorest.co.in\/public\/v1\/users?page=2\"}}},\"data\":[{\"id\":3159,\"name\":\"Chaitan Varrier\",\"email\":\"varrier_chaitan@rempel-jenkins.name\",\"gender\":\"male\",\"status\":\"active\"},{\"id\":3154,\"name\":\"Himani Somayaji\",\"email\":\"somayaji_himani@terry.org\",\"gender\":\"male\",\"status\":\"active\"},{\"id\":3150,\"name\":\"Agrata Verma\",\"email\":\"agrata_verma@ullrich.net\",\"gender\":\"male\",\"status\":\"active\"},{\"id\":3143,\"name\":\"Lai Khan\",\"email\":\"lai_khan@schinner-mayer.name\",\"gender\":\"male\",\"status\":\"active\"},{\"id\":3142,\"name\":\"Bhima Mahajan\",\"email\":\"bhima_mahajan@homenick.org\",\"gender\":\"male\",\"status\":\"active\"},{\"id\":3135,\"name\":\"Bhadrak Joshi\",\"email\":\"joshi_bhadrak@breitenberg.com\",\"gender\":\"male\",\"status\":\"active\"},{\"id\":3124,\"name\":\"Ms. Bishnu Chaturvedi\",\"email\":\"chaturvedi_ms_bishnu@weimann.name\",\"gender\":\"male\",\"status\":\"active\"},{\"id\":3121,\"name\":\"Anila Naik\",\"email\":\"anila_naik@franecki.biz\",\"gender\":\"male\",\"status\":\"active\"},{\"id\":3114,\"name\":\"Basanti Menon\",\"email\":\"basanti_menon@rempel.co\",\"gender\":\"male\",\"status\":\"active\"},{\"id\":3113,\"name\":\"Miss Udai Marar\",\"email\":\"marar_miss_udai@braun.co\",\"gender\":\"male\",\"status\":\"active\"}]}\n\n"},{"result":{"nanos":62600,"millis":0.0626,"status":"passed"},"step":{"line":9,"prefix":"Then","index":4,"text":"status 200"}},{"result":{"nanos":146510700,"millis":146.5107,"status":"passed"},"step":{"line":10,"prefix":"*","index":5,"text":"print response"},"stepLog":"09:20:00.388 [print] {\n  \"meta\": {\n    \"pagination\": {\n      \"total\": 819,\n      \"pages\": 82,\n      \"page\": 1,\n      \"limit\": 10,\n      \"links\": {\n        \"previous\": null,\n        \"current\": \"https:\/\/gorest.co.in\/public\/v1\/users?page=1\",\n        \"next\": \"https:\/\/gorest.co.in\/public\/v1\/users?page=2\"\n      }\n    }\n  },\n  \"data\": [\n    {\n      \"id\": 3159,\n      \"name\": \"Chaitan Varrier\",\n      \"email\": \"varrier_chaitan@rempel-jenkins.name\",\n      \"gender\": \"male\",\n      \"status\": \"active\"\n    },\n    {\n      \"id\": 3154,\n      \"name\": \"Himani Somayaji\",\n      \"email\": \"somayaji_himani@terry.org\",\n      \"gender\": \"male\",\n      \"status\": \"active\"\n    },\n    {\n      \"id\": 3150,\n      \"name\": \"Agrata Verma\",\n      \"email\": \"agrata_verma@ullrich.net\",\n      \"gender\": \"male\",\n      \"status\": \"active\"\n    },\n    {\n      \"id\": 3143,\n      \"name\": \"Lai Khan\",\n      \"email\": \"lai_khan@schinner-mayer.name\",\n      \"gender\": \"male\",\n      \"status\": \"active\"\n    },\n    {\n      \"id\": 3142,\n      \"name\": \"Bhima Mahajan\",\n      \"email\": \"bhima_mahajan@homenick.org\",\n      \"gender\": \"male\",\n      \"status\": \"active\"\n    },\n    {\n      \"id\": 3135,\n      \"name\": \"Bhadrak Joshi\",\n      \"email\": \"joshi_bhadrak@breitenberg.com\",\n      \"gender\": \"male\",\n      \"status\": \"active\"\n    },\n    {\n      \"id\": 3124,\n      \"name\": \"Ms. Bishnu Chaturvedi\",\n      \"email\": \"chaturvedi_ms_bishnu@weimann.name\",\n      \"gender\": \"male\",\n      \"status\": \"active\"\n    },\n    {\n      \"id\": 3121,\n      \"name\": \"Anila Naik\",\n      \"email\": \"anila_naik@franecki.biz\",\n      \"gender\": \"male\",\n      \"status\": \"active\"\n    },\n    {\n      \"id\": 3114,\n      \"name\": \"Basanti Menon\",\n      \"email\": \"basanti_menon@rempel.co\",\n      \"gender\": \"male\",\n      \"status\": \"active\"\n    },\n    {\n      \"id\": 3113,\n      \"name\": \"Miss Udai Marar\",\n      \"email\": \"marar_miss_udai@braun.co\",\n      \"gender\": \"male\",\n      \"status\": \"active\"\n    }\n  ]\n}\n \n"}],"executorName":"main","line":3,"name":"GET API user detail with query","description":"","durationMillis":2425.8549,"startTime":1665321597938,"failed":false,"refId":"[1:3]","endTime":1665321600389,"exampleIndex":-1},{"sectionIndex":1,"stepResults":[{"result":{"nanos":1964900,"millis":1.9649,"status":"passed"},"step":{"line":14,"prefix":"*","index":0,"text":"def query = {status:'active'}"}},{"result":{"nanos":956600,"millis":0.9566,"status":"passed"},"step":{"line":16,"prefix":"Given","index":1,"text":"url 'https:\/\/gorest.co.in\/public\/v1\/users'"}},{"result":{"nanos":224500,"millis":0.2245,"status":"passed"},"step":{"line":17,"prefix":"And","index":2,"text":"params query"}},{"result":{"nanos":968063000,"millis":968.063,"status":"passed"},"step":{"line":18,"prefix":"When","index":3,"text":"method GET"},"stepLog":"09:20:00.408 request:\n1 > GET https:\/\/gorest.co.in\/public\/v1\/users?status=active\n1 > Host: gorest.co.in\n1 > Connection: Keep-Alive\n1 > User-Agent: Apache-HttpClient\/4.5.12 (Java\/17.0.4.1)\n1 > Accept-Encoding: gzip,deflate\n\n\n09:20:01.367 response time in milliseconds: 957\n1 < 200\n1 < Date: Sun, 09 Oct 2022 13:20:00 GMT\n1 < Content-Type: application\/json; charset=utf-8\n1 < Transfer-Encoding: chunked\n1 < Connection: keep-alive\n1 < Cache-Control: max-age=0, private, must-revalidate\n1 < etag: W\/\"eb47c8c39c133c75bacf4af220cb8c23\"\n1 < referrer-policy: strict-origin-when-cross-origin\n1 < vary: Origin\n1 < x-content-type-options: nosniff\n1 < x-download-options: noopen\n1 < x-frame-options: SAMEORIGIN\n1 < x-permitted-cross-domain-policies: none\n1 < x-request-id: c481b2c9-c9f6-42cd-968d-85507dc410b6\n1 < x-runtime: 0.023741\n1 < x-xss-protection: 0\n1 < CF-Cache-Status: DYNAMIC\n1 < Report-To: {\"endpoints\":[{\"url\":\"https:\\\/\\\/a.nel.cloudflare.com\\\/report\\\/v3?s=JEVJPBw%2Bku1SZT2uGnZ3aenuSMd1%2Fnu0KsP3v1bcH5drjAcEybepV%2BmWULli2i5%2FLCCKPMdEQ%2BC3KDyHcrw21UDPaHdhn87plKHh4STVtQiHd8pYMyXRUOPEhi0LWus%3D\"}],\"group\":\"cf-nel\",\"max_age\":604800}\n1 < NEL: {\"success_fraction\":0,\"report_to\":\"cf-nel\",\"max_age\":604800}\n1 < Server: cloudflare\n1 < CF-RAY: 7577693dde1ef1c6-ATL\n1 < alt-svc: h3=\":443\"; ma=86400, h3-29=\":443\"; ma=86400\n{\"meta\":{\"pagination\":{\"total\":1601,\"pages\":161,\"page\":1,\"limit\":10,\"links\":{\"previous\":null,\"current\":\"https:\/\/gorest.co.in\/public\/v1\/users?page=1\",\"next\":\"https:\/\/gorest.co.in\/public\/v1\/users?page=2\"}}},\"data\":[{\"id\":3176,\"name\":\"Guru Nehru\",\"email\":\"guru_nehru@daniel-wiegand.net\",\"gender\":\"female\",\"status\":\"active\"},{\"id\":3175,\"name\":\"Paramartha Arora\",\"email\":\"paramartha_arora@haag.info\",\"gender\":\"female\",\"status\":\"active\"},{\"id\":3169,\"name\":\"Nagabhushanam Agarwal\",\"email\":\"nagabhushanam_agarwal@beer.io\",\"gender\":\"female\",\"status\":\"active\"},{\"id\":3162,\"name\":\"Arjun Jain\",\"email\":\"arjun_jain@thompson.info\",\"gender\":\"female\",\"status\":\"active\"},{\"id\":3160,\"name\":\"Devi Dwivedi\",\"email\":\"dwivedi_devi@collins-rippin.org\",\"gender\":\"female\",\"status\":\"active\"},{\"id\":3159,\"name\":\"Chaitan Varrier\",\"email\":\"varrier_chaitan@rempel-jenkins.name\",\"gender\":\"male\",\"status\":\"active\"},{\"id\":3155,\"name\":\"Daevi Rana VM\",\"email\":\"daevi_rana_vm@turcotte.name\",\"gender\":\"female\",\"status\":\"active\"},{\"id\":3154,\"name\":\"Himani Somayaji\",\"email\":\"somayaji_himani@terry.org\",\"gender\":\"male\",\"status\":\"active\"},{\"id\":3153,\"name\":\"Sen. Bhooshit Varman\",\"email\":\"sen_varman_bhooshit@wolff-zulauf.info\",\"gender\":\"female\",\"status\":\"active\"},{\"id\":3151,\"name\":\"Suma Gill\",\"email\":\"gill_suma@cronin.com\",\"gender\":\"female\",\"status\":\"active\"}]}\n\n"},{"result":{"nanos":29000,"millis":0.029,"status":"passed"},"step":{"line":19,"prefix":"Then","index":4,"text":"status 200"}},{"result":{"nanos":5924500,"millis":5.9245,"status":"passed"},"step":{"line":20,"prefix":"*","index":5,"text":"print response"},"stepLog":"09:20:01.378 [print] {\n  \"meta\": {\n    \"pagination\": {\n      \"total\": 1601,\n      \"pages\": 161,\n      \"page\": 1,\n      \"limit\": 10,\n      \"links\": {\n        \"previous\": null,\n        \"current\": \"https:\/\/gorest.co.in\/public\/v1\/users?page=1\",\n        \"next\": \"https:\/\/gorest.co.in\/public\/v1\/users?page=2\"\n      }\n    }\n  },\n  \"data\": [\n    {\n      \"id\": 3176,\n      \"name\": \"Guru Nehru\",\n      \"email\": \"guru_nehru@daniel-wiegand.net\",\n      \"gender\": \"female\",\n      \"status\": \"active\"\n    },\n    {\n      \"id\": 3175,\n      \"name\": \"Paramartha Arora\",\n      \"email\": \"paramartha_arora@haag.info\",\n      \"gender\": \"female\",\n      \"status\": \"active\"\n    },\n    {\n      \"id\": 3169,\n      \"name\": \"Nagabhushanam Agarwal\",\n      \"email\": \"nagabhushanam_agarwal@beer.io\",\n      \"gender\": \"female\",\n      \"status\": \"active\"\n    },\n    {\n      \"id\": 3162,\n      \"name\": \"Arjun Jain\",\n      \"email\": \"arjun_jain@thompson.info\",\n      \"gender\": \"female\",\n      \"status\": \"active\"\n    },\n    {\n      \"id\": 3160,\n      \"name\": \"Devi Dwivedi\",\n      \"email\": \"dwivedi_devi@collins-rippin.org\",\n      \"gender\": \"female\",\n      \"status\": \"active\"\n    },\n    {\n      \"id\": 3159,\n      \"name\": \"Chaitan Varrier\",\n      \"email\": \"varrier_chaitan@rempel-jenkins.name\",\n      \"gender\": \"male\",\n      \"status\": \"active\"\n    },\n    {\n      \"id\": 3155,\n      \"name\": \"Daevi Rana VM\",\n      \"email\": \"daevi_rana_vm@turcotte.name\",\n      \"gender\": \"female\",\n      \"status\": \"active\"\n    },\n    {\n      \"id\": 3154,\n      \"name\": \"Himani Somayaji\",\n      \"email\": \"somayaji_himani@terry.org\",\n      \"gender\": \"male\",\n      \"status\": \"active\"\n    },\n    {\n      \"id\": 3153,\n      \"name\": \"Sen. Bhooshit Varman\",\n      \"email\": \"sen_varman_bhooshit@wolff-zulauf.info\",\n      \"gender\": \"female\",\n      \"status\": \"active\"\n    },\n    {\n      \"id\": 3151,\n      \"name\": \"Suma Gill\",\n      \"email\": \"gill_suma@cronin.com\",\n      \"gender\": \"female\",\n      \"status\": \"active\"\n    }\n  ]\n}\n \n"},{"result":{"nanos":1399200,"millis":1.3992,"status":"passed"},"step":{"line":21,"prefix":"*","index":6,"text":"def jsonResponse = response"}},{"result":{"nanos":5556500,"millis":5.5565,"status":"passed"},"step":{"line":22,"prefix":"*","index":7,"text":"print jsonResponse"},"stepLog":"09:20:01.387 [print] {\n  \"meta\": {\n    \"pagination\": {\n      \"total\": 1601,\n      \"pages\": 161,\n      \"page\": 1,\n      \"limit\": 10,\n      \"links\": {\n        \"previous\": null,\n        \"current\": \"https:\/\/gorest.co.in\/public\/v1\/users?page=1\",\n        \"next\": \"https:\/\/gorest.co.in\/public\/v1\/users?page=2\"\n      }\n    }\n  },\n  \"data\": [\n    {\n      \"id\": 3176,\n      \"name\": \"Guru Nehru\",\n      \"email\": \"guru_nehru@daniel-wiegand.net\",\n      \"gender\": \"female\",\n      \"status\": \"active\"\n    },\n    {\n      \"id\": 3175,\n      \"name\": \"Paramartha Arora\",\n      \"email\": \"paramartha_arora@haag.info\",\n      \"gender\": \"female\",\n      \"status\": \"active\"\n    },\n    {\n      \"id\": 3169,\n      \"name\": \"Nagabhushanam Agarwal\",\n      \"email\": \"nagabhushanam_agarwal@beer.io\",\n      \"gender\": \"female\",\n      \"status\": \"active\"\n    },\n    {\n      \"id\": 3162,\n      \"name\": \"Arjun Jain\",\n      \"email\": \"arjun_jain@thompson.info\",\n      \"gender\": \"female\",\n      \"status\": \"active\"\n    },\n    {\n      \"id\": 3160,\n      \"name\": \"Devi Dwivedi\",\n      \"email\": \"dwivedi_devi@collins-rippin.org\",\n      \"gender\": \"female\",\n      \"status\": \"active\"\n    },\n    {\n      \"id\": 3159,\n      \"name\": \"Chaitan Varrier\",\n      \"email\": \"varrier_chaitan@rempel-jenkins.name\",\n      \"gender\": \"male\",\n      \"status\": \"active\"\n    },\n    {\n      \"id\": 3155,\n      \"name\": \"Daevi Rana VM\",\n      \"email\": \"daevi_rana_vm@turcotte.name\",\n      \"gender\": \"female\",\n      \"status\": \"active\"\n    },\n    {\n      \"id\": 3154,\n      \"name\": \"Himani Somayaji\",\n      \"email\": \"somayaji_himani@terry.org\",\n      \"gender\": \"male\",\n      \"status\": \"active\"\n    },\n    {\n      \"id\": 3153,\n      \"name\": \"Sen. Bhooshit Varman\",\n      \"email\": \"sen_varman_bhooshit@wolff-zulauf.info\",\n      \"gender\": \"female\",\n      \"status\": \"active\"\n    },\n    {\n      \"id\": 3151,\n      \"name\": \"Suma Gill\",\n      \"email\": \"gill_suma@cronin.com\",\n      \"gender\": \"female\",\n      \"status\": \"active\"\n    }\n  ]\n}\n \n"},{"result":{"nanos":7884800,"millis":7.8848,"status":"passed"},"step":{"line":23,"prefix":"*","index":8,"text":"def actuserCount = jsonResponse.data.length"}},{"result":{"nanos":3019400,"millis":3.0194,"status":"passed"},"step":{"line":24,"prefix":"*","index":9,"text":"print actuserCount"},"stepLog":"09:20:01.398 [print] 10 \n"},{"result":{"nanos":29674800,"millis":29.6748,"status":"passed"},"step":{"line":25,"prefix":"*","index":10,"text":"match actuserCount == 10"}}],"executorName":"main","line":13,"name":"GET API user details","description":"","durationMillis":1024.6972,"startTime":1665321600401,"failed":false,"refId":"[2:13]","endTime":1665321601428,"exampleIndex":-1}],"callDepth":0,"name":"GET API query with parameters","description":"","resultDate":"2022-10-09 09:20:01 am","durationMillis":3450.5521,"passedCount":2}