{"failedCount":1,"prefixedPath":"src\/test\/java\/Features\/GETapiquery.feature","packageQualifiedName":"src.test.java.Features.GETapiquery","loopIndex":-1,"relativePath":"src\/test\/java\/Features\/GETapiquery.feature","scenarioResults":[{"sectionIndex":0,"stepResults":[{"result":{"nanos":100300600,"millis":100.3006,"status":"passed"},"step":{"line":4,"prefix":"*","index":0,"text":"def query = {status: 'active', gender:'male'}"}},{"result":{"nanos":166836600,"millis":166.8366,"status":"passed"},"step":{"line":5,"prefix":"Given","index":1,"text":"url 'https:\/\/gorest.co.in\/public\/v1\/users'"}},{"result":{"nanos":2073952600,"millis":2073.9526,"status":"passed"},"step":{"line":6,"prefix":"When","index":2,"text":"method GET"},"stepLog":"10:11:24.448 request:\n1 > GET https:\/\/gorest.co.in\/public\/v1\/users\n1 > Host: gorest.co.in\n1 > Connection: Keep-Alive\n1 > User-Agent: Apache-HttpClient\/4.5.12 (Java\/17.0.4.1)\n1 > Accept-Encoding: gzip,deflate\n\n\n10:11:25.900 response time in milliseconds: 1441\n1 < 200\n1 < Date: Mon, 10 Oct 2022 14:11:24 GMT\n1 < Content-Type: application\/json; charset=utf-8\n1 < Transfer-Encoding: chunked\n1 < Connection: keep-alive\n1 < Cache-Control: max-age=0, private, must-revalidate\n1 < etag: W\/\"1f34606f10237bf20132077818a47912\"\n1 < referrer-policy: strict-origin-when-cross-origin\n1 < vary: Origin\n1 < x-content-type-options: nosniff\n1 < x-download-options: noopen\n1 < x-frame-options: SAMEORIGIN\n1 < x-permitted-cross-domain-policies: none\n1 < x-request-id: 2fcf9e3f-315e-4b2f-b308-c1f6226da62a\n1 < x-runtime: 0.018322\n1 < x-xss-protection: 0\n1 < CF-Cache-Status: DYNAMIC\n1 < Report-To: {\"endpoints\":[{\"url\":\"https:\\\/\\\/a.nel.cloudflare.com\\\/report\\\/v3?s=AnXlb9ghFPlh4oOzYsbei8RXYfCbYHzG14tkTMBR%2FfLnLBvmm8QAwVYoSrJqvUlsttUexv7b0stkinSyjyG4uiP6EkODlvDR%2B2UHAQ8FjVMEU%2F1Og5FKz1obSV0zx4o%3D\"}],\"group\":\"cf-nel\",\"max_age\":604800}\n1 < NEL: {\"success_fraction\":0,\"report_to\":\"cf-nel\",\"max_age\":604800}\n1 < Server: cloudflare\n1 < CF-RAY: 757ff1e9df441857-ATL\n1 < alt-svc: h3=\":443\"; ma=86400, h3-29=\":443\"; ma=86400\n{\"meta\":{\"pagination\":{\"total\":2299,\"pages\":230,\"page\":1,\"limit\":10,\"links\":{\"previous\":null,\"current\":\"https:\/\/gorest.co.in\/public\/v1\/users?page=1\",\"next\":\"https:\/\/gorest.co.in\/public\/v1\/users?page=2\"}}},\"data\":[{\"id\":2355,\"name\":\"Dhanapati Kocchar\",\"email\":\"kocchar_dhanapati@hahn.name\",\"gender\":\"male\",\"status\":\"active\"},{\"id\":2354,\"name\":\"Ankal Tandon\",\"email\":\"ankal_tandon@ferry.io\",\"gender\":\"male\",\"status\":\"inactive\"},{\"id\":2353,\"name\":\"Buddhana Tandon\",\"email\":\"tandon_buddhana@larson-rice.name\",\"gender\":\"female\",\"status\":\"inactive\"},{\"id\":2352,\"name\":\"Trilochan Somayaji\",\"email\":\"trilochan_somayaji@sauer-predovic.info\",\"gender\":\"female\",\"status\":\"inactive\"},{\"id\":2351,\"name\":\"Mr. Amaresh Adiga\",\"email\":\"adiga_amaresh_mr@strosin-larson.name\",\"gender\":\"male\",\"status\":\"active\"},{\"id\":2350,\"name\":\"Vijay Kaur\",\"email\":\"kaur_vijay@prohaska-zieme.co\",\"gender\":\"male\",\"status\":\"active\"},{\"id\":2344,\"name\":\"Gopaal Marar CPA\",\"email\":\"marar_cpa_gopaal@gulgowski.co\",\"gender\":\"male\",\"status\":\"inactive\"},{\"id\":2343,\"name\":\"Chinmayanand Shah DVM\",\"email\":\"shah_chinmayanand_dvm@hoeger-bosco.io\",\"gender\":\"male\",\"status\":\"active\"},{\"id\":2342,\"name\":\"Purnima Johar Sr.\",\"email\":\"purnima_johar_sr@schiller.io\",\"gender\":\"female\",\"status\":\"active\"},{\"id\":2341,\"name\":\"Devika Bhattacharya DVM\",\"email\":\"dvm_devika_bhattacharya@hickle.info\",\"gender\":\"female\",\"status\":\"inactive\"}]}\n\n"},{"result":{"nanos":94900,"millis":0.0949,"status":"passed"},"step":{"line":7,"prefix":"Then","index":3,"text":"status 200"}},{"result":{"nanos":165195600,"millis":165.1956,"status":"passed"},"step":{"line":8,"prefix":"*","index":4,"text":"print response"},"stepLog":"10:11:26.087 [print] {\n  \"meta\": {\n    \"pagination\": {\n      \"total\": 2299,\n      \"pages\": 230,\n      \"page\": 1,\n      \"limit\": 10,\n      \"links\": {\n        \"previous\": null,\n        \"current\": \"https:\/\/gorest.co.in\/public\/v1\/users?page=1\",\n        \"next\": \"https:\/\/gorest.co.in\/public\/v1\/users?page=2\"\n      }\n    }\n  },\n  \"data\": [\n    {\n      \"id\": 2355,\n      \"name\": \"Dhanapati Kocchar\",\n      \"email\": \"kocchar_dhanapati@hahn.name\",\n      \"gender\": \"male\",\n      \"status\": \"active\"\n    },\n    {\n      \"id\": 2354,\n      \"name\": \"Ankal Tandon\",\n      \"email\": \"ankal_tandon@ferry.io\",\n      \"gender\": \"male\",\n      \"status\": \"inactive\"\n    },\n    {\n      \"id\": 2353,\n      \"name\": \"Buddhana Tandon\",\n      \"email\": \"tandon_buddhana@larson-rice.name\",\n      \"gender\": \"female\",\n      \"status\": \"inactive\"\n    },\n    {\n      \"id\": 2352,\n      \"name\": \"Trilochan Somayaji\",\n      \"email\": \"trilochan_somayaji@sauer-predovic.info\",\n      \"gender\": \"female\",\n      \"status\": \"inactive\"\n    },\n    {\n      \"id\": 2351,\n      \"name\": \"Mr. Amaresh Adiga\",\n      \"email\": \"adiga_amaresh_mr@strosin-larson.name\",\n      \"gender\": \"male\",\n      \"status\": \"active\"\n    },\n    {\n      \"id\": 2350,\n      \"name\": \"Vijay Kaur\",\n      \"email\": \"kaur_vijay@prohaska-zieme.co\",\n      \"gender\": \"male\",\n      \"status\": \"active\"\n    },\n    {\n      \"id\": 2344,\n      \"name\": \"Gopaal Marar CPA\",\n      \"email\": \"marar_cpa_gopaal@gulgowski.co\",\n      \"gender\": \"male\",\n      \"status\": \"inactive\"\n    },\n    {\n      \"id\": 2343,\n      \"name\": \"Chinmayanand Shah DVM\",\n      \"email\": \"shah_chinmayanand_dvm@hoeger-bosco.io\",\n      \"gender\": \"male\",\n      \"status\": \"active\"\n    },\n    {\n      \"id\": 2342,\n      \"name\": \"Purnima Johar Sr.\",\n      \"email\": \"purnima_johar_sr@schiller.io\",\n      \"gender\": \"female\",\n      \"status\": \"active\"\n    },\n    {\n      \"id\": 2341,\n      \"name\": \"Devika Bhattacharya DVM\",\n      \"email\": \"dvm_devika_bhattacharya@hickle.info\",\n      \"gender\": \"female\",\n      \"status\": \"inactive\"\n    }\n  ]\n}\n \n"}],"executorName":"main","line":3,"name":"GET API with query parameters","description":"","durationMillis":2506.3803,"startTime":1665411083550,"failed":false,"refId":"[1:3]","endTime":1665411086093,"exampleIndex":-1},{"sectionIndex":1,"stepResults":[{"result":{"nanos":742700,"millis":0.7427,"status":"passed"},"step":{"line":12,"prefix":"*","index":0,"text":"def query = {status:'active'}"}},{"result":{"nanos":7205100,"millis":7.2051,"status":"passed"},"step":{"line":13,"prefix":"Given","index":1,"text":"url 'https:\/\/gorest.co.in\/public\/v1\/users'"}},{"result":{"nanos":37982100,"millis":37.9821,"status":"passed"},"step":{"line":14,"prefix":"And","index":2,"text":"params query"}},{"result":{"nanos":996122600,"millis":996.1226,"status":"passed"},"step":{"line":15,"prefix":"When","index":3,"text":"method GET"},"stepLog":"10:11:26.161 request:\n1 > GET https:\/\/gorest.co.in\/public\/v1\/users?status=active\n1 > Host: gorest.co.in\n1 > Connection: Keep-Alive\n1 > User-Agent: Apache-HttpClient\/4.5.12 (Java\/17.0.4.1)\n1 > Accept-Encoding: gzip,deflate\n\n\n10:11:27.152 response time in milliseconds: 990\n1 < 200\n1 < Date: Mon, 10 Oct 2022 14:11:26 GMT\n1 < Content-Type: application\/json; charset=utf-8\n1 < Transfer-Encoding: chunked\n1 < Connection: keep-alive\n1 < Cache-Control: max-age=0, private, must-revalidate\n1 < etag: W\/\"773ac7e9cc1b26a5b15ab3dfe45631ee\"\n1 < referrer-policy: strict-origin-when-cross-origin\n1 < vary: Origin\n1 < x-content-type-options: nosniff\n1 < x-download-options: noopen\n1 < x-frame-options: SAMEORIGIN\n1 < x-permitted-cross-domain-policies: none\n1 < x-request-id: e30dc305-5a7d-4748-9135-a68ecf2bd7a7\n1 < x-runtime: 0.036704\n1 < x-xss-protection: 0\n1 < CF-Cache-Status: DYNAMIC\n1 < Report-To: {\"endpoints\":[{\"url\":\"https:\\\/\\\/a.nel.cloudflare.com\\\/report\\\/v3?s=oI1TWoFqnB%2FbnExx6325pQz%2BWMZsWJsg3Bm8C3OAaR8DNdmNejoPSSvJLe1%2F%2F2fR53W3S%2Bv4Lr2zSWEPx%2F%2BbJRd7PBP6VWCs%2FA5nQ3ClZc7VAiM9cxLD1IZaB8Ztdb4%3D\"}],\"group\":\"cf-nel\",\"max_age\":604800}\n1 < NEL: {\"success_fraction\":0,\"report_to\":\"cf-nel\",\"max_age\":604800}\n1 < Server: cloudflare\n1 < CF-RAY: 757ff1f1f90bad45-ATL\n1 < alt-svc: h3=\":443\"; ma=86400, h3-29=\":443\"; ma=86400\n{\"meta\":{\"pagination\":{\"total\":1152,\"pages\":116,\"page\":1,\"limit\":10,\"links\":{\"previous\":null,\"current\":\"https:\/\/gorest.co.in\/public\/v1\/users?page=1\",\"next\":\"https:\/\/gorest.co.in\/public\/v1\/users?page=2\"}}},\"data\":[{\"id\":2355,\"name\":\"Dhanapati Kocchar\",\"email\":\"kocchar_dhanapati@hahn.name\",\"gender\":\"male\",\"status\":\"active\"},{\"id\":2351,\"name\":\"Mr. Amaresh Adiga\",\"email\":\"adiga_amaresh_mr@strosin-larson.name\",\"gender\":\"male\",\"status\":\"active\"},{\"id\":2350,\"name\":\"Vijay Kaur\",\"email\":\"kaur_vijay@prohaska-zieme.co\",\"gender\":\"male\",\"status\":\"active\"},{\"id\":2343,\"name\":\"Chinmayanand Shah DVM\",\"email\":\"shah_chinmayanand_dvm@hoeger-bosco.io\",\"gender\":\"male\",\"status\":\"active\"},{\"id\":2342,\"name\":\"Purnima Johar Sr.\",\"email\":\"purnima_johar_sr@schiller.io\",\"gender\":\"female\",\"status\":\"active\"},{\"id\":2339,\"name\":\"Laxmi Tagore VM\",\"email\":\"vm_laxmi_tagore@harris-collins.co\",\"gender\":\"female\",\"status\":\"active\"},{\"id\":2338,\"name\":\"Meghnath Chopra\",\"email\":\"chopra_meghnath@schneider-yundt.org\",\"gender\":\"male\",\"status\":\"active\"},{\"id\":2332,\"name\":\"Geeta Deshpande\",\"email\":\"geeta_deshpande@koch-pfannerstill.io\",\"gender\":\"female\",\"status\":\"active\"},{\"id\":2330,\"name\":\"Mrs. Agneya Achari\",\"email\":\"achari_mrs_agneya@ward.net\",\"gender\":\"male\",\"status\":\"active\"},{\"id\":2325,\"name\":\"Chandramauli Verma\",\"email\":\"chandramauli_verma@erdman-aufderhar.name\",\"gender\":\"male\",\"status\":\"active\"}]}\n\n"},{"result":{"nanos":20300,"millis":0.0203,"status":"passed"},"step":{"line":16,"prefix":"Then","index":4,"text":"status 200"}},{"result":{"nanos":1944400,"millis":1.9444,"status":"passed"},"step":{"line":17,"prefix":"*","index":5,"text":"print response"},"stepLog":"10:11:27.156 [print] {\n  \"meta\": {\n    \"pagination\": {\n      \"total\": 1152,\n      \"pages\": 116,\n      \"page\": 1,\n      \"limit\": 10,\n      \"links\": {\n        \"previous\": null,\n        \"current\": \"https:\/\/gorest.co.in\/public\/v1\/users?page=1\",\n        \"next\": \"https:\/\/gorest.co.in\/public\/v1\/users?page=2\"\n      }\n    }\n  },\n  \"data\": [\n    {\n      \"id\": 2355,\n      \"name\": \"Dhanapati Kocchar\",\n      \"email\": \"kocchar_dhanapati@hahn.name\",\n      \"gender\": \"male\",\n      \"status\": \"active\"\n    },\n    {\n      \"id\": 2351,\n      \"name\": \"Mr. Amaresh Adiga\",\n      \"email\": \"adiga_amaresh_mr@strosin-larson.name\",\n      \"gender\": \"male\",\n      \"status\": \"active\"\n    },\n    {\n      \"id\": 2350,\n      \"name\": \"Vijay Kaur\",\n      \"email\": \"kaur_vijay@prohaska-zieme.co\",\n      \"gender\": \"male\",\n      \"status\": \"active\"\n    },\n    {\n      \"id\": 2343,\n      \"name\": \"Chinmayanand Shah DVM\",\n      \"email\": \"shah_chinmayanand_dvm@hoeger-bosco.io\",\n      \"gender\": \"male\",\n      \"status\": \"active\"\n    },\n    {\n      \"id\": 2342,\n      \"name\": \"Purnima Johar Sr.\",\n      \"email\": \"purnima_johar_sr@schiller.io\",\n      \"gender\": \"female\",\n      \"status\": \"active\"\n    },\n    {\n      \"id\": 2339,\n      \"name\": \"Laxmi Tagore VM\",\n      \"email\": \"vm_laxmi_tagore@harris-collins.co\",\n      \"gender\": \"female\",\n      \"status\": \"active\"\n    },\n    {\n      \"id\": 2338,\n      \"name\": \"Meghnath Chopra\",\n      \"email\": \"chopra_meghnath@schneider-yundt.org\",\n      \"gender\": \"male\",\n      \"status\": \"active\"\n    },\n    {\n      \"id\": 2332,\n      \"name\": \"Geeta Deshpande\",\n      \"email\": \"geeta_deshpande@koch-pfannerstill.io\",\n      \"gender\": \"female\",\n      \"status\": \"active\"\n    },\n    {\n      \"id\": 2330,\n      \"name\": \"Mrs. Agneya Achari\",\n      \"email\": \"achari_mrs_agneya@ward.net\",\n      \"gender\": \"male\",\n      \"status\": \"active\"\n    },\n    {\n      \"id\": 2325,\n      \"name\": \"Chandramauli Verma\",\n      \"email\": \"chandramauli_verma@erdman-aufderhar.name\",\n      \"gender\": \"male\",\n      \"status\": \"active\"\n    }\n  ]\n}\n \n"},{"result":{"nanos":790500,"millis":0.7905,"status":"passed"},"step":{"line":18,"prefix":"*","index":6,"text":"def jsonResponse = response"}},{"result":{"nanos":2943700,"millis":2.9437,"status":"passed"},"step":{"line":19,"prefix":"*","index":7,"text":"print jsonResponse"},"stepLog":"10:11:27.160 [print] {\n  \"meta\": {\n    \"pagination\": {\n      \"total\": 1152,\n      \"pages\": 116,\n      \"page\": 1,\n      \"limit\": 10,\n      \"links\": {\n        \"previous\": null,\n        \"current\": \"https:\/\/gorest.co.in\/public\/v1\/users?page=1\",\n        \"next\": \"https:\/\/gorest.co.in\/public\/v1\/users?page=2\"\n      }\n    }\n  },\n  \"data\": [\n    {\n      \"id\": 2355,\n      \"name\": \"Dhanapati Kocchar\",\n      \"email\": \"kocchar_dhanapati@hahn.name\",\n      \"gender\": \"male\",\n      \"status\": \"active\"\n    },\n    {\n      \"id\": 2351,\n      \"name\": \"Mr. Amaresh Adiga\",\n      \"email\": \"adiga_amaresh_mr@strosin-larson.name\",\n      \"gender\": \"male\",\n      \"status\": \"active\"\n    },\n    {\n      \"id\": 2350,\n      \"name\": \"Vijay Kaur\",\n      \"email\": \"kaur_vijay@prohaska-zieme.co\",\n      \"gender\": \"male\",\n      \"status\": \"active\"\n    },\n    {\n      \"id\": 2343,\n      \"name\": \"Chinmayanand Shah DVM\",\n      \"email\": \"shah_chinmayanand_dvm@hoeger-bosco.io\",\n      \"gender\": \"male\",\n      \"status\": \"active\"\n    },\n    {\n      \"id\": 2342,\n      \"name\": \"Purnima Johar Sr.\",\n      \"email\": \"purnima_johar_sr@schiller.io\",\n      \"gender\": \"female\",\n      \"status\": \"active\"\n    },\n    {\n      \"id\": 2339,\n      \"name\": \"Laxmi Tagore VM\",\n      \"email\": \"vm_laxmi_tagore@harris-collins.co\",\n      \"gender\": \"female\",\n      \"status\": \"active\"\n    },\n    {\n      \"id\": 2338,\n      \"name\": \"Meghnath Chopra\",\n      \"email\": \"chopra_meghnath@schneider-yundt.org\",\n      \"gender\": \"male\",\n      \"status\": \"active\"\n    },\n    {\n      \"id\": 2332,\n      \"name\": \"Geeta Deshpande\",\n      \"email\": \"geeta_deshpande@koch-pfannerstill.io\",\n      \"gender\": \"female\",\n      \"status\": \"active\"\n    },\n    {\n      \"id\": 2330,\n      \"name\": \"Mrs. Agneya Achari\",\n      \"email\": \"achari_mrs_agneya@ward.net\",\n      \"gender\": \"male\",\n      \"status\": \"active\"\n    },\n    {\n      \"id\": 2325,\n      \"name\": \"Chandramauli Verma\",\n      \"email\": \"chandramauli_verma@erdman-aufderhar.name\",\n      \"gender\": \"male\",\n      \"status\": \"active\"\n    }\n  ]\n}\n \n"},{"result":{"nanos":13927800,"millis":13.9278,"status":"passed"},"step":{"line":20,"prefix":"*","index":8,"text":"def actuserCount = jsonResponse.data.userCount"}},{"result":{"nanos":34424500,"errorMessage":"js failed:\n>>>>\n01: karate.log('[print]',userCount)\n<<<<\norg.graalvm.polyglot.PolyglotException: ReferenceError: \"userCount\" is not defined\n- <js>.:program(Unnamed:1)\n\nsrc\/test\/java\/Features\/GETapiquery.feature:21","millis":34.4245,"status":"failed"},"step":{"line":21,"prefix":"*","index":9,"text":"print userCount"},"stepLog":"10:11:27.210 src\/test\/java\/Features\/GETapiquery.feature:21\n* print userCount\njs failed:\n>>>>\n01: karate.log('[print]',userCount)\n<<<<\norg.graalvm.polyglot.PolyglotException: ReferenceError: \"userCount\" is not defined\n- <js>.:program(Unnamed:1)\n\nsrc\/test\/java\/Features\/GETapiquery.feature:21\n"}],"line":11,"description":"","durationMillis":1096.1037,"failed":true,"error":"js failed:\n>>>>\n01: karate.log('[print]',userCount)\n<<<<\norg.graalvm.polyglot.PolyglotException: ReferenceError: \"userCount\" is not defined\n- <js>.:program(Unnamed:1)\n\nsrc\/test\/java\/Features\/GETapiquery.feature:21","executorName":"main","name":"GET API with query","startTime":1665411086111,"refId":"[2:11]","endTime":1665411087210,"exampleIndex":-1}],"callDepth":0,"name":"GET API with parameters","description":"","resultDate":"2022-10-10 10:11:27 am","durationMillis":3602.484,"passedCount":1}