{"failedCount":0,"prefixedPath":"src\/test\/java\/Features\/GETapiquery.feature","packageQualifiedName":"src.test.java.Features.GETapiquery","loopIndex":-1,"relativePath":"src\/test\/java\/Features\/GETapiquery.feature","scenarioResults":[{"sectionIndex":0,"stepResults":[{"result":{"nanos":99566800,"millis":99.5668,"status":"passed"},"step":{"line":4,"prefix":"*","index":0,"text":"def query = {status:'active', gender:'male', id:3450}"}},{"result":{"nanos":151809100,"millis":151.8091,"status":"passed"},"step":{"line":6,"prefix":"Given","index":1,"text":"url 'https:\/\/gorest.co.in\/public\/v1\/users'"}},{"result":{"nanos":69699700,"millis":69.6997,"status":"passed"},"step":{"line":7,"prefix":"And","index":2,"text":"params query"}},{"result":{"nanos":1645228600,"millis":1645.2286,"status":"passed"},"step":{"line":8,"prefix":"When","index":3,"text":"method GET"},"stepLog":"22:27:41.481 request:\n1 > GET https:\/\/gorest.co.in\/public\/v1\/users?gender=male&id=3450&status=active\n1 > Host: gorest.co.in\n1 > Connection: Keep-Alive\n1 > User-Agent: Apache-HttpClient\/4.5.12 (Java\/17.0.4.1)\n1 > Accept-Encoding: gzip,deflate\n\n\n22:27:42.412 response time in milliseconds: 925\n1 < 200\n1 < Date: Sat, 08 Oct 2022 02:27:40 GMT\n1 < Content-Type: application\/json; charset=utf-8\n1 < Transfer-Encoding: chunked\n1 < Connection: keep-alive\n1 < Cache-Control: max-age=0, private, must-revalidate\n1 < etag: W\/\"7d0fad3944b5884d753950e7824069d3\"\n1 < referrer-policy: strict-origin-when-cross-origin\n1 < vary: Origin\n1 < x-content-type-options: nosniff\n1 < x-download-options: noopen\n1 < x-frame-options: SAMEORIGIN\n1 < x-permitted-cross-domain-policies: none\n1 < x-request-id: 026dd5a4-8695-4e51-8fc3-5528063985ed\n1 < x-runtime: 0.029437\n1 < x-xss-protection: 0\n1 < CF-Cache-Status: DYNAMIC\n1 < Report-To: {\"endpoints\":[{\"url\":\"https:\\\/\\\/a.nel.cloudflare.com\\\/report\\\/v3?s=3CGGl%2FxrSrGIxOiTkU2HIC1R8DSe0dWIQ2sU%2F0LExjV%2Fz6CGuxqylbl13UzhJ5GfwCsczJ91vymP9q6ExAZChQhkK7YAzmTBBKt2BlhPVXBBeKJ%2FwS1i6BS0gwx8xdA%3D\"}],\"group\":\"cf-nel\",\"max_age\":604800}\n1 < NEL: {\"success_fraction\":0,\"report_to\":\"cf-nel\",\"max_age\":604800}\n1 < Server: cloudflare\n1 < CF-RAY: 756b704faf88acc5-ATL\n1 < alt-svc: h3=\":443\"; ma=86400, h3-29=\":443\"; ma=86400\n{\"meta\":{\"pagination\":{\"total\":0,\"pages\":0,\"page\":1,\"limit\":10,\"links\":{\"previous\":null,\"current\":null,\"next\":null}}},\"data\":[]}\n\n"},{"result":{"nanos":43000,"millis":0.043,"status":"passed"},"step":{"line":9,"prefix":"Then","index":4,"text":"status 200"}},{"result":{"nanos":133681600,"millis":133.6816,"status":"passed"},"step":{"line":10,"prefix":"*","index":5,"text":"print response"},"stepLog":"22:27:42.557 [print] {\n  \"meta\": {\n    \"pagination\": {\n      \"total\": 0,\n      \"pages\": 0,\n      \"page\": 1,\n      \"limit\": 10,\n      \"links\": {\n        \"previous\": null,\n        \"current\": null,\n        \"next\": null\n      }\n    }\n  },\n  \"data\": [\n  ]\n}\n \n"}],"executorName":"main","line":3,"name":"get all active user","description":"","durationMillis":2100.0288,"startTime":1665196060428,"failed":false,"refId":"[1:3]","endTime":1665196062564,"exampleIndex":-1},{"sectionIndex":1,"stepResults":[{"result":{"nanos":749700,"millis":0.7497,"status":"passed"},"step":{"line":13,"prefix":"*","index":0,"text":"def query = {status:'active'}"}},{"result":{"nanos":1103400,"millis":1.1034,"status":"passed"},"step":{"line":14,"prefix":"Given","index":1,"text":"url 'https:\/\/gorest.co.in\/public\/v1\/users'"}},{"result":{"nanos":310500,"millis":0.3105,"status":"passed"},"step":{"line":15,"prefix":"And","index":2,"text":"params query"}},{"result":{"nanos":447870900,"millis":447.8709,"status":"passed"},"step":{"line":16,"prefix":"When","index":3,"text":"method GET"},"stepLog":"22:27:42.582 request:\n1 > GET https:\/\/gorest.co.in\/public\/v1\/users?status=active\n1 > Host: gorest.co.in\n1 > Connection: Keep-Alive\n1 > User-Agent: Apache-HttpClient\/4.5.12 (Java\/17.0.4.1)\n1 > Accept-Encoding: gzip,deflate\n\n\n22:27:43.023 response time in milliseconds: 439\n1 < 200\n1 < Date: Sat, 08 Oct 2022 02:27:41 GMT\n1 < Content-Type: application\/json; charset=utf-8\n1 < Transfer-Encoding: chunked\n1 < Connection: keep-alive\n1 < Cache-Control: max-age=0, private, must-revalidate\n1 < etag: W\/\"5da455bb6caf30cfc8f6c8fa02f8848c\"\n1 < referrer-policy: strict-origin-when-cross-origin\n1 < vary: Origin\n1 < x-content-type-options: nosniff\n1 < x-download-options: noopen\n1 < x-frame-options: SAMEORIGIN\n1 < x-permitted-cross-domain-policies: none\n1 < x-request-id: d8f860f1-2080-4abf-a1a4-968fd6220255\n1 < x-runtime: 0.051365\n1 < x-xss-protection: 0\n1 < CF-Cache-Status: DYNAMIC\n1 < Report-To: {\"endpoints\":[{\"url\":\"https:\\\/\\\/a.nel.cloudflare.com\\\/report\\\/v3?s=2hNdGEE0vSu9y5dO%2F7BqScNb%2Bbthgppx2MBuJRzOSjbF3DwTfkxz8xQPPty0aX%2Bcxatun2KyJ7Brygru%2FoxWAgL%2By8zQl3HtVh40nznROOMDZz%2FkWG4Qq%2BW4wx1LXvs%3D\"}],\"group\":\"cf-nel\",\"max_age\":604800}\n1 < NEL: {\"success_fraction\":0,\"report_to\":\"cf-nel\",\"max_age\":604800}\n1 < Server: cloudflare\n1 < CF-RAY: 756b70537dedad9b-ATL\n1 < alt-svc: h3=\":443\"; ma=86400, h3-29=\":443\"; ma=86400\n{\"meta\":{\"pagination\":{\"total\":1715,\"pages\":172,\"page\":1,\"limit\":10,\"links\":{\"previous\":null,\"current\":\"https:\/\/gorest.co.in\/public\/v1\/users?page=1\",\"next\":\"https:\/\/gorest.co.in\/public\/v1\/users?page=2\"}}},\"data\":[{\"id\":3453,\"name\":\"Shrishti Malik\",\"email\":\"malik_shrishti@kemmer-beer.com\",\"gender\":\"female\",\"status\":\"active\"},{\"id\":3451,\"name\":\"Brahmanandam Ahluwalia\",\"email\":\"ahluwalia_brahmanandam@veum.biz\",\"gender\":\"male\",\"status\":\"active\"},{\"id\":3450,\"name\":\"Suryakant Panicker\",\"email\":\"panicker_suryakant@becker.com\",\"gender\":\"female\",\"status\":\"active\"},{\"id\":3444,\"name\":\"Swara Guneta\",\"email\":\"guneta_swara@ondricka.org\",\"gender\":\"male\",\"status\":\"active\"},{\"id\":3442,\"name\":\"Rev. Devika Pilla\",\"email\":\"rev_devika_pilla@simonis-walsh.biz\",\"gender\":\"male\",\"status\":\"active\"},{\"id\":3438,\"name\":\"Chandramauli Johar\",\"email\":\"chandramauli_johar@beatty-graham.info\",\"gender\":\"female\",\"status\":\"active\"},{\"id\":3436,\"name\":\"Chandra Khanna\",\"email\":\"khanna_chandra@kilback.name\",\"gender\":\"female\",\"status\":\"active\"},{\"id\":3435,\"name\":\"Kumuda Tandon DVM\",\"email\":\"tandon_kumuda_dvm@williamson.co\",\"gender\":\"male\",\"status\":\"active\"},{\"id\":3433,\"name\":\"Bhagwanti Devar\",\"email\":\"devar_bhagwanti@hyatt-goodwin.info\",\"gender\":\"male\",\"status\":\"active\"},{\"id\":3432,\"name\":\"Dwaipayan Nambeesan V\",\"email\":\"dwaipayan_nambeesan_v@cummings-kertzmann.biz\",\"gender\":\"male\",\"status\":\"active\"}]}\n\n"},{"result":{"nanos":39800,"millis":0.0398,"status":"passed"},"step":{"line":17,"prefix":"Then","index":4,"text":"status 200"}},{"result":{"nanos":2521500,"millis":2.5215,"status":"passed"},"step":{"line":18,"prefix":"*","index":5,"text":"def jsonResponse = response"}},{"result":{"nanos":22314500,"millis":22.3145,"status":"passed"},"step":{"line":19,"prefix":"*","index":6,"text":"print jsonResponse"},"stepLog":"22:27:43.054 [print] {\n  \"meta\": {\n    \"pagination\": {\n      \"total\": 1715,\n      \"pages\": 172,\n      \"page\": 1,\n      \"limit\": 10,\n      \"links\": {\n        \"previous\": null,\n        \"current\": \"https:\/\/gorest.co.in\/public\/v1\/users?page=1\",\n        \"next\": \"https:\/\/gorest.co.in\/public\/v1\/users?page=2\"\n      }\n    }\n  },\n  \"data\": [\n    {\n      \"id\": 3453,\n      \"name\": \"Shrishti Malik\",\n      \"email\": \"malik_shrishti@kemmer-beer.com\",\n      \"gender\": \"female\",\n      \"status\": \"active\"\n    },\n    {\n      \"id\": 3451,\n      \"name\": \"Brahmanandam Ahluwalia\",\n      \"email\": \"ahluwalia_brahmanandam@veum.biz\",\n      \"gender\": \"male\",\n      \"status\": \"active\"\n    },\n    {\n      \"id\": 3450,\n      \"name\": \"Suryakant Panicker\",\n      \"email\": \"panicker_suryakant@becker.com\",\n      \"gender\": \"female\",\n      \"status\": \"active\"\n    },\n    {\n      \"id\": 3444,\n      \"name\": \"Swara Guneta\",\n      \"email\": \"guneta_swara@ondricka.org\",\n      \"gender\": \"male\",\n      \"status\": \"active\"\n    },\n    {\n      \"id\": 3442,\n      \"name\": \"Rev. Devika Pilla\",\n      \"email\": \"rev_devika_pilla@simonis-walsh.biz\",\n      \"gender\": \"male\",\n      \"status\": \"active\"\n    },\n    {\n      \"id\": 3438,\n      \"name\": \"Chandramauli Johar\",\n      \"email\": \"chandramauli_johar@beatty-graham.info\",\n      \"gender\": \"female\",\n      \"status\": \"active\"\n    },\n    {\n      \"id\": 3436,\n      \"name\": \"Chandra Khanna\",\n      \"email\": \"khanna_chandra@kilback.name\",\n      \"gender\": \"female\",\n      \"status\": \"active\"\n    },\n    {\n      \"id\": 3435,\n      \"name\": \"Kumuda Tandon DVM\",\n      \"email\": \"tandon_kumuda_dvm@williamson.co\",\n      \"gender\": \"male\",\n      \"status\": \"active\"\n    },\n    {\n      \"id\": 3433,\n      \"name\": \"Bhagwanti Devar\",\n      \"email\": \"devar_bhagwanti@hyatt-goodwin.info\",\n      \"gender\": \"male\",\n      \"status\": \"active\"\n    },\n    {\n      \"id\": 3432,\n      \"name\": \"Dwaipayan Nambeesan V\",\n      \"email\": \"dwaipayan_nambeesan_v@cummings-kertzmann.biz\",\n      \"gender\": \"male\",\n      \"status\": \"active\"\n    }\n  ]\n}\n \n"},{"result":{"nanos":7232900,"millis":7.2329,"status":"passed"},"step":{"line":20,"prefix":"*","index":7,"text":"def userCount = jsonResponse.data.length"}},{"result":{"nanos":9780600,"millis":9.7806,"status":"passed"},"step":{"line":21,"prefix":"*","index":8,"text":"print userCount"},"stepLog":"22:27:43.071 [print] 10 \n"},{"result":{"nanos":22033500,"millis":22.0335,"status":"passed"},"step":{"line":22,"prefix":"*","index":9,"text":"match userCount == 10"}}],"executorName":"main","line":12,"name":"get all active user and get the count","description":"","durationMillis":513.9573,"startTime":1665196062578,"failed":false,"refId":"[2:12]","endTime":1665196063094,"exampleIndex":-1}],"callDepth":0,"name":"GET API with query Parameters","description":"","resultDate":"2022-10-07 10:27:43 pm","durationMillis":2613.9861,"passedCount":2}