{"failedCount":0,"prefixedPath":"src\/test\/java\/Features\/GETapiquery.feature","packageQualifiedName":"src.test.java.Features.GETapiquery","loopIndex":-1,"relativePath":"src\/test\/java\/Features\/GETapiquery.feature","scenarioResults":[{"sectionIndex":0,"stepResults":[{"result":{"nanos":106292800,"millis":106.2928,"status":"passed"},"step":{"line":4,"prefix":"*","index":0,"text":"def query = {status:'active',gender:'male',id:3433}"}},{"result":{"nanos":134987700,"millis":134.9877,"status":"passed"},"step":{"line":5,"prefix":"Given","index":1,"text":"url 'https:\/\/gorest.co.in\/public\/v1\/users'"}},{"result":{"nanos":44473300,"millis":44.4733,"status":"passed"},"step":{"line":6,"prefix":"And","index":2,"text":"params query"}},{"result":{"nanos":1432234700,"millis":1432.2347,"status":"passed"},"step":{"line":7,"prefix":"When","index":3,"text":"method GET"},"stepLog":"23:03:25.781 request:\n1 > GET https:\/\/gorest.co.in\/public\/v1\/users?gender=male&id=3433&status=active\n1 > Host: gorest.co.in\n1 > Connection: Keep-Alive\n1 > User-Agent: Apache-HttpClient\/4.5.12 (Java\/17.0.4.1)\n1 > Accept-Encoding: gzip,deflate\n\n\n23:03:26.597 response time in milliseconds: 805\n1 < 200\n1 < Date: Sat, 08 Oct 2022 03:03:24 GMT\n1 < Content-Type: application\/json; charset=utf-8\n1 < Transfer-Encoding: chunked\n1 < Connection: keep-alive\n1 < Cache-Control: max-age=0, private, must-revalidate\n1 < etag: W\/\"1a9c4801f5487e3983c1b1e3f2df6a72\"\n1 < referrer-policy: strict-origin-when-cross-origin\n1 < vary: Origin\n1 < x-content-type-options: nosniff\n1 < x-download-options: noopen\n1 < x-frame-options: SAMEORIGIN\n1 < x-permitted-cross-domain-policies: none\n1 < x-request-id: 3ecaf42a-5ea9-4b5a-a888-ee3c6df8fdc4\n1 < x-runtime: 0.034239\n1 < x-xss-protection: 0\n1 < CF-Cache-Status: DYNAMIC\n1 < Report-To: {\"endpoints\":[{\"url\":\"https:\\\/\\\/a.nel.cloudflare.com\\\/report\\\/v3?s=jz3WeNOD3jD9aqawQMWbjq8HBMcAx%2B1ZG2RNfuSlBq14z0EVhCqa%2B8woeFjWZy%2B9BfKSmS21Bfd7%2BZKy9tzIQPh7dcdMMtK6hxf2zX5k9Xi1Cgb%2FvM73XdEcv7kT3dw%3D\"}],\"group\":\"cf-nel\",\"max_age\":604800}\n1 < NEL: {\"success_fraction\":0,\"report_to\":\"cf-nel\",\"max_age\":604800}\n1 < Server: cloudflare\n1 < CF-RAY: 756ba4a92b81ad92-ATL\n1 < alt-svc: h3=\":443\"; ma=86400, h3-29=\":443\"; ma=86400\n{\"meta\":{\"pagination\":{\"total\":1,\"pages\":1,\"page\":1,\"limit\":10,\"links\":{\"previous\":null,\"current\":\"https:\/\/gorest.co.in\/public\/v1\/users?page=1\",\"next\":null}}},\"data\":[{\"id\":3433,\"name\":\"Bhagwanti Devar\",\"email\":\"devar_bhagwanti@hyatt-goodwin.info\",\"gender\":\"male\",\"status\":\"active\"}]}\n\n"},{"result":{"nanos":76900,"millis":0.0769,"status":"passed"},"step":{"line":8,"prefix":"Then","index":4,"text":"status 200"}},{"result":{"nanos":92131900,"millis":92.1319,"status":"passed"},"step":{"line":9,"prefix":"*","index":5,"text":"print response"},"stepLog":"23:03:26.745 [print] {\n  \"meta\": {\n    \"pagination\": {\n      \"total\": 1,\n      \"pages\": 1,\n      \"page\": 1,\n      \"limit\": 10,\n      \"links\": {\n        \"previous\": null,\n        \"current\": \"https:\/\/gorest.co.in\/public\/v1\/users?page=1\",\n        \"next\": null\n      }\n    }\n  },\n  \"data\": [\n    {\n      \"id\": 3433,\n      \"name\": \"Bhagwanti Devar\",\n      \"email\": \"devar_bhagwanti@hyatt-goodwin.info\",\n      \"gender\": \"male\",\n      \"status\": \"active\"\n    }\n  ]\n}\n \n"}],"executorName":"main","line":3,"name":"get active user with query","description":"","durationMillis":1810.1973,"startTime":1665198204908,"failed":false,"refId":"[1:3]","endTime":1665198206746,"exampleIndex":-1},{"sectionIndex":1,"stepResults":[{"result":{"nanos":3330200,"millis":3.3302,"status":"passed"},"step":{"line":14,"prefix":"*","index":0,"text":"def query = {status:'active'}"}},{"result":{"nanos":1090700,"millis":1.0907,"status":"passed"},"step":{"line":15,"prefix":"Given","index":1,"text":"url 'https:\/\/gorest.co.in\/public\/v1\/users'"}},{"result":{"nanos":325300,"millis":0.3253,"status":"passed"},"step":{"line":16,"prefix":"And","index":2,"text":"params query"}},{"result":{"nanos":425923700,"millis":425.9237,"status":"passed"},"step":{"line":17,"prefix":"When","index":3,"text":"method GET"},"stepLog":"23:03:26.765 request:\n1 > GET https:\/\/gorest.co.in\/public\/v1\/users?status=active\n1 > Host: gorest.co.in\n1 > Connection: Keep-Alive\n1 > User-Agent: Apache-HttpClient\/4.5.12 (Java\/17.0.4.1)\n1 > Accept-Encoding: gzip,deflate\n\n\n23:03:27.181 response time in milliseconds: 415\n1 < 200\n1 < Date: Sat, 08 Oct 2022 03:03:25 GMT\n1 < Content-Type: application\/json; charset=utf-8\n1 < Transfer-Encoding: chunked\n1 < Connection: keep-alive\n1 < Cache-Control: max-age=0, private, must-revalidate\n1 < etag: W\/\"e0c98e5647a6f532fcbb791cc4928092\"\n1 < referrer-policy: strict-origin-when-cross-origin\n1 < vary: Origin\n1 < x-content-type-options: nosniff\n1 < x-download-options: noopen\n1 < x-frame-options: SAMEORIGIN\n1 < x-permitted-cross-domain-policies: none\n1 < x-request-id: e6799a36-a662-4910-a532-ca78f6d8faa8\n1 < x-runtime: 0.052900\n1 < x-xss-protection: 0\n1 < CF-Cache-Status: DYNAMIC\n1 < Report-To: {\"endpoints\":[{\"url\":\"https:\\\/\\\/a.nel.cloudflare.com\\\/report\\\/v3?s=Mep3LUk%2ByEXYtnIz8W%2BMG2uGQ7vbzACCHQntqeNii7AYvl%2Fwa%2B9EMBc2q8gRHSF%2BQxEdBG8E%2Fq7pgRExNLMvDYFZkydI34UPWHSeyAhno0w7fGnlRsjBOzgCTceDy%2Fo%3D\"}],\"group\":\"cf-nel\",\"max_age\":604800}\n1 < NEL: {\"success_fraction\":0,\"report_to\":\"cf-nel\",\"max_age\":604800}\n1 < Server: cloudflare\n1 < CF-RAY: 756ba4acffebb042-ATL\n1 < alt-svc: h3=\":443\"; ma=86400, h3-29=\":443\"; ma=86400\n{\"meta\":{\"pagination\":{\"total\":1705,\"pages\":171,\"page\":1,\"limit\":10,\"links\":{\"previous\":null,\"current\":\"https:\/\/gorest.co.in\/public\/v1\/users?page=1\",\"next\":\"https:\/\/gorest.co.in\/public\/v1\/users?page=2\"}}},\"data\":[{\"id\":3442,\"name\":\"Rev. Devika Pilla\",\"email\":\"rev_devika_pilla@simonis-walsh.biz\",\"gender\":\"male\",\"status\":\"active\"},{\"id\":3438,\"name\":\"Chandramauli Johar\",\"email\":\"chandramauli_johar@beatty-graham.info\",\"gender\":\"female\",\"status\":\"active\"},{\"id\":3436,\"name\":\"Chandra Khanna\",\"email\":\"khanna_chandra@kilback.name\",\"gender\":\"female\",\"status\":\"active\"},{\"id\":3435,\"name\":\"Kumuda Tandon DVM\",\"email\":\"tandon_kumuda_dvm@williamson.co\",\"gender\":\"male\",\"status\":\"active\"},{\"id\":3433,\"name\":\"Bhagwanti Devar\",\"email\":\"devar_bhagwanti@hyatt-goodwin.info\",\"gender\":\"male\",\"status\":\"active\"},{\"id\":3432,\"name\":\"Dwaipayan Nambeesan V\",\"email\":\"dwaipayan_nambeesan_v@cummings-kertzmann.biz\",\"gender\":\"male\",\"status\":\"active\"},{\"id\":3431,\"name\":\"Sukanya Mahajan\",\"email\":\"sukanya_mahajan@yost.com\",\"gender\":\"male\",\"status\":\"active\"},{\"id\":3428,\"name\":\"Param Nair DVM\",\"email\":\"dvm_param_nair@wiza-vonrueden.org\",\"gender\":\"female\",\"status\":\"active\"},{\"id\":3427,\"name\":\"Dayaananda Dhawan\",\"email\":\"dhawan_dayaananda@schaden-rolfson.co\",\"gender\":\"male\",\"status\":\"active\"},{\"id\":3426,\"name\":\"Pres. Ramesh Mukhopadhyay\",\"email\":\"ramesh_pres_mukhopadhyay@ohara-zemlak.biz\",\"gender\":\"male\",\"status\":\"active\"}]}\n\n"},{"result":{"nanos":40300,"millis":0.0403,"status":"passed"},"step":{"line":18,"prefix":"Then","index":4,"text":"status 200"}},{"result":{"nanos":7735400,"millis":7.7354,"status":"passed"},"step":{"line":19,"prefix":"*","index":5,"text":"print response"},"stepLog":"23:03:27.197 [print] {\n  \"meta\": {\n    \"pagination\": {\n      \"total\": 1705,\n      \"pages\": 171,\n      \"page\": 1,\n      \"limit\": 10,\n      \"links\": {\n        \"previous\": null,\n        \"current\": \"https:\/\/gorest.co.in\/public\/v1\/users?page=1\",\n        \"next\": \"https:\/\/gorest.co.in\/public\/v1\/users?page=2\"\n      }\n    }\n  },\n  \"data\": [\n    {\n      \"id\": 3442,\n      \"name\": \"Rev. Devika Pilla\",\n      \"email\": \"rev_devika_pilla@simonis-walsh.biz\",\n      \"gender\": \"male\",\n      \"status\": \"active\"\n    },\n    {\n      \"id\": 3438,\n      \"name\": \"Chandramauli Johar\",\n      \"email\": \"chandramauli_johar@beatty-graham.info\",\n      \"gender\": \"female\",\n      \"status\": \"active\"\n    },\n    {\n      \"id\": 3436,\n      \"name\": \"Chandra Khanna\",\n      \"email\": \"khanna_chandra@kilback.name\",\n      \"gender\": \"female\",\n      \"status\": \"active\"\n    },\n    {\n      \"id\": 3435,\n      \"name\": \"Kumuda Tandon DVM\",\n      \"email\": \"tandon_kumuda_dvm@williamson.co\",\n      \"gender\": \"male\",\n      \"status\": \"active\"\n    },\n    {\n      \"id\": 3433,\n      \"name\": \"Bhagwanti Devar\",\n      \"email\": \"devar_bhagwanti@hyatt-goodwin.info\",\n      \"gender\": \"male\",\n      \"status\": \"active\"\n    },\n    {\n      \"id\": 3432,\n      \"name\": \"Dwaipayan Nambeesan V\",\n      \"email\": \"dwaipayan_nambeesan_v@cummings-kertzmann.biz\",\n      \"gender\": \"male\",\n      \"status\": \"active\"\n    },\n    {\n      \"id\": 3431,\n      \"name\": \"Sukanya Mahajan\",\n      \"email\": \"sukanya_mahajan@yost.com\",\n      \"gender\": \"male\",\n      \"status\": \"active\"\n    },\n    {\n      \"id\": 3428,\n      \"name\": \"Param Nair DVM\",\n      \"email\": \"dvm_param_nair@wiza-vonrueden.org\",\n      \"gender\": \"female\",\n      \"status\": \"active\"\n    },\n    {\n      \"id\": 3427,\n      \"name\": \"Dayaananda Dhawan\",\n      \"email\": \"dhawan_dayaananda@schaden-rolfson.co\",\n      \"gender\": \"male\",\n      \"status\": \"active\"\n    },\n    {\n      \"id\": 3426,\n      \"name\": \"Pres. Ramesh Mukhopadhyay\",\n      \"email\": \"ramesh_pres_mukhopadhyay@ohara-zemlak.biz\",\n      \"gender\": \"male\",\n      \"status\": \"active\"\n    }\n  ]\n}\n \n"},{"result":{"nanos":1020600,"millis":1.0206,"status":"passed"},"step":{"line":20,"prefix":"*","index":6,"text":"def jsonResponse = response"}},{"result":{"nanos":3252500,"millis":3.2525,"status":"passed"},"step":{"line":21,"prefix":"*","index":7,"text":"print response"},"stepLog":"23:03:27.202 [print] {\n  \"meta\": {\n    \"pagination\": {\n      \"total\": 1705,\n      \"pages\": 171,\n      \"page\": 1,\n      \"limit\": 10,\n      \"links\": {\n        \"previous\": null,\n        \"current\": \"https:\/\/gorest.co.in\/public\/v1\/users?page=1\",\n        \"next\": \"https:\/\/gorest.co.in\/public\/v1\/users?page=2\"\n      }\n    }\n  },\n  \"data\": [\n    {\n      \"id\": 3442,\n      \"name\": \"Rev. Devika Pilla\",\n      \"email\": \"rev_devika_pilla@simonis-walsh.biz\",\n      \"gender\": \"male\",\n      \"status\": \"active\"\n    },\n    {\n      \"id\": 3438,\n      \"name\": \"Chandramauli Johar\",\n      \"email\": \"chandramauli_johar@beatty-graham.info\",\n      \"gender\": \"female\",\n      \"status\": \"active\"\n    },\n    {\n      \"id\": 3436,\n      \"name\": \"Chandra Khanna\",\n      \"email\": \"khanna_chandra@kilback.name\",\n      \"gender\": \"female\",\n      \"status\": \"active\"\n    },\n    {\n      \"id\": 3435,\n      \"name\": \"Kumuda Tandon DVM\",\n      \"email\": \"tandon_kumuda_dvm@williamson.co\",\n      \"gender\": \"male\",\n      \"status\": \"active\"\n    },\n    {\n      \"id\": 3433,\n      \"name\": \"Bhagwanti Devar\",\n      \"email\": \"devar_bhagwanti@hyatt-goodwin.info\",\n      \"gender\": \"male\",\n      \"status\": \"active\"\n    },\n    {\n      \"id\": 3432,\n      \"name\": \"Dwaipayan Nambeesan V\",\n      \"email\": \"dwaipayan_nambeesan_v@cummings-kertzmann.biz\",\n      \"gender\": \"male\",\n      \"status\": \"active\"\n    },\n    {\n      \"id\": 3431,\n      \"name\": \"Sukanya Mahajan\",\n      \"email\": \"sukanya_mahajan@yost.com\",\n      \"gender\": \"male\",\n      \"status\": \"active\"\n    },\n    {\n      \"id\": 3428,\n      \"name\": \"Param Nair DVM\",\n      \"email\": \"dvm_param_nair@wiza-vonrueden.org\",\n      \"gender\": \"female\",\n      \"status\": \"active\"\n    },\n    {\n      \"id\": 3427,\n      \"name\": \"Dayaananda Dhawan\",\n      \"email\": \"dhawan_dayaananda@schaden-rolfson.co\",\n      \"gender\": \"male\",\n      \"status\": \"active\"\n    },\n    {\n      \"id\": 3426,\n      \"name\": \"Pres. Ramesh Mukhopadhyay\",\n      \"email\": \"ramesh_pres_mukhopadhyay@ohara-zemlak.biz\",\n      \"gender\": \"male\",\n      \"status\": \"active\"\n    }\n  ]\n}\n \n"},{"result":{"nanos":4771500,"millis":4.7715,"status":"passed"},"step":{"line":22,"prefix":"*","index":8,"text":"def userCount = jsonResponse.data.length"}},{"result":{"nanos":2937400,"millis":2.9374,"status":"passed"},"step":{"line":23,"prefix":"*","index":9,"text":"print userCount"},"stepLog":"23:03:27.209 [print] 10 \n"},{"result":{"nanos":23655800,"millis":23.6558,"status":"passed"},"step":{"line":24,"prefix":"*","index":10,"text":"match userCount == 10"}}],"executorName":"main","line":13,"name":"get active user with usercount","description":"","durationMillis":474.0834,"startTime":1665198206757,"failed":false,"refId":"[2:13]","endTime":1665198207234,"exampleIndex":-1}],"callDepth":0,"name":"GET api user with query parameters","description":"","resultDate":"2022-10-07 11:03:27 pm","durationMillis":2284.2807,"passedCount":2}