{"failedCount":1,"prefixedPath":"src\/test\/java\/Features\/GETapiquery.feature","packageQualifiedName":"src.test.java.Features.GETapiquery","loopIndex":-1,"relativePath":"src\/test\/java\/Features\/GETapiquery.feature","scenarioResults":[{"sectionIndex":0,"stepResults":[{"result":{"nanos":76258500,"millis":76.2585,"status":"passed"},"step":{"line":4,"prefix":"*","index":0,"text":"def query = {status:'active', gender: 'male'}"}},{"result":{"nanos":107099800,"millis":107.0998,"status":"passed"},"step":{"line":5,"prefix":"Given","index":1,"text":"url 'https:\/\/gorest.co.in\/public\/v1\/users'"}},{"result":{"nanos":42895100,"millis":42.8951,"status":"passed"},"step":{"line":6,"prefix":"And","index":2,"text":"params query"}},{"result":{"nanos":2108116200,"millis":2108.1162,"status":"passed"},"step":{"line":7,"prefix":"When","index":3,"text":"method GET"},"stepLog":"19:24:27.670 request:\n1 > GET https:\/\/gorest.co.in\/public\/v1\/users?gender=male&status=active\n1 > Host: gorest.co.in\n1 > Connection: Keep-Alive\n1 > User-Agent: Apache-HttpClient\/4.5.12 (Java\/17.0.4.1)\n1 > Accept-Encoding: gzip,deflate\n\n\n19:24:29.186 response time in milliseconds: 1504\n1 < 200\n1 < Date: Sun, 09 Oct 2022 23:24:29 GMT\n1 < Content-Type: application\/json; charset=utf-8\n1 < Transfer-Encoding: chunked\n1 < Connection: keep-alive\n1 < Cache-Control: max-age=0, private, must-revalidate\n1 < etag: W\/\"9ef17259aa8dae9fef29f79a7d40ef5a\"\n1 < referrer-policy: strict-origin-when-cross-origin\n1 < vary: Origin\n1 < x-content-type-options: nosniff\n1 < x-download-options: noopen\n1 < x-frame-options: SAMEORIGIN\n1 < x-permitted-cross-domain-policies: none\n1 < x-request-id: 03a2ca39-e996-47bc-be9f-96ade8be06a2\n1 < x-runtime: 0.037987\n1 < x-xss-protection: 0\n1 < CF-Cache-Status: DYNAMIC\n1 < Report-To: {\"endpoints\":[{\"url\":\"https:\\\/\\\/a.nel.cloudflare.com\\\/report\\\/v3?s=ZQzo7n16ZaUEqe9U17mGtWG%2FC%2F8ALFOVD4HmBTz%2F3THaRSBMM%2BD0oTImhXzMRV7q%2FUQ48V7zzewz1NC0JHVI775ZPQyygq2A4vg3PJTRbarYDbeSMZlaCioSLKhVs%2BI%3D\"}],\"group\":\"cf-nel\",\"max_age\":604800}\n1 < NEL: {\"success_fraction\":0,\"report_to\":\"cf-nel\",\"max_age\":604800}\n1 < Server: cloudflare\n1 < CF-RAY: 757adeb6dda51867-ATL\n1 < alt-svc: h3=\":443\"; ma=86400, h3-29=\":443\"; ma=86400\n{\"meta\":{\"pagination\":{\"total\":618,\"pages\":62,\"page\":1,\"limit\":10,\"links\":{\"previous\":null,\"current\":\"https:\/\/gorest.co.in\/public\/v1\/users?page=1\",\"next\":\"https:\/\/gorest.co.in\/public\/v1\/users?page=2\"}}},\"data\":[{\"id\":2419,\"name\":\"Subhasini Bandopadhyay\",\"email\":\"subhasini_bandopadhyay@schamberger.com\",\"gender\":\"male\",\"status\":\"active\"},{\"id\":2413,\"name\":\"Mrs. Balagovind Deshpande\",\"email\":\"mrs_balagovind_deshpande@larkin.co\",\"gender\":\"male\",\"status\":\"active\"},{\"id\":2409,\"name\":\"Prasad Panicker\",\"email\":\"panicker_prasad@williamson-barrows.co\",\"gender\":\"male\",\"status\":\"active\"},{\"id\":2405,\"name\":\"Gov. Aadidev Agarwal\",\"email\":\"aadidev_gov_agarwal@purdy-hartmann.io\",\"gender\":\"male\",\"status\":\"active\"},{\"id\":2404,\"name\":\"Chidambaram Agarwal\",\"email\":\"chidambaram_agarwal@stracke.io\",\"gender\":\"male\",\"status\":\"active\"},{\"id\":2403,\"name\":\"Bahula Ahuja\",\"email\":\"bahula_ahuja@hills.net\",\"gender\":\"male\",\"status\":\"active\"},{\"id\":2389,\"name\":\"Adinath Saini\",\"email\":\"adinath_saini@keeling.info\",\"gender\":\"male\",\"status\":\"active\"},{\"id\":2387,\"name\":\"Tanushree Butt\",\"email\":\"butt_tanushree@osinski-stracke.info\",\"gender\":\"male\",\"status\":\"active\"},{\"id\":2386,\"name\":\"Devani Kaur Esq.\",\"email\":\"devani_kaur_esq@gerlach.co\",\"gender\":\"male\",\"status\":\"active\"},{\"id\":2380,\"name\":\"Swara Sinha\",\"email\":\"sinha_swara@morar.co\",\"gender\":\"male\",\"status\":\"active\"}]}\n\n"},{"result":{"nanos":66300,"millis":0.0663,"status":"passed"},"step":{"line":8,"prefix":"Then","index":4,"text":"status 200"}},{"result":{"nanos":189620600,"millis":189.6206,"status":"passed"},"step":{"line":9,"prefix":"*","index":5,"text":"print response"},"stepLog":"19:24:29.397 [print] {\n  \"meta\": {\n    \"pagination\": {\n      \"total\": 618,\n      \"pages\": 62,\n      \"page\": 1,\n      \"limit\": 10,\n      \"links\": {\n        \"previous\": null,\n        \"current\": \"https:\/\/gorest.co.in\/public\/v1\/users?page=1\",\n        \"next\": \"https:\/\/gorest.co.in\/public\/v1\/users?page=2\"\n      }\n    }\n  },\n  \"data\": [\n    {\n      \"id\": 2419,\n      \"name\": \"Subhasini Bandopadhyay\",\n      \"email\": \"subhasini_bandopadhyay@schamberger.com\",\n      \"gender\": \"male\",\n      \"status\": \"active\"\n    },\n    {\n      \"id\": 2413,\n      \"name\": \"Mrs. Balagovind Deshpande\",\n      \"email\": \"mrs_balagovind_deshpande@larkin.co\",\n      \"gender\": \"male\",\n      \"status\": \"active\"\n    },\n    {\n      \"id\": 2409,\n      \"name\": \"Prasad Panicker\",\n      \"email\": \"panicker_prasad@williamson-barrows.co\",\n      \"gender\": \"male\",\n      \"status\": \"active\"\n    },\n    {\n      \"id\": 2405,\n      \"name\": \"Gov. Aadidev Agarwal\",\n      \"email\": \"aadidev_gov_agarwal@purdy-hartmann.io\",\n      \"gender\": \"male\",\n      \"status\": \"active\"\n    },\n    {\n      \"id\": 2404,\n      \"name\": \"Chidambaram Agarwal\",\n      \"email\": \"chidambaram_agarwal@stracke.io\",\n      \"gender\": \"male\",\n      \"status\": \"active\"\n    },\n    {\n      \"id\": 2403,\n      \"name\": \"Bahula Ahuja\",\n      \"email\": \"bahula_ahuja@hills.net\",\n      \"gender\": \"male\",\n      \"status\": \"active\"\n    },\n    {\n      \"id\": 2389,\n      \"name\": \"Adinath Saini\",\n      \"email\": \"adinath_saini@keeling.info\",\n      \"gender\": \"male\",\n      \"status\": \"active\"\n    },\n    {\n      \"id\": 2387,\n      \"name\": \"Tanushree Butt\",\n      \"email\": \"butt_tanushree@osinski-stracke.info\",\n      \"gender\": \"male\",\n      \"status\": \"active\"\n    },\n    {\n      \"id\": 2386,\n      \"name\": \"Devani Kaur Esq.\",\n      \"email\": \"devani_kaur_esq@gerlach.co\",\n      \"gender\": \"male\",\n      \"status\": \"active\"\n    },\n    {\n      \"id\": 2380,\n      \"name\": \"Swara Sinha\",\n      \"email\": \"sinha_swara@morar.co\",\n      \"gender\": \"male\",\n      \"status\": \"active\"\n    }\n  ]\n}\n \n"}],"executorName":"main","line":3,"name":"GET API with query params","description":"","durationMillis":2524.0565,"startTime":1665357866848,"failed":false,"refId":"[1:3]","endTime":1665357869398,"exampleIndex":-1},{"sectionIndex":1,"stepResults":[{"result":{"nanos":1763400,"millis":1.7634,"status":"passed"},"step":{"line":12,"prefix":"*","index":0,"text":"def query = {status: 'actve'}"}},{"result":{"nanos":1146100,"millis":1.1461,"status":"passed"},"step":{"line":13,"prefix":"Given","index":1,"text":"url 'https:\/\/gorest.co.in\/public\/v1\/users'"}},{"result":{"nanos":248200,"millis":0.2482,"status":"passed"},"step":{"line":14,"prefix":"And","index":2,"text":"params query"}},{"result":{"nanos":403273500,"millis":403.2735,"status":"passed"},"step":{"line":15,"prefix":"When","index":3,"text":"method GET"},"stepLog":"19:24:29.416 request:\n1 > GET https:\/\/gorest.co.in\/public\/v1\/users?status=actve\n1 > Host: gorest.co.in\n1 > Connection: Keep-Alive\n1 > User-Agent: Apache-HttpClient\/4.5.12 (Java\/17.0.4.1)\n1 > Accept-Encoding: gzip,deflate\n\n\n19:24:29.814 response time in milliseconds: 396\n1 < 200\n1 < Date: Sun, 09 Oct 2022 23:24:30 GMT\n1 < Content-Type: application\/json; charset=utf-8\n1 < Transfer-Encoding: chunked\n1 < Connection: keep-alive\n1 < Cache-Control: max-age=0, private, must-revalidate\n1 < etag: W\/\"7d0fad3944b5884d753950e7824069d3\"\n1 < referrer-policy: strict-origin-when-cross-origin\n1 < vary: Origin\n1 < x-content-type-options: nosniff\n1 < x-download-options: noopen\n1 < x-frame-options: SAMEORIGIN\n1 < x-permitted-cross-domain-policies: none\n1 < x-request-id: d299434b-9b0f-4c3d-9c21-aa77a5a0202d\n1 < x-runtime: 0.025214\n1 < x-xss-protection: 0\n1 < CF-Cache-Status: DYNAMIC\n1 < Report-To: {\"endpoints\":[{\"url\":\"https:\\\/\\\/a.nel.cloudflare.com\\\/report\\\/v3?s=OuJWiZnflIApxHX5a2S9ye%2FB9pCX09fmhmHRK%2FCHVsewp9FfB4NZKvTj7wMzZxu9ChytBxMLqms3aU5iLYY3uECmTViOTDq3RFFZxGMn8SCRavH5Rgl2Z2E9z1ymlLM%3D\"}],\"group\":\"cf-nel\",\"max_age\":604800}\n1 < NEL: {\"success_fraction\":0,\"report_to\":\"cf-nel\",\"max_age\":604800}\n1 < Server: cloudflare\n1 < CF-RAY: 757adebeea28ad03-ATL\n1 < alt-svc: h3=\":443\"; ma=86400, h3-29=\":443\"; ma=86400\n{\"meta\":{\"pagination\":{\"total\":0,\"pages\":0,\"page\":1,\"limit\":10,\"links\":{\"previous\":null,\"current\":null,\"next\":null}}},\"data\":[]}\n\n"},{"result":{"nanos":39700,"millis":0.0397,"status":"passed"},"step":{"line":16,"prefix":"Then","index":4,"text":"status 200"}},{"result":{"nanos":3884700,"millis":3.8847,"status":"passed"},"step":{"line":17,"prefix":"*","index":5,"text":"print response"},"stepLog":"19:24:29.821 [print] {\n  \"meta\": {\n    \"pagination\": {\n      \"total\": 0,\n      \"pages\": 0,\n      \"page\": 1,\n      \"limit\": 10,\n      \"links\": {\n        \"previous\": null,\n        \"current\": null,\n        \"next\": null\n      }\n    }\n  },\n  \"data\": [\n  ]\n}\n \n"},{"result":{"nanos":2207000,"millis":2.207,"status":"passed"},"step":{"line":18,"prefix":"*","index":6,"text":"def jsonResponse = response"}},{"result":{"nanos":3739300,"millis":3.7393,"status":"passed"},"step":{"line":19,"prefix":"*","index":7,"text":"print jsonResponse"},"stepLog":"19:24:29.828 [print] {\n  \"meta\": {\n    \"pagination\": {\n      \"total\": 0,\n      \"pages\": 0,\n      \"page\": 1,\n      \"limit\": 10,\n      \"links\": {\n        \"previous\": null,\n        \"current\": null,\n        \"next\": null\n      }\n    }\n  },\n  \"data\": [\n  ]\n}\n \n"},{"result":{"nanos":5752600,"millis":5.7526,"status":"passed"},"step":{"line":20,"prefix":"*","index":8,"text":"def actuserCount = jsonResponse.data.length"}},{"result":{"nanos":3791800,"millis":3.7918,"status":"passed"},"step":{"line":21,"prefix":"*","index":9,"text":"print actuserCount"},"stepLog":"19:24:29.838 [print] 0 \n"},{"result":{"nanos":24347500,"errorMessage":"match failed: EQUALS\n  $ | not equal (NUMBER:NUMBER)\n  0\n  10\n\nsrc\/test\/java\/Features\/GETapiquery.feature:22","millis":24.3475,"status":"failed"},"step":{"line":22,"prefix":"*","index":10,"text":"match actuserCount == 10"},"stepLog":"19:24:29.864 src\/test\/java\/Features\/GETapiquery.feature:22\n* match actuserCount == 10\nmatch failed: EQUALS\n  $ | not equal (NUMBER:NUMBER)\n  0\n  10\n\nsrc\/test\/java\/Features\/GETapiquery.feature:22\n"}],"line":11,"description":"","durationMillis":450.1938,"failed":true,"error":"match failed: EQUALS\n  $ | not equal (NUMBER:NUMBER)\n  0\n  10\n\nsrc\/test\/java\/Features\/GETapiquery.feature:22","executorName":"main","name":"GET API with user query","startTime":1665357869410,"refId":"[2:11]","endTime":1665357869864,"exampleIndex":-1}],"callDepth":0,"name":"GET API with query parametrs","description":"","resultDate":"2022-10-09 07:24:29 pm","durationMillis":2974.2503,"passedCount":1}