{"failedCount":0,"prefixedPath":"src\/test\/java\/Features\/GETapiquery.feature","packageQualifiedName":"src.test.java.Features.GETapiquery","loopIndex":-1,"relativePath":"src\/test\/java\/Features\/GETapiquery.feature","scenarioResults":[{"sectionIndex":0,"stepResults":[{"result":{"nanos":90277600,"millis":90.2776,"status":"passed"},"step":{"line":4,"prefix":"*","index":0,"text":"def query = {status: 'active'}"}},{"result":{"nanos":148622800,"millis":148.6228,"status":"passed"},"step":{"line":5,"prefix":"Given","index":1,"text":"url  'https:\/\/gorest.co.in\/public\/v1\/users'"}},{"result":{"nanos":61420800,"millis":61.4208,"status":"passed"},"step":{"line":6,"prefix":"And","index":2,"text":"params query"}},{"result":{"nanos":1965459200,"millis":1965.4592,"status":"passed"},"step":{"line":7,"prefix":"When","index":3,"text":"method GET"},"stepLog":"18:55:45.416 request:\n1 > GET https:\/\/gorest.co.in\/public\/v1\/users?status=active\n1 > Host: gorest.co.in\n1 > Connection: Keep-Alive\n1 > User-Agent: Apache-HttpClient\/4.5.12 (Java\/17.0.4.1)\n1 > Accept-Encoding: gzip,deflate\n\n\n18:55:46.886 response time in milliseconds: 1465\n1 < 200\n1 < Date: Sat, 08 Oct 2022 22:55:46 GMT\n1 < Content-Type: application\/json; charset=utf-8\n1 < Transfer-Encoding: chunked\n1 < Connection: keep-alive\n1 < Cache-Control: max-age=0, private, must-revalidate\n1 < etag: W\/\"d27d803885ecf6ed1a90bd37304aef46\"\n1 < referrer-policy: strict-origin-when-cross-origin\n1 < vary: Origin\n1 < x-content-type-options: nosniff\n1 < x-download-options: noopen\n1 < x-frame-options: SAMEORIGIN\n1 < x-permitted-cross-domain-policies: none\n1 < x-request-id: dc3384a9-d95f-40a4-a922-2111a9d02b0b\n1 < x-runtime: 0.021402\n1 < x-xss-protection: 0\n1 < CF-Cache-Status: DYNAMIC\n1 < Report-To: {\"endpoints\":[{\"url\":\"https:\\\/\\\/a.nel.cloudflare.com\\\/report\\\/v3?s=lRCR3ENoQoGyBeHRGFTfnflpn3IEoN08oNXw93Q92YhOOssmxhmE28Yn8l%2FuJsFk2Y1F%2B1anR8N%2BhBsyqIBMLM94GEFVRhByXRjcW7XMyM9F6YSHcuTO4ZpYFCgMUg4%3D\"}],\"group\":\"cf-nel\",\"max_age\":604800}\n1 < NEL: {\"success_fraction\":0,\"report_to\":\"cf-nel\",\"max_age\":604800}\n1 < Server: cloudflare\n1 < CF-RAY: 75727747dfd5b190-ATL\n1 < alt-svc: h3=\":443\"; ma=86400, h3-29=\":443\"; ma=86400\n{\"meta\":{\"pagination\":{\"total\":1627,\"pages\":163,\"page\":1,\"limit\":10,\"links\":{\"previous\":null,\"current\":\"https:\/\/gorest.co.in\/public\/v1\/users?page=1\",\"next\":\"https:\/\/gorest.co.in\/public\/v1\/users?page=2\"}}},\"data\":[{\"id\":3198,\"name\":\"Ekaling Ganaka Esq.\",\"email\":\"ganaka_ekaling_esq@oconner.biz\",\"gender\":\"male\",\"status\":\"active\"},{\"id\":3196,\"name\":\"Aagneya Talwar\",\"email\":\"talwar_aagneya@hettinger.io\",\"gender\":\"female\",\"status\":\"active\"},{\"id\":3193,\"name\":\"Subhash Butt\",\"email\":\"subhash_butt@haag-flatley.info\",\"gender\":\"male\",\"status\":\"active\"},{\"id\":3192,\"name\":\"Amaranaath Kaur\",\"email\":\"amaranaath_kaur@schumm.org\",\"gender\":\"male\",\"status\":\"active\"},{\"id\":3189,\"name\":\"Baladitya Arora\",\"email\":\"baladitya_arora@koelpin.biz\",\"gender\":\"male\",\"status\":\"active\"},{\"id\":3188,\"name\":\"Ekdant Nair\",\"email\":\"ekdant_nair@wyman.org\",\"gender\":\"female\",\"status\":\"active\"},{\"id\":3187,\"name\":\"Anaadi Sethi DC\",\"email\":\"dc_sethi_anaadi@batz.net\",\"gender\":\"male\",\"status\":\"active\"},{\"id\":3183,\"name\":\"Aagney Nayar\",\"email\":\"aagney_nayar@dooley-moen.name\",\"gender\":\"female\",\"status\":\"active\"},{\"id\":3182,\"name\":\"Sanka Verma\",\"email\":\"sanka_verma@durgan-jast.name\",\"gender\":\"female\",\"status\":\"active\"},{\"id\":3180,\"name\":\"Trilok Nehru\",\"email\":\"trilok_nehru@murray.co\",\"gender\":\"female\",\"status\":\"active\"}]}\n\n"},{"result":{"nanos":42300,"millis":0.0423,"status":"passed"},"step":{"line":8,"prefix":"Then","index":4,"text":"status 200"}},{"result":{"nanos":92193300,"millis":92.1933,"status":"passed"},"step":{"line":9,"prefix":"*","index":5,"text":"print response"},"stepLog":"18:55:46.985 [print] {\n  \"meta\": {\n    \"pagination\": {\n      \"total\": 1627,\n      \"pages\": 163,\n      \"page\": 1,\n      \"limit\": 10,\n      \"links\": {\n        \"previous\": null,\n        \"current\": \"https:\/\/gorest.co.in\/public\/v1\/users?page=1\",\n        \"next\": \"https:\/\/gorest.co.in\/public\/v1\/users?page=2\"\n      }\n    }\n  },\n  \"data\": [\n    {\n      \"id\": 3198,\n      \"name\": \"Ekaling Ganaka Esq.\",\n      \"email\": \"ganaka_ekaling_esq@oconner.biz\",\n      \"gender\": \"male\",\n      \"status\": \"active\"\n    },\n    {\n      \"id\": 3196,\n      \"name\": \"Aagneya Talwar\",\n      \"email\": \"talwar_aagneya@hettinger.io\",\n      \"gender\": \"female\",\n      \"status\": \"active\"\n    },\n    {\n      \"id\": 3193,\n      \"name\": \"Subhash Butt\",\n      \"email\": \"subhash_butt@haag-flatley.info\",\n      \"gender\": \"male\",\n      \"status\": \"active\"\n    },\n    {\n      \"id\": 3192,\n      \"name\": \"Amaranaath Kaur\",\n      \"email\": \"amaranaath_kaur@schumm.org\",\n      \"gender\": \"male\",\n      \"status\": \"active\"\n    },\n    {\n      \"id\": 3189,\n      \"name\": \"Baladitya Arora\",\n      \"email\": \"baladitya_arora@koelpin.biz\",\n      \"gender\": \"male\",\n      \"status\": \"active\"\n    },\n    {\n      \"id\": 3188,\n      \"name\": \"Ekdant Nair\",\n      \"email\": \"ekdant_nair@wyman.org\",\n      \"gender\": \"female\",\n      \"status\": \"active\"\n    },\n    {\n      \"id\": 3187,\n      \"name\": \"Anaadi Sethi DC\",\n      \"email\": \"dc_sethi_anaadi@batz.net\",\n      \"gender\": \"male\",\n      \"status\": \"active\"\n    },\n    {\n      \"id\": 3183,\n      \"name\": \"Aagney Nayar\",\n      \"email\": \"aagney_nayar@dooley-moen.name\",\n      \"gender\": \"female\",\n      \"status\": \"active\"\n    },\n    {\n      \"id\": 3182,\n      \"name\": \"Sanka Verma\",\n      \"email\": \"sanka_verma@durgan-jast.name\",\n      \"gender\": \"female\",\n      \"status\": \"active\"\n    },\n    {\n      \"id\": 3180,\n      \"name\": \"Trilok Nehru\",\n      \"email\": \"trilok_nehru@murray.co\",\n      \"gender\": \"female\",\n      \"status\": \"active\"\n    }\n  ]\n}\n \n"}],"executorName":"main","line":3,"name":"GET API user details with query","description":"","durationMillis":2358.016,"startTime":1665269744599,"failed":false,"refId":"[1:3]","endTime":1665269746987,"exampleIndex":-1}],"callDepth":0,"name":"GET API with query parameter","description":"","resultDate":"2022-10-08 06:55:46 pm","durationMillis":2358.016,"passedCount":1}