{"failedCount":1,"prefixedPath":"src\/test\/java\/Features\/GETapiquery.feature","packageQualifiedName":"src.test.java.Features.GETapiquery","loopIndex":-1,"relativePath":"src\/test\/java\/Features\/GETapiquery.feature","scenarioResults":[{"sectionIndex":0,"stepResults":[{"result":{"nanos":94584000,"millis":94.584,"status":"passed"},"step":{"line":4,"prefix":"*","index":0,"text":"def query = {status:'active'}"}},{"result":{"nanos":128400700,"millis":128.4007,"status":"passed"},"step":{"line":5,"prefix":"Given","index":1,"text":"url 'https:\/\/gorest.co.in\/public\/v1\/users'"}},{"result":{"nanos":53342600,"millis":53.3426,"status":"passed"},"step":{"line":6,"prefix":"And","index":2,"text":"params query"}},{"result":{"nanos":1992833100,"millis":1992.8331,"status":"passed"},"step":{"line":7,"prefix":"When","index":3,"text":"method GET"},"stepLog":"07:51:42.357 request:\n1 > GET https:\/\/gorest.co.in\/public\/v1\/users?status=active\n1 > Host: gorest.co.in\n1 > Connection: Keep-Alive\n1 > User-Agent: Apache-HttpClient\/4.5.12 (Java\/17.0.4.1)\n1 > Accept-Encoding: gzip,deflate\n\n\n07:51:43.803 response time in milliseconds: 1442\n1 < 200\n1 < Date: Sat, 08 Oct 2022 11:51:40 GMT\n1 < Content-Type: application\/json; charset=utf-8\n1 < Transfer-Encoding: chunked\n1 < Connection: keep-alive\n1 < Cache-Control: max-age=0, private, must-revalidate\n1 < etag: W\/\"2d7269c0d5f9da5205ce657e476c7520\"\n1 < referrer-policy: strict-origin-when-cross-origin\n1 < vary: Origin\n1 < x-content-type-options: nosniff\n1 < x-download-options: noopen\n1 < x-frame-options: SAMEORIGIN\n1 < x-permitted-cross-domain-policies: none\n1 < x-request-id: 61721321-f2cf-4ef8-bd4b-fe628638a6e6\n1 < x-runtime: 0.084592\n1 < x-xss-protection: 0\n1 < CF-Cache-Status: DYNAMIC\n1 < Report-To: {\"endpoints\":[{\"url\":\"https:\\\/\\\/a.nel.cloudflare.com\\\/report\\\/v3?s=c7IH%2B%2BLsSRdzFvhTYf5t9dXGnDQwFb6KZ68ZNalN51TYe3KlRZjSDK8ErlwCn3y7UR2ZplBZPsisPS0QwBrXtQ9hjFSDHoGPML%2BaH2qd2jBxFXZEivfVLTWi%2FR2qu84%3D\"}],\"group\":\"cf-nel\",\"max_age\":604800}\n1 < NEL: {\"success_fraction\":0,\"report_to\":\"cf-nel\",\"max_age\":604800}\n1 < Server: cloudflare\n1 < CF-RAY: 756eaa7b3eebadcf-ATL\n1 < alt-svc: h3=\":443\"; ma=86400, h3-29=\":443\"; ma=86400\n{\"meta\":{\"pagination\":{\"total\":1677,\"pages\":168,\"page\":1,\"limit\":10,\"links\":{\"previous\":null,\"current\":\"https:\/\/gorest.co.in\/public\/v1\/users?page=1\",\"next\":\"https:\/\/gorest.co.in\/public\/v1\/users?page=2\"}}},\"data\":[{\"id\":3403,\"name\":\"Chanda Dubashi JD\",\"email\":\"chanda_dubashi_jd@volkman.biz\",\"gender\":\"female\",\"status\":\"active\"},{\"id\":3402,\"name\":\"Kailash Ahluwalia\",\"email\":\"kailash_ahluwalia@reilly.info\",\"gender\":\"male\",\"status\":\"active\"},{\"id\":3397,\"name\":\"Charumati Patil\",\"email\":\"patil_charumati@herzog-altenwerth.com\",\"gender\":\"male\",\"status\":\"active\"},{\"id\":3395,\"name\":\"Amb. Himadri Mishra\",\"email\":\"amb_himadri_mishra@breitenberg-smith.name\",\"gender\":\"male\",\"status\":\"active\"},{\"id\":3392,\"name\":\"Shanti Kocchar\",\"email\":\"kocchar_shanti@wilderman.name\",\"gender\":\"male\",\"status\":\"active\"},{\"id\":3391,\"name\":\"Aadi Agarwal\",\"email\":\"agarwal_aadi@daniel.com\",\"gender\":\"male\",\"status\":\"active\"},{\"id\":3390,\"name\":\"Anurag Asan\",\"email\":\"anurag_asan@walter.co\",\"gender\":\"female\",\"status\":\"active\"},{\"id\":3389,\"name\":\"Gorakhanatha Shukla MD\",\"email\":\"gorakhanatha_shukla_md@tillman.name\",\"gender\":\"female\",\"status\":\"active\"},{\"id\":3386,\"name\":\"Vedang Shah\",\"email\":\"vedang_shah@jakubowski.com\",\"gender\":\"female\",\"status\":\"active\"},{\"id\":3385,\"name\":\"Baalaaditya Pilla\",\"email\":\"baalaaditya_pilla@romaguera.biz\",\"gender\":\"female\",\"status\":\"active\"}]}\n\n"},{"result":{"nanos":28300,"millis":0.0283,"status":"passed"},"step":{"line":8,"prefix":"Then","index":4,"text":"status 200"}},{"result":{"nanos":85290800,"millis":85.2908,"status":"passed"},"step":{"line":9,"prefix":"*","index":5,"text":"print response"},"stepLog":"07:51:43.894 [print] {\n  \"meta\": {\n    \"pagination\": {\n      \"total\": 1677,\n      \"pages\": 168,\n      \"page\": 1,\n      \"limit\": 10,\n      \"links\": {\n        \"previous\": null,\n        \"current\": \"https:\/\/gorest.co.in\/public\/v1\/users?page=1\",\n        \"next\": \"https:\/\/gorest.co.in\/public\/v1\/users?page=2\"\n      }\n    }\n  },\n  \"data\": [\n    {\n      \"id\": 3403,\n      \"name\": \"Chanda Dubashi JD\",\n      \"email\": \"chanda_dubashi_jd@volkman.biz\",\n      \"gender\": \"female\",\n      \"status\": \"active\"\n    },\n    {\n      \"id\": 3402,\n      \"name\": \"Kailash Ahluwalia\",\n      \"email\": \"kailash_ahluwalia@reilly.info\",\n      \"gender\": \"male\",\n      \"status\": \"active\"\n    },\n    {\n      \"id\": 3397,\n      \"name\": \"Charumati Patil\",\n      \"email\": \"patil_charumati@herzog-altenwerth.com\",\n      \"gender\": \"male\",\n      \"status\": \"active\"\n    },\n    {\n      \"id\": 3395,\n      \"name\": \"Amb. Himadri Mishra\",\n      \"email\": \"amb_himadri_mishra@breitenberg-smith.name\",\n      \"gender\": \"male\",\n      \"status\": \"active\"\n    },\n    {\n      \"id\": 3392,\n      \"name\": \"Shanti Kocchar\",\n      \"email\": \"kocchar_shanti@wilderman.name\",\n      \"gender\": \"male\",\n      \"status\": \"active\"\n    },\n    {\n      \"id\": 3391,\n      \"name\": \"Aadi Agarwal\",\n      \"email\": \"agarwal_aadi@daniel.com\",\n      \"gender\": \"male\",\n      \"status\": \"active\"\n    },\n    {\n      \"id\": 3390,\n      \"name\": \"Anurag Asan\",\n      \"email\": \"anurag_asan@walter.co\",\n      \"gender\": \"female\",\n      \"status\": \"active\"\n    },\n    {\n      \"id\": 3389,\n      \"name\": \"Gorakhanatha Shukla MD\",\n      \"email\": \"gorakhanatha_shukla_md@tillman.name\",\n      \"gender\": \"female\",\n      \"status\": \"active\"\n    },\n    {\n      \"id\": 3386,\n      \"name\": \"Vedang Shah\",\n      \"email\": \"vedang_shah@jakubowski.com\",\n      \"gender\": \"female\",\n      \"status\": \"active\"\n    },\n    {\n      \"id\": 3385,\n      \"name\": \"Baalaaditya Pilla\",\n      \"email\": \"baalaaditya_pilla@romaguera.biz\",\n      \"gender\": \"female\",\n      \"status\": \"active\"\n    }\n  ]\n}\n \n"}],"executorName":"main","line":3,"name":"get api active user","description":"","durationMillis":2354.4795,"startTime":1665229901512,"failed":false,"refId":"[1:3]","endTime":1665229903895,"exampleIndex":-1},{"sectionIndex":1,"stepResults":[{"result":{"nanos":907500,"millis":0.9075,"status":"passed"},"step":{"line":15,"prefix":"*","index":0,"text":"def query = {status:'active'}"}},{"result":{"nanos":1369300,"millis":1.3693,"status":"passed"},"step":{"line":16,"prefix":"Given","index":1,"text":"url 'https:\/\/gorest.co.in\/public\/v1\/users'"}},{"result":{"nanos":0,"errorMessage":"no step-definition method match found for: query params\nsrc\/test\/java\/Features\/GETapiquery.feature:17","millis":0.0,"status":"failed"},"step":{"line":17,"prefix":"And","index":2,"text":"query params"},"stepLog":"07:51:43.910 src\/test\/java\/Features\/GETapiquery.feature:17\nAnd query params\nno step-definition method match found for: query params\nsrc\/test\/java\/Features\/GETapiquery.feature:17\n"},{"result":{"nanos":0,"millis":0.0,"status":"skipped"},"step":{"line":18,"prefix":"When","index":3,"text":"method GET"}},{"result":{"nanos":0,"millis":0.0,"status":"skipped"},"step":{"line":19,"prefix":"Then","index":4,"text":"status 200"}},{"result":{"nanos":0,"millis":0.0,"status":"skipped"},"step":{"line":20,"prefix":"*","index":5,"text":"print response"}},{"result":{"nanos":0,"millis":0.0,"status":"skipped"},"step":{"line":21,"prefix":"*","index":6,"text":"def jsonResponse =  response"}},{"result":{"nanos":0,"millis":0.0,"status":"skipped"},"step":{"line":22,"prefix":"*","index":7,"text":"print jsonResponse"}}],"line":14,"description":"","durationMillis":2.2768,"failed":true,"error":"no step-definition method match found for: query params\nsrc\/test\/java\/Features\/GETapiquery.feature:17","executorName":"main","name":"get api active user with active user","startTime":1665229903906,"refId":"[2:14]","endTime":1665229903910,"exampleIndex":-1}],"callDepth":0,"name":"GET API query with parameters","description":"","resultDate":"2022-10-08 07:51:43 am","durationMillis":2356.7563,"passedCount":1}