{"failedCount":0,"prefixedPath":"src\/test\/java\/Features\/authtoken.feature","packageQualifiedName":"src.test.java.Features.authtoken","loopIndex":-1,"relativePath":"src\/test\/java\/Features\/authtoken.feature","scenarioResults":[{"sectionIndex":0,"stepResults":[{"result":{"nanos":172922700,"millis":172.9227,"status":"passed"},"step":{"line":6,"prefix":"*","index":0,"text":"def tokenId = 'e309662129815f44d0e42a1f012c4d7cc051576f95c1894fa6708642336a173b'"}},{"result":{"nanos":195081200,"millis":195.0812,"status":"passed"},"step":{"line":7,"prefix":"*","index":1,"text":"print tokenId"},"stepLog":"19:10:27.503 [print] e309662129815f44d0e42a1f012c4d7cc051576f95c1894fa6708642336a173b \n"},{"result":{"nanos":1602700,"millis":1.6027,"status":"passed"},"step":{"line":8,"prefix":"Given","index":2,"text":"header Authorization = 'Bearer e309662129815f44d0e42a1f012c4d7cc051576f95c1894fa6708642336a173b'"}},{"result":{"nanos":1370200,"millis":1.3702,"status":"passed"},"step":{"line":9,"prefix":"And","index":3,"text":"url 'https:\/\/gorest.co.in\/public\/v1\/users'"}},{"result":{"nanos":2298046000,"millis":2298.046,"status":"passed"},"step":{"line":10,"prefix":"When","index":4,"text":"method GET"},"stepLog":"19:10:28.052 request:\n1 > GET https:\/\/gorest.co.in\/public\/v1\/users\n1 > Authorization: Bearer e309662129815f44d0e42a1f012c4d7cc051576f95c1894fa6708642336a173b\n1 > Host: gorest.co.in\n1 > Connection: Keep-Alive\n1 > User-Agent: Apache-HttpClient\/4.5.12 (Java\/17.0.4.1)\n1 > Accept-Encoding: gzip,deflate\n\n\n19:10:29.729 response time in milliseconds: 1662\n1 < 200\n1 < Date: Sat, 08 Oct 2022 23:10:29 GMT\n1 < Content-Type: application\/json; charset=utf-8\n1 < Transfer-Encoding: chunked\n1 < Connection: keep-alive\n1 < Cache-Control: max-age=0, private, must-revalidate\n1 < etag: W\/\"a09b03c39914fbf1c2827778b4507879\"\n1 < referrer-policy: strict-origin-when-cross-origin\n1 < vary: Origin\n1 < x-content-type-options: nosniff\n1 < x-download-options: noopen\n1 < x-frame-options: SAMEORIGIN\n1 < x-permitted-cross-domain-policies: none\n1 < x-ratelimit-limit: 90\n1 < x-ratelimit-remaining: 89\n1 < x-ratelimit-reset: 1\n1 < x-request-id: 0543ad59-3d65-4ff6-9714-0481c28340d6\n1 < x-runtime: 0.090309\n1 < x-xss-protection: 0\n1 < CF-Cache-Status: DYNAMIC\n1 < Report-To: {\"endpoints\":[{\"url\":\"https:\\\/\\\/a.nel.cloudflare.com\\\/report\\\/v3?s=FhAB25WmkhbomMF%2FsD0VhWxgMxYbQGB8HTyyBbgvh2pL%2FHZlCsGghoRF8j4fwzWVztvj1Uqpcg7kuql9Aq0CVDznsJZVeGOopwgLoifwDtFWvGohsE%2B9hFbT9pzwOXc%3D\"}],\"group\":\"cf-nel\",\"max_age\":604800}\n1 < NEL: {\"success_fraction\":0,\"report_to\":\"cf-nel\",\"max_age\":604800}\n1 < Server: cloudflare\n1 < CF-RAY: 75728cd5391ae77f-ATL\n1 < alt-svc: h3=\":443\"; ma=86400, h3-29=\":443\"; ma=86400\n{\"meta\":{\"pagination\":{\"total\":3190,\"pages\":319,\"page\":1,\"limit\":10,\"links\":{\"previous\":null,\"current\":\"https:\/\/gorest.co.in\/public\/v1\/users?page=1\",\"next\":\"https:\/\/gorest.co.in\/public\/v1\/users?page=2\"}}},\"data\":[{\"id\":3204,\"name\":\"Bina Parekh\",\"email\":\"Bina@gmail.com\",\"gender\":\"female\",\"status\":\"active\"},{\"id\":3198,\"name\":\"Ekaling Ganaka Esq.\",\"email\":\"ganaka_ekaling_esq@oconner.biz\",\"gender\":\"male\",\"status\":\"active\"},{\"id\":3197,\"name\":\"Mr. Bhanumati Kapoor\",\"email\":\"mr_bhanumati_kapoor@grant-hodkiewicz.com\",\"gender\":\"male\",\"status\":\"inactive\"},{\"id\":3196,\"name\":\"Aagneya Talwar\",\"email\":\"talwar_aagneya@hettinger.io\",\"gender\":\"female\",\"status\":\"active\"},{\"id\":3195,\"name\":\"Tejas Rana LLD\",\"email\":\"tejas_lld_rana@metz.co\",\"gender\":\"male\",\"status\":\"inactive\"},{\"id\":3194,\"name\":\"Ajit Chopra\",\"email\":\"ajit_chopra@nicolas-hilll.com\",\"gender\":\"female\",\"status\":\"inactive\"},{\"id\":3193,\"name\":\"Subhash Butt\",\"email\":\"subhash_butt@haag-flatley.info\",\"gender\":\"male\",\"status\":\"active\"},{\"id\":3192,\"name\":\"Amaranaath Kaur\",\"email\":\"amaranaath_kaur@schumm.org\",\"gender\":\"male\",\"status\":\"active\"},{\"id\":3191,\"name\":\"Mrs. Vidur Bharadwaj\",\"email\":\"vidur_mrs_bharadwaj@dickinson-smitham.co\",\"gender\":\"male\",\"status\":\"inactive\"},{\"id\":3190,\"name\":\"Bhardwaj Saini\",\"email\":\"bhardwaj_saini@crist.com\",\"gender\":\"female\",\"status\":\"inactive\"}]}\n\n"},{"result":{"nanos":30500,"millis":0.0305,"status":"passed"},"step":{"line":11,"prefix":"Then","index":5,"text":"status 200"}},{"result":{"nanos":11586100,"millis":11.5861,"status":"passed"},"step":{"line":12,"prefix":"*","index":6,"text":"print response"},"stepLog":"19:10:29.821 [print] {\n  \"meta\": {\n    \"pagination\": {\n      \"total\": 3190,\n      \"pages\": 319,\n      \"page\": 1,\n      \"limit\": 10,\n      \"links\": {\n        \"previous\": null,\n        \"current\": \"https:\/\/gorest.co.in\/public\/v1\/users?page=1\",\n        \"next\": \"https:\/\/gorest.co.in\/public\/v1\/users?page=2\"\n      }\n    }\n  },\n  \"data\": [\n    {\n      \"id\": 3204,\n      \"name\": \"Bina Parekh\",\n      \"email\": \"Bina@gmail.com\",\n      \"gender\": \"female\",\n      \"status\": \"active\"\n    },\n    {\n      \"id\": 3198,\n      \"name\": \"Ekaling Ganaka Esq.\",\n      \"email\": \"ganaka_ekaling_esq@oconner.biz\",\n      \"gender\": \"male\",\n      \"status\": \"active\"\n    },\n    {\n      \"id\": 3197,\n      \"name\": \"Mr. Bhanumati Kapoor\",\n      \"email\": \"mr_bhanumati_kapoor@grant-hodkiewicz.com\",\n      \"gender\": \"male\",\n      \"status\": \"inactive\"\n    },\n    {\n      \"id\": 3196,\n      \"name\": \"Aagneya Talwar\",\n      \"email\": \"talwar_aagneya@hettinger.io\",\n      \"gender\": \"female\",\n      \"status\": \"active\"\n    },\n    {\n      \"id\": 3195,\n      \"name\": \"Tejas Rana LLD\",\n      \"email\": \"tejas_lld_rana@metz.co\",\n      \"gender\": \"male\",\n      \"status\": \"inactive\"\n    },\n    {\n      \"id\": 3194,\n      \"name\": \"Ajit Chopra\",\n      \"email\": \"ajit_chopra@nicolas-hilll.com\",\n      \"gender\": \"female\",\n      \"status\": \"inactive\"\n    },\n    {\n      \"id\": 3193,\n      \"name\": \"Subhash Butt\",\n      \"email\": \"subhash_butt@haag-flatley.info\",\n      \"gender\": \"male\",\n      \"status\": \"active\"\n    },\n    {\n      \"id\": 3192,\n      \"name\": \"Amaranaath Kaur\",\n      \"email\": \"amaranaath_kaur@schumm.org\",\n      \"gender\": \"male\",\n      \"status\": \"active\"\n    },\n    {\n      \"id\": 3191,\n      \"name\": \"Mrs. Vidur Bharadwaj\",\n      \"email\": \"vidur_mrs_bharadwaj@dickinson-smitham.co\",\n      \"gender\": \"male\",\n      \"status\": \"inactive\"\n    },\n    {\n      \"id\": 3190,\n      \"name\": \"Bhardwaj Saini\",\n      \"email\": \"bhardwaj_saini@crist.com\",\n      \"gender\": \"female\",\n      \"status\": \"inactive\"\n    }\n  ]\n}\n \n"}],"executorName":"main","line":5,"name":"GET API with token","description":"","durationMillis":2680.6394,"startTime":1665270627109,"failed":false,"refId":"[1:5]","endTime":1665270629821,"exampleIndex":-1}],"callDepth":0,"name":"GET API feature","description":"","resultDate":"2022-10-08 07:10:29 pm","durationMillis":2680.6394,"passedCount":1}