{"failedCount":0,"prefixedPath":"src\/test\/java\/Features\/GETapiquery.feature","packageQualifiedName":"src.test.java.Features.GETapiquery","loopIndex":-1,"relativePath":"src\/test\/java\/Features\/GETapiquery.feature","scenarioResults":[{"sectionIndex":0,"stepResults":[{"result":{"nanos":94940700,"millis":94.9407,"status":"passed"},"step":{"line":4,"prefix":"*","index":0,"text":"def query = {status: 'active', gender: 'male'}"}},{"result":{"nanos":184135500,"millis":184.1355,"status":"passed"},"step":{"line":5,"prefix":"Given","index":1,"text":"url 'https:\/\/gorest.co.in\/public\/v1\/users'"}},{"result":{"nanos":1950283300,"millis":1950.2833,"status":"passed"},"step":{"line":6,"prefix":"When","index":2,"text":"method GET"},"stepLog":"13:01:00.597 request:\n1 > GET https:\/\/gorest.co.in\/public\/v1\/users\n1 > Host: gorest.co.in\n1 > Connection: Keep-Alive\n1 > User-Agent: Apache-HttpClient\/4.5.12 (Java\/17.0.4.1)\n1 > Accept-Encoding: gzip,deflate\n\n\n13:01:02.039 response time in milliseconds: 1430\n1 < 200\n1 < Date: Tue, 11 Oct 2022 17:01:01 GMT\n1 < Content-Type: application\/json; charset=utf-8\n1 < Transfer-Encoding: chunked\n1 < Connection: keep-alive\n1 < Cache-Control: max-age=0, private, must-revalidate\n1 < etag: W\/\"2ee12af133f21a8780d01e1b16f96d05\"\n1 < referrer-policy: strict-origin-when-cross-origin\n1 < vary: Origin\n1 < x-content-type-options: nosniff\n1 < x-download-options: noopen\n1 < x-frame-options: SAMEORIGIN\n1 < x-permitted-cross-domain-policies: none\n1 < x-request-id: 9b1a9e74-12c3-42c2-b9c1-8c993af2dfc5\n1 < x-runtime: 0.039680\n1 < x-xss-protection: 0\n1 < CF-Cache-Status: DYNAMIC\n1 < Report-To: {\"endpoints\":[{\"url\":\"https:\\\/\\\/a.nel.cloudflare.com\\\/report\\\/v3?s=gb4kezQuabuB%2BkYsBRC3%2BwK0baxDl1k0CITFCcYp6drTj9KQxFDKBJurktnXBXXsLVB%2FXWu3Fp93g8gmaAiuctCe6X9IUT9GlRLlD40znIcVz417EBsNeY3HNrBKo6Q%3D\"}],\"group\":\"cf-nel\",\"max_age\":604800}\n1 < NEL: {\"success_fraction\":0,\"report_to\":\"cf-nel\",\"max_age\":604800}\n1 < Server: cloudflare\n1 < CF-RAY: 758927c19de6b18a-ATL\n1 < alt-svc: h3=\":443\"; ma=86400, h3-29=\":443\"; ma=86400\n{\"meta\":{\"pagination\":{\"total\":2097,\"pages\":210,\"page\":1,\"limit\":10,\"links\":{\"previous\":null,\"current\":\"https:\/\/gorest.co.in\/public\/v1\/users?page=1\",\"next\":\"https:\/\/gorest.co.in\/public\/v1\/users?page=2\"}}},\"data\":[{\"id\":2164,\"name\":\"Nirbhay Bhattathiri DO\",\"email\":\"bhattathiri_nirbhay_do@ledner.io\",\"gender\":\"female\",\"status\":\"active\"},{\"id\":2163,\"name\":\"Uttam Mishra VM\",\"email\":\"vm_mishra_uttam@mayert-hartmann.com\",\"gender\":\"male\",\"status\":\"active\"},{\"id\":2161,\"name\":\"Chaaruchandra Kapoor PhD\",\"email\":\"chaaruchandra_kapoor_phd@borer.co\",\"gender\":\"male\",\"status\":\"active\"},{\"id\":2160,\"name\":\"Jaimini Tagore\",\"email\":\"jaimini_tagore@jacobson.net\",\"gender\":\"male\",\"status\":\"active\"},{\"id\":2159,\"name\":\"Darshan Namboothiri VM\",\"email\":\"darshan_vm_namboothiri@kilback-auer.net\",\"gender\":\"female\",\"status\":\"inactive\"},{\"id\":2158,\"name\":\"Aditya Sethi\",\"email\":\"aditya_sethi@mohr.org\",\"gender\":\"female\",\"status\":\"inactive\"},{\"id\":2157,\"name\":\"Swara Trivedi\",\"email\":\"swara_trivedi@wolf-orn.com\",\"gender\":\"female\",\"status\":\"active\"},{\"id\":2156,\"name\":\"Dhyanesh Mahajan\",\"email\":\"dhyanesh_mahajan@heller-stanton.biz\",\"gender\":\"female\",\"status\":\"active\"},{\"id\":2155,\"name\":\"Dipankar Shukla\",\"email\":\"shukla_dipankar@thompson.com\",\"gender\":\"male\",\"status\":\"active\"},{\"id\":2154,\"name\":\"Vidur Varman\",\"email\":\"vidur_varman@welch-schimmel.io\",\"gender\":\"female\",\"status\":\"active\"}]}\n\n"},{"result":{"nanos":28000,"millis":0.028,"status":"passed"},"step":{"line":7,"prefix":"Then","index":3,"text":"status 200"}},{"result":{"nanos":122401300,"millis":122.4013,"status":"passed"},"step":{"line":8,"prefix":"*","index":4,"text":"print response"},"stepLog":"13:01:02.164 [print] {\n  \"meta\": {\n    \"pagination\": {\n      \"total\": 2097,\n      \"pages\": 210,\n      \"page\": 1,\n      \"limit\": 10,\n      \"links\": {\n        \"previous\": null,\n        \"current\": \"https:\/\/gorest.co.in\/public\/v1\/users?page=1\",\n        \"next\": \"https:\/\/gorest.co.in\/public\/v1\/users?page=2\"\n      }\n    }\n  },\n  \"data\": [\n    {\n      \"id\": 2164,\n      \"name\": \"Nirbhay Bhattathiri DO\",\n      \"email\": \"bhattathiri_nirbhay_do@ledner.io\",\n      \"gender\": \"female\",\n      \"status\": \"active\"\n    },\n    {\n      \"id\": 2163,\n      \"name\": \"Uttam Mishra VM\",\n      \"email\": \"vm_mishra_uttam@mayert-hartmann.com\",\n      \"gender\": \"male\",\n      \"status\": \"active\"\n    },\n    {\n      \"id\": 2161,\n      \"name\": \"Chaaruchandra Kapoor PhD\",\n      \"email\": \"chaaruchandra_kapoor_phd@borer.co\",\n      \"gender\": \"male\",\n      \"status\": \"active\"\n    },\n    {\n      \"id\": 2160,\n      \"name\": \"Jaimini Tagore\",\n      \"email\": \"jaimini_tagore@jacobson.net\",\n      \"gender\": \"male\",\n      \"status\": \"active\"\n    },\n    {\n      \"id\": 2159,\n      \"name\": \"Darshan Namboothiri VM\",\n      \"email\": \"darshan_vm_namboothiri@kilback-auer.net\",\n      \"gender\": \"female\",\n      \"status\": \"inactive\"\n    },\n    {\n      \"id\": 2158,\n      \"name\": \"Aditya Sethi\",\n      \"email\": \"aditya_sethi@mohr.org\",\n      \"gender\": \"female\",\n      \"status\": \"inactive\"\n    },\n    {\n      \"id\": 2157,\n      \"name\": \"Swara Trivedi\",\n      \"email\": \"swara_trivedi@wolf-orn.com\",\n      \"gender\": \"female\",\n      \"status\": \"active\"\n    },\n    {\n      \"id\": 2156,\n      \"name\": \"Dhyanesh Mahajan\",\n      \"email\": \"dhyanesh_mahajan@heller-stanton.biz\",\n      \"gender\": \"female\",\n      \"status\": \"active\"\n    },\n    {\n      \"id\": 2155,\n      \"name\": \"Dipankar Shukla\",\n      \"email\": \"shukla_dipankar@thompson.com\",\n      \"gender\": \"male\",\n      \"status\": \"active\"\n    },\n    {\n      \"id\": 2154,\n      \"name\": \"Vidur Varman\",\n      \"email\": \"vidur_varman@welch-schimmel.io\",\n      \"gender\": \"female\",\n      \"status\": \"active\"\n    }\n  ]\n}\n \n"}],"executorName":"main","line":3,"name":"GET API user details with query paramerts","description":"","durationMillis":2351.7888,"startTime":1665507659791,"failed":false,"refId":"[1:3]","endTime":1665507662169,"exampleIndex":-1},{"sectionIndex":1,"stepResults":[{"result":{"nanos":4777900,"millis":4.7779,"status":"passed"},"step":{"line":11,"prefix":"*","index":0,"text":"def query = {gender:'male'}"}},{"result":{"nanos":1210500,"millis":1.2105,"status":"passed"},"step":{"line":12,"prefix":"Given","index":1,"text":"url 'https:\/\/gorest.co.in\/public\/v1\/users'"}},{"result":{"nanos":999483000,"millis":999.483,"status":"passed"},"step":{"line":13,"prefix":"When","index":2,"text":"method GET"},"stepLog":"13:01:02.192 request:\n1 > GET https:\/\/gorest.co.in\/public\/v1\/users\n1 > Host: gorest.co.in\n1 > Connection: Keep-Alive\n1 > User-Agent: Apache-HttpClient\/4.5.12 (Java\/17.0.4.1)\n1 > Accept-Encoding: gzip,deflate\n\n\n13:01:03.186 response time in milliseconds: 993\n1 < 200\n1 < Date: Tue, 11 Oct 2022 17:01:03 GMT\n1 < Content-Type: application\/json; charset=utf-8\n1 < Transfer-Encoding: chunked\n1 < Connection: keep-alive\n1 < Cache-Control: max-age=0, private, must-revalidate\n1 < etag: W\/\"2ee12af133f21a8780d01e1b16f96d05\"\n1 < referrer-policy: strict-origin-when-cross-origin\n1 < vary: Origin\n1 < x-content-type-options: nosniff\n1 < x-download-options: noopen\n1 < x-frame-options: SAMEORIGIN\n1 < x-permitted-cross-domain-policies: none\n1 < x-request-id: ec69e95f-efa4-4ed3-8fce-d106ad278727\n1 < x-runtime: 0.022423\n1 < x-xss-protection: 0\n1 < CF-Cache-Status: DYNAMIC\n1 < Report-To: {\"endpoints\":[{\"url\":\"https:\\\/\\\/a.nel.cloudflare.com\\\/report\\\/v3?s=7wE9QV22e5Nu45GhUmhF3FlCX8DrYbkA1vl1xG1bTpt3Ft2DgSuPJlxUsGHCuIgIjLbxxIX%2FqarU%2BWrXNyquQb6DtJlNujbCAd1GFNiF1VeR6A6P6GRT0ueLWOHRb%2Bk%3D\"}],\"group\":\"cf-nel\",\"max_age\":604800}\n1 < NEL: {\"success_fraction\":0,\"report_to\":\"cf-nel\",\"max_age\":604800}\n1 < Server: cloudflare\n1 < CF-RAY: 758927c92f9aadac-ATL\n1 < alt-svc: h3=\":443\"; ma=86400, h3-29=\":443\"; ma=86400\n{\"meta\":{\"pagination\":{\"total\":2097,\"pages\":210,\"page\":1,\"limit\":10,\"links\":{\"previous\":null,\"current\":\"https:\/\/gorest.co.in\/public\/v1\/users?page=1\",\"next\":\"https:\/\/gorest.co.in\/public\/v1\/users?page=2\"}}},\"data\":[{\"id\":2164,\"name\":\"Nirbhay Bhattathiri DO\",\"email\":\"bhattathiri_nirbhay_do@ledner.io\",\"gender\":\"female\",\"status\":\"active\"},{\"id\":2163,\"name\":\"Uttam Mishra VM\",\"email\":\"vm_mishra_uttam@mayert-hartmann.com\",\"gender\":\"male\",\"status\":\"active\"},{\"id\":2161,\"name\":\"Chaaruchandra Kapoor PhD\",\"email\":\"chaaruchandra_kapoor_phd@borer.co\",\"gender\":\"male\",\"status\":\"active\"},{\"id\":2160,\"name\":\"Jaimini Tagore\",\"email\":\"jaimini_tagore@jacobson.net\",\"gender\":\"male\",\"status\":\"active\"},{\"id\":2159,\"name\":\"Darshan Namboothiri VM\",\"email\":\"darshan_vm_namboothiri@kilback-auer.net\",\"gender\":\"female\",\"status\":\"inactive\"},{\"id\":2158,\"name\":\"Aditya Sethi\",\"email\":\"aditya_sethi@mohr.org\",\"gender\":\"female\",\"status\":\"inactive\"},{\"id\":2157,\"name\":\"Swara Trivedi\",\"email\":\"swara_trivedi@wolf-orn.com\",\"gender\":\"female\",\"status\":\"active\"},{\"id\":2156,\"name\":\"Dhyanesh Mahajan\",\"email\":\"dhyanesh_mahajan@heller-stanton.biz\",\"gender\":\"female\",\"status\":\"active\"},{\"id\":2155,\"name\":\"Dipankar Shukla\",\"email\":\"shukla_dipankar@thompson.com\",\"gender\":\"male\",\"status\":\"active\"},{\"id\":2154,\"name\":\"Vidur Varman\",\"email\":\"vidur_varman@welch-schimmel.io\",\"gender\":\"female\",\"status\":\"active\"}]}\n\n"},{"result":{"nanos":14100,"millis":0.0141,"status":"passed"},"step":{"line":14,"prefix":"Then","index":3,"text":"status 200"}},{"result":{"nanos":2334500,"millis":2.3345,"status":"passed"},"step":{"line":15,"prefix":"*","index":4,"text":"print response"},"stepLog":"13:01:03.191 [print] {\n  \"meta\": {\n    \"pagination\": {\n      \"total\": 2097,\n      \"pages\": 210,\n      \"page\": 1,\n      \"limit\": 10,\n      \"links\": {\n        \"previous\": null,\n        \"current\": \"https:\/\/gorest.co.in\/public\/v1\/users?page=1\",\n        \"next\": \"https:\/\/gorest.co.in\/public\/v1\/users?page=2\"\n      }\n    }\n  },\n  \"data\": [\n    {\n      \"id\": 2164,\n      \"name\": \"Nirbhay Bhattathiri DO\",\n      \"email\": \"bhattathiri_nirbhay_do@ledner.io\",\n      \"gender\": \"female\",\n      \"status\": \"active\"\n    },\n    {\n      \"id\": 2163,\n      \"name\": \"Uttam Mishra VM\",\n      \"email\": \"vm_mishra_uttam@mayert-hartmann.com\",\n      \"gender\": \"male\",\n      \"status\": \"active\"\n    },\n    {\n      \"id\": 2161,\n      \"name\": \"Chaaruchandra Kapoor PhD\",\n      \"email\": \"chaaruchandra_kapoor_phd@borer.co\",\n      \"gender\": \"male\",\n      \"status\": \"active\"\n    },\n    {\n      \"id\": 2160,\n      \"name\": \"Jaimini Tagore\",\n      \"email\": \"jaimini_tagore@jacobson.net\",\n      \"gender\": \"male\",\n      \"status\": \"active\"\n    },\n    {\n      \"id\": 2159,\n      \"name\": \"Darshan Namboothiri VM\",\n      \"email\": \"darshan_vm_namboothiri@kilback-auer.net\",\n      \"gender\": \"female\",\n      \"status\": \"inactive\"\n    },\n    {\n      \"id\": 2158,\n      \"name\": \"Aditya Sethi\",\n      \"email\": \"aditya_sethi@mohr.org\",\n      \"gender\": \"female\",\n      \"status\": \"inactive\"\n    },\n    {\n      \"id\": 2157,\n      \"name\": \"Swara Trivedi\",\n      \"email\": \"swara_trivedi@wolf-orn.com\",\n      \"gender\": \"female\",\n      \"status\": \"active\"\n    },\n    {\n      \"id\": 2156,\n      \"name\": \"Dhyanesh Mahajan\",\n      \"email\": \"dhyanesh_mahajan@heller-stanton.biz\",\n      \"gender\": \"female\",\n      \"status\": \"active\"\n    },\n    {\n      \"id\": 2155,\n      \"name\": \"Dipankar Shukla\",\n      \"email\": \"shukla_dipankar@thompson.com\",\n      \"gender\": \"male\",\n      \"status\": \"active\"\n    },\n    {\n      \"id\": 2154,\n      \"name\": \"Vidur Varman\",\n      \"email\": \"vidur_varman@welch-schimmel.io\",\n      \"gender\": \"female\",\n      \"status\": \"active\"\n    }\n  ]\n}\n \n"},{"result":{"nanos":18921500,"millis":18.9215,"status":"passed"},"step":{"line":16,"prefix":"*","index":5,"text":"def jsonResponse = response"}},{"result":{"nanos":2847400,"millis":2.8474,"status":"passed"},"step":{"line":17,"prefix":"*","index":6,"text":"print jsonResponse"},"stepLog":"13:01:03.213 [print] {\n  \"meta\": {\n    \"pagination\": {\n      \"total\": 2097,\n      \"pages\": 210,\n      \"page\": 1,\n      \"limit\": 10,\n      \"links\": {\n        \"previous\": null,\n        \"current\": \"https:\/\/gorest.co.in\/public\/v1\/users?page=1\",\n        \"next\": \"https:\/\/gorest.co.in\/public\/v1\/users?page=2\"\n      }\n    }\n  },\n  \"data\": [\n    {\n      \"id\": 2164,\n      \"name\": \"Nirbhay Bhattathiri DO\",\n      \"email\": \"bhattathiri_nirbhay_do@ledner.io\",\n      \"gender\": \"female\",\n      \"status\": \"active\"\n    },\n    {\n      \"id\": 2163,\n      \"name\": \"Uttam Mishra VM\",\n      \"email\": \"vm_mishra_uttam@mayert-hartmann.com\",\n      \"gender\": \"male\",\n      \"status\": \"active\"\n    },\n    {\n      \"id\": 2161,\n      \"name\": \"Chaaruchandra Kapoor PhD\",\n      \"email\": \"chaaruchandra_kapoor_phd@borer.co\",\n      \"gender\": \"male\",\n      \"status\": \"active\"\n    },\n    {\n      \"id\": 2160,\n      \"name\": \"Jaimini Tagore\",\n      \"email\": \"jaimini_tagore@jacobson.net\",\n      \"gender\": \"male\",\n      \"status\": \"active\"\n    },\n    {\n      \"id\": 2159,\n      \"name\": \"Darshan Namboothiri VM\",\n      \"email\": \"darshan_vm_namboothiri@kilback-auer.net\",\n      \"gender\": \"female\",\n      \"status\": \"inactive\"\n    },\n    {\n      \"id\": 2158,\n      \"name\": \"Aditya Sethi\",\n      \"email\": \"aditya_sethi@mohr.org\",\n      \"gender\": \"female\",\n      \"status\": \"inactive\"\n    },\n    {\n      \"id\": 2157,\n      \"name\": \"Swara Trivedi\",\n      \"email\": \"swara_trivedi@wolf-orn.com\",\n      \"gender\": \"female\",\n      \"status\": \"active\"\n    },\n    {\n      \"id\": 2156,\n      \"name\": \"Dhyanesh Mahajan\",\n      \"email\": \"dhyanesh_mahajan@heller-stanton.biz\",\n      \"gender\": \"female\",\n      \"status\": \"active\"\n    },\n    {\n      \"id\": 2155,\n      \"name\": \"Dipankar Shukla\",\n      \"email\": \"shukla_dipankar@thompson.com\",\n      \"gender\": \"male\",\n      \"status\": \"active\"\n    },\n    {\n      \"id\": 2154,\n      \"name\": \"Vidur Varman\",\n      \"email\": \"vidur_varman@welch-schimmel.io\",\n      \"gender\": \"female\",\n      \"status\": \"active\"\n    }\n  ]\n}\n \n"},{"result":{"nanos":9803200,"millis":9.8032,"status":"passed"},"step":{"line":18,"prefix":"*","index":7,"text":"def userCount = jsonResponse.data.userCount"}},{"result":{"nanos":3103900,"millis":3.1039,"status":"passed"},"step":{"line":19,"prefix":"*","index":8,"text":"print userCount"},"stepLog":"13:01:03.226 [print] null \n"}],"executorName":"main","line":10,"name":"GET API details with query","description":"","durationMillis":1042.496,"startTime":1665507662182,"failed":false,"refId":"[2:10]","endTime":1665507663226,"exampleIndex":-1}],"callDepth":0,"name":"GET API with query","description":"","resultDate":"2022-10-11 01:01:03 pm","durationMillis":3394.2848,"passedCount":2}